<?xml version="1.0" encoding="utf-8"?>
<!-- Generator: Adobe Illustrator 24.1.2, SVG Export Plug-In . SVG Version: 6.00 Build 0)  -->
<svg version="1.1" id="Layer_1" xmlns="http://www.w3.org/2000/svg" xmlns:xlink="http://www.w3.org/1999/xlink" x="0px" y="0px"
	 viewBox="0 0 210.8 441" style="enable-background:new 0 0 210.8 441;" xml:space="preserve">
<style type="text/css">
	.st0{fill:url(#SVGID_1_);}
	.st1{fill:#FFFFFF;stroke:#F5B95B;stroke-miterlimit:10;}
	.st2{fill:none;stroke:#F5B95B;stroke-width:2;stroke-miterlimit:10;}
	.st3{fill:none;stroke:#F5B95B;stroke-width:2;stroke-miterlimit:10;stroke-dasharray:3.7386,1.8693;}
	.st4{fill:#FFFFFF;stroke:#F5B95B;stroke-width:2;stroke-miterlimit:10;}
	.st5{fill:#48495B;}
	.st6{fill:#DFF0D7;}
	.st7{fill:url(#SVGID_2_);}
	.st8{fill:none;stroke:#F5B95B;stroke-width:2;stroke-miterlimit:10;stroke-dasharray:4.2752,2.1376;}
	.st9{fill:none;stroke:#F5B95B;stroke-width:30;stroke-miterlimit:10;}
	.st10{fill:#F5B95B;}
	.st11{fill:none;stroke:#DFF0D7;stroke-width:30;stroke-miterlimit:10;}
</style>
<linearGradient id="SVGID_1_" gradientUnits="userSpaceOnUse" x1="1708.9386" y1="-1376.525" x2="2126.9387" y2="-1376.525" gradientTransform="matrix(6.123234e-17 1 1 -6.123234e-17 1743.0011 -1704.9386)">
	<stop  offset="0" style="stop-color:#F5B95B"/>
	<stop  offset="1" style="stop-color:#DFF0D7"/>
</linearGradient>
<polygon class="st0" points="363.8,422 363.8,4 369.1,4 369.1,422 "/>
<circle class="st1" cx="366.5" cy="62.2" r="7.4"/>
<circle class="st1" cx="366.5" cy="197.8" r="7.4"/>
<g>
	<g>
		<line class="st2" x1="358.8" y1="62.2" x2="356.8" y2="62.2"/>
		<line class="st3" x1="354.9" y1="62.2" x2="327.8" y2="62.2"/>
		<line class="st2" x1="326.9" y1="62.2" x2="324.9" y2="62.2"/>
	</g>
</g>
<circle class="st4" cx="292.3" cy="62.2" r="41.5"/>
<g>
	<g>
		<line class="st2" x1="374.2" y1="197.6" x2="376.2" y2="197.6"/>
		<line class="st3" x1="378" y1="197.6" x2="405.2" y2="197.6"/>
		<line class="st2" x1="406.1" y1="197.6" x2="408.1" y2="197.6"/>
	</g>
</g>
<circle class="st4" cx="441.7" cy="196.5" r="41.5"/>
<g>
	<path class="st5" d="M267.6,58.3L267.6,58.3l-3.3,1.6l-0.7-3l4.6-2.1h3.3V72h-3.9V58.3z"/>
	<path class="st5" d="M278.5,69c0.5,0.1,1,0.1,1.7,0c1.2-0.1,2.5-0.4,3.4-1.1c1.1-0.8,1.9-1.9,2.2-3.2h-0.1
		c-0.8,0.8-1.9,1.3-3.4,1.3c-2.9,0-5.4-2-5.4-5.4s2.7-6.2,6.5-6.2c4.4,0,6.5,3.4,6.5,7.4c0,3.6-1.1,6.2-3,7.9
		c-1.6,1.5-3.9,2.3-6.6,2.4c-0.7,0.1-1.4,0-1.8,0V69z M280.9,60.4c0,1.5,0.8,2.8,2.4,2.8c1.1,0,1.9-0.5,2.2-1.1
		c0.1-0.2,0.2-0.5,0.2-1c0-1.8-0.7-3.6-2.5-3.6C281.9,57.4,280.9,58.6,280.9,60.4z"/>
	<path class="st5" d="M302.9,57.6c-0.5,0-0.9,0-1.6,0.1c-3.6,0.3-5.2,2.1-5.6,4.1h0.1c0.8-0.9,2-1.4,3.7-1.4c2.9,0,5.3,2,5.3,5.6
		c0,3.4-2.6,6.2-6.4,6.2c-4.6,0-6.8-3.4-6.8-7.5c0-3.2,1.2-5.9,3-7.7c1.7-1.6,3.9-2.4,6.6-2.5c0.7-0.1,1.2-0.1,1.6,0v3.1H302.9z
		 M300.7,66.2c0-1.6-0.8-3-2.6-3c-1.1,0-2,0.7-2.4,1.5c-0.1,0.2-0.2,0.5-0.2,1c0.1,1.8,1,3.5,2.8,3.5
		C299.8,69.2,300.7,67.9,300.7,66.2z"/>
	<path class="st5" d="M319.3,63.2c0,5.3-2.1,9-6.5,9c-4.5,0-6.4-4-6.4-8.9c0-5,2.1-8.9,6.6-8.9C317.5,54.4,319.3,58.5,319.3,63.2z
		 M310.4,63.3c0,3.9,0.9,5.8,2.5,5.8s2.4-2,2.4-5.9c0-3.8-0.8-5.8-2.4-5.8C311.4,57.5,310.4,59.3,310.4,63.3z"/>
</g>
<g>
	<path class="st5" d="M417.8,191.5L417.8,191.5l-3.3,1.6l-0.7-3l4.6-2.1h3.3v17.2h-3.9V191.5z"/>
	<path class="st5" d="M428.7,202.3c0.5,0.1,1,0.1,1.7,0c1.2-0.1,2.5-0.4,3.4-1.1c1.1-0.8,1.9-1.9,2.2-3.2h-0.1
		c-0.8,0.8-1.9,1.2-3.4,1.2c-2.9,0-5.4-2-5.4-5.4s2.7-6.2,6.5-6.2c4.4,0,6.5,3.4,6.5,7.4c0,3.6-1.1,6.2-3,7.9
		c-1.6,1.5-3.9,2.3-6.6,2.4c-0.7,0.1-1.4,0-1.8,0V202.3L428.7,202.3z M431.1,193.6c0,1.5,0.8,2.8,2.4,2.8c1.1,0,1.9-0.5,2.2-1.1
		c0.1-0.2,0.2-0.5,0.2-1c0-1.8-0.7-3.6-2.5-3.6C432.1,190.6,431.1,191.8,431.1,193.6z"/>
	<path class="st5" d="M441.8,200.7c0-2.1,1.2-3.5,3.1-4.3v-0.1c-1.7-0.8-2.5-2.3-2.5-3.8c0-2.9,2.6-4.8,6.1-4.8c4,0,5.7,2.3,5.7,4.4
		c0,1.5-0.8,2.9-2.5,3.8v0.1c1.7,0.6,3.2,2.1,3.2,4.3c0,3.1-2.6,5.2-6.6,5.2C443.9,205.5,441.8,203,441.8,200.7z M450.7,200.5
		c0-1.5-1.1-2.4-2.7-2.8c-1.3,0.4-2.1,1.3-2.1,2.6c0,1.2,0.9,2.4,2.4,2.4S450.7,201.8,450.7,200.5z M446.2,192.4
		c0,1.2,1.1,1.9,2.4,2.3c0.9-0.3,1.7-1.1,1.7-2.2c0-1.1-0.6-2.1-2.1-2.1C446.9,190.4,446.2,191.3,446.2,192.4z"/>
	<path class="st5" d="M469.5,196.5c0,5.3-2.1,9-6.5,9c-4.5,0-6.4-4-6.4-8.9c0-5,2.1-8.9,6.6-8.9
		C467.7,187.7,469.5,191.8,469.5,196.5z M460.6,196.6c0,3.9,0.9,5.8,2.5,5.8s2.4-2,2.4-5.9c0-3.8-0.8-5.8-2.4-5.8
		C461.6,190.7,460.6,192.6,460.6,196.6z"/>
</g>
<polygon class="st6" points="366.8,434 375.8,426 357.9,426 "/>
<linearGradient id="SVGID_2_" gradientUnits="userSpaceOnUse" x1="1739.729" y1="2106.1892" x2="2159.6887" y2="2106.1892" gradientTransform="matrix(0 1 -1 0 2197.001 -1736.9386)">
	<stop  offset="0" style="stop-color:#F5B95B"/>
	<stop  offset="1" style="stop-color:#DFF0D7"/>
</linearGradient>
<polygon class="st7" points="88.3,422.8 88.3,2.8 93.3,2.8 93.3,422.8 "/>
<circle class="st1" cx="90.8" cy="232" r="7"/>
<g>
	<g>
		<line class="st2" x1="98" y1="231.8" x2="100" y2="231.8"/>
		<line class="st8" x1="102.2" y1="231.8" x2="126.7" y2="231.8"/>
		<line class="st2" x1="127.8" y1="231.8" x2="129.8" y2="231.8"/>
	</g>
</g>
<circle class="st4" cx="161.3" cy="230.8" r="38.9"/>
<g>
	<path class="st5" d="M138.9,226.1L138.9,226.1l-3.1,1.5l-0.6-2.8l4.3-2h3.1v16.1h-3.7V226.1z"/>
	<path class="st5" d="M149.1,236.2c0.5,0,0.9,0,1.6,0c1.1-0.1,2.3-0.4,3.2-1c1-0.7,1.7-1.8,2-3l-0.1,0c-0.7,0.7-1.8,1.2-3.2,1.2
		c-2.7,0-5-1.9-5-5c0-3.2,2.5-5.8,6.1-5.8c4.1,0,6.1,3.2,6.1,7c0,3.4-1.1,5.8-2.8,7.4c-1.5,1.4-3.7,2.2-6.2,2.3c-0.6,0-1.3,0-1.7,0
		V236.2z M151.4,228.1c0,1.4,0.7,2.6,2.3,2.6c1,0,1.7-0.5,2.1-1.1c0.1-0.2,0.2-0.5,0.2-0.9c0-1.7-0.6-3.4-2.4-3.4
		C152.3,225.3,151.4,226.4,151.4,228.1z"/>
	<path class="st5" d="M161.4,234.7c0-1.9,1.1-3.3,2.9-4v-0.1c-1.6-0.8-2.3-2.1-2.3-3.5c0-2.7,2.5-4.5,5.7-4.5c3.8,0,5.3,2.2,5.3,4.1
		c0,1.4-0.7,2.8-2.3,3.6v0.1c1.6,0.6,3,1.9,3,4c0,2.9-2.5,4.9-6.2,4.9C163.3,239.2,161.4,236.9,161.4,234.7z M169.8,234.6
		c0-1.4-1-2.3-2.5-2.7c-1.2,0.3-2,1.2-2,2.4c0,1.2,0.9,2.3,2.3,2.3C168.9,236.6,169.8,235.7,169.8,234.6z M165.5,226.9
		c0,1.1,1,1.8,2.3,2.2c0.9-0.2,1.6-1,1.6-2.1c0-1-0.6-2-2-2C166.2,225.1,165.5,225.9,165.5,226.9z"/>
	<path class="st5" d="M187.4,230.8c0,5-2,8.4-6.1,8.4c-4.2,0-6-3.8-6-8.3c0-4.7,2-8.4,6.2-8.4C185.7,222.5,187.4,226.4,187.4,230.8z
		 M179,230.9c0,3.7,0.9,5.5,2.3,5.5s2.3-1.8,2.3-5.5c0-3.6-0.8-5.5-2.3-5.5C179.9,225.4,179,227.1,179,230.9z"/>
</g>
<circle class="st1" cx="90.8" cy="59.9" r="7"/>
<g>
	<g>
		<line class="st2" x1="98" y1="59.7" x2="100" y2="59.7"/>
		<line class="st8" x1="102.2" y1="59.7" x2="126.7" y2="59.7"/>
		<line class="st2" x1="127.8" y1="59.7" x2="129.8" y2="59.7"/>
	</g>
</g>
<circle class="st4" cx="161.3" cy="58.7" r="38.9"/>
<g>
	<path class="st5" d="M138.9,54L138.9,54l-3.1,1.5l-0.6-2.8l4.3-2h3.1v16.1h-3.7V54z"/>
	<path class="st5" d="M149.1,64.1c0.5,0,0.9,0,1.6,0c1.1-0.1,2.3-0.4,3.2-1c1-0.7,1.7-1.8,2-3l-0.1,0c-0.7,0.7-1.8,1.2-3.2,1.2
		c-2.7,0-5-1.9-5-5c0-3.2,2.5-5.8,6.1-5.8c4.1,0,6.1,3.2,6.1,7c0,3.4-1.1,5.8-2.8,7.4c-1.5,1.4-3.7,2.2-6.2,2.3c-0.6,0-1.3,0-1.7,0
		V64.1z M151.4,56c0,1.4,0.7,2.6,2.3,2.6c1,0,1.7-0.5,2.1-1.1c0.1-0.2,0.2-0.5,0.2-0.9c0-1.7-0.6-3.4-2.4-3.4
		C152.3,53.1,151.4,54.3,151.4,56z"/>
	<path class="st5" d="M172,53.3c-0.4,0-0.9,0-1.5,0c-3.4,0.3-4.8,2-5.3,3.9h0.1c0.8-0.8,1.9-1.3,3.4-1.3c2.7,0,5,1.9,5,5.3
		c0,3.2-2.5,5.8-6,5.8c-4.3,0-6.4-3.2-6.4-7.1c0-3,1.1-5.6,2.9-7.2c1.6-1.5,3.7-2.3,6.2-2.4c0.7,0,1.1,0,1.5,0V53.3z M169.9,61.4
		c0-1.5-0.8-2.8-2.4-2.8c-1,0-1.9,0.6-2.2,1.4c-0.1,0.2-0.1,0.5-0.1,0.9c0.1,1.7,0.9,3.3,2.6,3.3C169.1,64.3,169.9,63.1,169.9,61.4z
		"/>
	<path class="st5" d="M187.4,58.7c0,5-2,8.4-6.1,8.4c-4.2,0-6-3.8-6-8.3c0-4.7,2-8.4,6.2-8.4C185.7,50.4,187.4,54.2,187.4,58.7z
		 M179,58.8c0,3.7,0.9,5.5,2.3,5.5s2.3-1.8,2.3-5.5c0-3.6-0.8-5.5-2.3-5.5C179.9,53.2,179,55,179,58.8z"/>
</g>
<polygon class="st6" points="91.1,434 99.5,426.5 82.8,426.5 "/>
<g>
	<line class="st9" x1="29.7" y1="53.6" x2="29.7" y2="29.6"/>
	<g>
		<polygon class="st10" points="6.6,33 29.7,18.4 52.9,33 52.9,33.2 6.6,33.2 		"/>
	</g>
</g>
<g>
	<line class="st11" x1="49.7" y1="67.9" x2="49.7" y2="91.8"/>
	<g>
		<polygon class="st6" points="72.9,88.4 49.7,103 26.6,88.4 26.6,88.3 72.9,88.3 		"/>
	</g>
</g>
<rect x="-225.4" y="110.2" class="st10" width="63.7" height="122.3"/>
<g>
	<line class="st9" x1="29.7" y1="224.7" x2="29.7" y2="200.7"/>
	<g>
		<polygon class="st10" points="6.6,204.2 29.7,189.5 52.9,204.2 52.9,204.3 6.6,204.3 		"/>
	</g>
</g>
<g>
	<line class="st11" x1="49.7" y1="239" x2="49.7" y2="262.9"/>
	<g>
		<polygon class="st6" points="72.9,259.5 49.7,274.2 26.6,259.5 26.6,259.4 72.9,259.4 		"/>
	</g>
</g>
</svg>
