<?xml version="1.0" encoding="utf-8"?>
<!-- Generator: Adobe Illustrator 24.1.2, SVG Export Plug-In . SVG Version: 6.00 Build 0)  -->
<svg version="1.1" id="Layer_1" xmlns="http://www.w3.org/2000/svg" xmlns:xlink="http://www.w3.org/1999/xlink" x="0px" y="0px"
	 viewBox="0 0 90 90" style="enable-background:new 0 0 90 90;" xml:space="preserve">
<style type="text/css">
	.st0{opacity:0.4;fill:#89C459;}
	.st1{fill:#FFFFFF;}
	.st2{fill:#E6E6E6;}
	.st3{fill:#89C459;}
</style>
<circle class="st0" cx="45" cy="45.3" r="27.6"/>
<g>
	<path class="st1" d="M88.6,45.2c0,1.2-0.5,2.4-1.3,3.3L71,65c-1.3,1.3-3.3,1.8-5.1,1c-1.8-0.7-2.9-2.4-2.9-4.3v-1.6l-9.1,2.3
		c-1.4,0.3-2.8,0-4-0.8c-1.1-0.9-1.8-2.2-1.8-3.6V32.5c0-1.5,0.6-2.8,1.8-3.6c1.1-0.9,2.6-1.2,4-0.8l9.1,2.3v-1.6
		c0-1.9,1.1-3.6,2.9-4.3s3.7-0.3,5.1,1L87.3,42C88.2,42.9,88.6,44,88.6,45.2z"/>
	<path class="st2" d="M48.6,32.5c0-1.3,0.6-2.5,1.6-3.3c1-0.8,2.4-1.1,3.6-0.7l9.7,2.4v-2.1c0-1.7,1-3.2,2.6-3.9
		c1.6-0.6,3.4-0.3,4.6,0.9L87,42.3c0.8,0.8,1.2,1.8,1.2,3s-0.4,2.1-1.2,3L70.7,64.7c-1.2,1.2-3,1.5-4.6,0.9s-2.6-2.2-2.6-3.9v-2.1
		l-9.7,2.4c-1.2,0.3-2.6,0-3.6-0.8c-1-0.8-1.6-2-1.6-3.3L48.6,32.5 M47.8,32.5V58c0,1.6,0.7,3,1.9,4c1.2,0.9,2.8,1.3,4.3,0.9
		l8.6-2.1v1c0,2.1,1.2,3.9,3.1,4.7c1.9,0.8,4.1,0.3,5.5-1.1l16.3-16.5c0.9-0.9,1.5-2.2,1.5-3.6c0-1.3-0.5-2.6-1.5-3.6L71.2,25.2
		c-1.5-1.5-3.6-1.9-5.5-1.1c-1.9,0.8-3.1,2.6-3.1,4.7v1L54,27.6c-1.5-0.4-3.1,0-4.3,0.9C48.5,29.5,47.8,30.9,47.8,32.5L47.8,32.5z"
		/>
</g>
<path class="st3" d="M84.8,44.5L68.5,28c-0.7-0.7-1.8-0.2-1.8,0.8v4.8c0,0.7-0.6,1.2-1.3,1L53,31.4c-0.7-0.2-1.3,0.3-1.3,1V58
	c0,0.7,0.6,1.2,1.3,1l12.2-3.1c0.7-0.2,1.3,0.3,1.3,1v4.8c0,0.9,1.2,1.4,1.8,0.7l16.3-16.5C85.2,45.6,85.2,44.9,84.8,44.5z"/>
<g>
	<path class="st1" d="M1.4,45.3c0-1.2,0.5-2.4,1.3-3.3L19,25.6c1.3-1.3,3.3-1.8,5.1-1c1.8,0.7,2.9,2.4,2.9,4.3v1.6l9.1-2.3
		c1.4-0.3,2.8,0,4,0.8c1.1,0.9,1.8,2.2,1.8,3.6v25.5c0,1.5-0.6,2.8-1.8,3.6c-1.1,0.9-2.6,1.2-4,0.8L27,60.2v1.6
		c0,1.9-1.1,3.6-2.9,4.3s-3.7,0.3-5.1-1L2.8,48.6C1.9,47.7,1.4,46.5,1.4,45.3z"/>
	<path class="st2" d="M41.4,58.1c0,1.3-0.6,2.5-1.6,3.3c-1,0.8-2.4,1.1-3.6,0.7l-9.7-2.4v2.1c0,1.7-1,3.2-2.6,3.9
		c-1.6,0.6-3.4,0.3-4.6-0.9L3,48.3c-0.8-0.8-1.2-1.8-1.2-3s0.4-2.1,1.2-3l16.3-16.5c1.2-1.2,3-1.5,4.6-0.9s2.6,2.2,2.6,3.9v2.1
		l9.7-2.4c1.2-0.3,2.6,0,3.6,0.8c1,0.8,1.6,2,1.6,3.3L41.4,58.1 M42.3,58.1V32.5c0-1.6-0.7-3-1.9-4c-1.2-0.9-2.8-1.3-4.3-0.9
		l-8.6,2.1v-1c0-2.1-1.2-3.9-3.1-4.7c-1.9-0.8-4.1-0.3-5.5,1.1L2.5,41.7C1.5,42.7,1,44,1,45.3c0,1.3,0.5,2.6,1.5,3.6l16.3,16.5
		c1.5,1.5,3.6,1.9,5.5,1.1c1.9-0.8,3.1-2.6,3.1-4.7v-1l8.6,2.2c1.5,0.4,3.1,0,4.3-0.9C41.5,61.1,42.3,59.6,42.3,58.1L42.3,58.1z"/>
</g>
<path class="st3" d="M5.3,46.1l16.3,16.5c0.7,0.7,1.8,0.2,1.8-0.8V57c0-0.7,0.6-1.2,1.3-1L37,59.1c0.7,0.2,1.3-0.3,1.3-1V32.5
	c0-0.7-0.6-1.2-1.3-1l-12.2,3.1c-0.7,0.2-1.3-0.3-1.3-1v-4.8c0-0.9-1.2-1.4-1.8-0.7L5.3,44.6C4.8,45,4.8,45.6,5.3,46.1z"/>
</svg>
