<?xml version="1.0" encoding="utf-8"?>
<!-- Generator: Adobe Illustrator 24.1.2, SVG Export Plug-In . SVG Version: 6.00 Build 0)  -->
<svg version="1.1" id="Layer_1" xmlns="http://www.w3.org/2000/svg" xmlns:xlink="http://www.w3.org/1999/xlink" x="0px" y="0px"
	 viewBox="0 0 100 100" style="enable-background:new 0 0 100 100;" xml:space="preserve">
<style type="text/css">
	.st0{fill:#568DA7;}
</style>
<g>
	<path class="st0" d="M49.9,12.1c20.7,0,37.5,16.8,37.5,37.5S70.6,87.1,49.9,87.1S12.4,70.3,12.4,49.6S29.3,12.1,49.9,12.1
		 M49.9,8.1C27,8.1,8.4,26.7,8.4,49.6c0,22.9,18.6,41.5,41.5,41.5c22.9,0,41.5-18.6,41.5-41.5C91.4,26.7,72.9,8.1,49.9,8.1L49.9,8.1
		z"/>
</g>
<g>
	<path class="st0" d="M39.4,47.6l-2-1.6c3.1-3.4,5.9-5.8,8.5-7.3c2.5-1.4,4.7-2.2,6.5-2.2c1,0,1.7,0.2,2.3,0.6
		c0.5,0.4,0.8,1,0.8,1.8c0,0.9-1,4.7-3,11.4c-3.3,11-4.9,17.6-4.9,19.9c0,0.4,0.1,0.8,0.3,1.1c0.2,0.3,0.4,0.4,0.7,0.4
		c1,0,3.5-1.9,7.6-5.8l1.8,1.8c-4.2,4-7.3,6.5-9.3,7.7c-1.9,1.1-3.5,1.7-4.8,1.7c-1.1,0-1.9-0.3-2.6-1c-0.6-0.7-1-1.6-1-2.8
		c0-3.9,2.3-13.3,7-28.4c0.2-0.7,0.3-1.3,0.3-1.9c0-0.6-0.3-0.9-0.8-0.9c-0.6,0-1.3,0.2-2.1,0.7C43.8,43.3,42.1,44.9,39.4,47.6z
		 M56.5,21.1c1,0,1.7,0.3,2.4,1c0.6,0.6,0.9,1.4,0.9,2.4c0,1.4-0.5,2.6-1.4,3.6c-0.9,1-2,1.6-3.2,1.6c-0.9,0-1.7-0.3-2.3-1
		C52.3,28,52,27.2,52,26.1c0-1.4,0.4-2.6,1.3-3.5C54.2,21.6,55.3,21.1,56.5,21.1z"/>
</g>
</svg>
