<?xml version="1.0" encoding="utf-8"?>
<!-- Generator: Adobe Illustrator 24.1.2, SVG Export Plug-In . SVG Version: 6.00 Build 0)  -->
<svg version="1.1" id="Layer_1" xmlns="http://www.w3.org/2000/svg" xmlns:xlink="http://www.w3.org/1999/xlink" x="0px" y="0px"
	 viewBox="0 0 393 42" style="enable-background:new 0 0 393 42;" xml:space="preserve">
<style type="text/css">
	.st0{fill-rule:evenodd;clip-rule:evenodd;fill:#1B75BB;}
	.st1{fill:#1B75BB;}
</style>
<g>
	<path class="st0" d="M155.9,2.1H155V0.6h0.9V2.1z M154.9,2.9h0.9V10h-0.9V2.9z"/>
	<path class="st1" d="M162.3,2.9h0.9v0.8c0.3-0.3,0.6-0.6,1-0.7c0.4-0.2,0.8-0.2,1.3-0.2s1,0.1,1.4,0.3s0.7,0.5,1,0.8
		c0.2,0.3,0.3,0.6,0.3,0.9c0.1,0.3,0.1,0.8,0.1,1.5V10h-0.9V6c0-0.8-0.2-1.4-0.5-1.8s-0.8-0.6-1.5-0.6c-0.4,0-0.8,0.1-1.1,0.3
		s-0.6,0.4-0.7,0.7c-0.1,0.2-0.2,0.4-0.2,0.7c0,0.2-0.1,0.7-0.1,1.3V10h-0.9V2.9H162.3z"/>
	<path class="st0" d="M175.6,2.1h-0.9V0.6h0.9V2.1z M174.7,2.9h0.9V10h-0.9V2.9z"/>
	<path class="st0" d="M187.8,5.1c-0.3-0.5-0.6-0.9-1-1.1c-0.4-0.2-0.9-0.4-1.4-0.4c-0.7,0-1.4,0.3-1.9,0.8c-0.5,0.6-0.8,1.2-0.8,2.1
		c0,0.8,0.3,1.5,0.8,2s1.1,0.8,1.9,0.8c0.6,0,1-0.1,1.5-0.4c0.4-0.3,0.7-0.6,1-1.1h1c-0.3,0.8-0.7,1.4-1.3,1.8s-1.3,0.6-2.1,0.6
		c-1,0-1.9-0.4-2.6-1.1c-0.7-0.7-1.1-1.6-1.1-2.6s0.4-1.9,1.1-2.7c0.7-0.7,1.6-1.1,2.6-1.1c0.8,0,1.4,0.2,2,0.6s1,1,1.3,1.7
		L187.8,5.1L187.8,5.1z"/>
	<path class="st0" d="M196.1,2.1h-0.9V0.6h0.9V2.1z M195.2,2.9h0.9V10h-0.9V2.9z"/>
	<path class="st0" d="M208.5,6.4c0-0.7-0.3-1.4-0.8-2s-1.2-0.8-1.9-0.8c-0.8,0-1.4,0.3-2,0.8C203.3,5,203,5.7,203,6.5s0.3,1.5,0.8,2
		s1.2,0.8,1.9,0.8s1.4-0.3,1.9-0.9C208.3,7.9,208.5,7.2,208.5,6.4 M208.5,8.8c-0.3,0.4-0.7,0.7-1.2,1c-0.5,0.2-1,0.3-1.6,0.3
		c-1,0-1.9-0.4-2.6-1.1c-0.7-0.7-1-1.6-1-2.6c0-1.1,0.4-1.9,1.1-2.7c0.7-0.7,1.6-1.1,2.7-1.1c0.5,0,1,0.1,1.5,0.3s0.8,0.5,1.1,1v-1
		h0.9V10h-0.9V8.8z"/>
	<polygon class="st1" points="216.5,10 216.5,3.8 215.2,3.8 215.2,2.9 216.5,2.9 216.5,0.6 217.4,0.6 217.4,2.9 218.8,2.9 
		218.8,3.8 217.4,3.8 217.4,10 	"/>
	<path class="st0" d="M225.4,2.1h-0.9V0.6h0.9V2.1z M224.5,2.9h0.9V10h-0.9V2.9z"/>
	<polygon class="st1" points="234.7,10 233.8,10 231.1,2.9 232,2.9 234.3,8.6 236.6,2.9 237.6,2.9 	"/>
	<path class="st0" d="M249.2,6.4c0-0.7-0.3-1.4-0.8-2s-1.2-0.8-1.9-0.8c-0.8,0-1.4,0.3-2,0.8c-0.5,0.6-0.8,1.3-0.8,2.1
		s0.3,1.5,0.8,2s1.2,0.8,1.9,0.8s1.4-0.3,1.9-0.9C248.9,7.9,249.2,7.2,249.2,6.4 M249.2,8.8c-0.3,0.4-0.7,0.7-1.2,1
		c-0.5,0.2-1,0.3-1.6,0.3c-1,0-1.9-0.4-2.6-1.1c-0.7-0.7-1-1.6-1-2.6c0-1.1,0.4-1.9,1.1-2.7c0.7-0.7,1.6-1.1,2.7-1.1
		c0.5,0,1,0.1,1.5,0.3s0.8,0.5,1.1,1v-1h0.9V10h-0.9V8.8z"/>
	<path class="st1" d="M154.9,36l1.2-2.9c0.5,0.4,1,0.7,1.4,0.8c0.4,0.2,0.8,0.3,1.2,0.3c0.3,0,0.5,0,0.6-0.1s0.2-0.2,0.2-0.4
		c0-0.3-0.4-0.5-1.1-0.7c-0.2-0.1-0.4-0.1-0.6-0.1c-0.8-0.2-1.4-0.5-1.8-1c-0.4-0.5-0.6-1.1-0.6-1.8c0-1.1,0.4-2,1.2-2.7
		s1.9-1.1,3.2-1.1c0.6,0,1.2,0.1,1.8,0.2c0.6,0.2,1.2,0.4,1.8,0.7l-1.1,2.7c-0.4-0.3-0.7-0.5-1.1-0.6c-0.4-0.1-0.7-0.2-1.1-0.2
		c-0.3,0-0.5,0-0.6,0.1s-0.2,0.2-0.2,0.4c0,0.3,0.5,0.6,1.6,0.8c0.2,0,0.3,0.1,0.4,0.1c0.7,0.2,1.3,0.5,1.7,1s0.6,1.1,0.6,1.8
		c0,1.2-0.4,2.1-1.3,2.8c-0.8,0.7-1.9,1.1-3.3,1.1c-0.7,0-1.4-0.1-2.1-0.3C156.3,36.7,155.6,36.4,154.9,36"/>
	<rect x="164.6" y="26.4" class="st1" width="3.8" height="10.5"/>
	<path class="st1" d="M170.2,36.9V26.4h3.7l3.2,5.5c0-0.2-0.1-0.5-0.1-0.8s0-0.7,0-1.2v-3.5h3.6v10.5h-3.7l-3.2-5.4
		c0,0.2,0.1,0.5,0.1,0.8c0,0.3,0,0.6,0,0.9V37L170.2,36.9L170.2,36.9z"/>
	<polygon class="st1" points="187,36.9 187,26.4 190.7,26.4 190.7,29.9 193,29.9 193,26.4 196.8,26.4 196.8,36.9 193,36.9 193,33.2 
		190.7,33.2 190.7,36.9 	"/>
	<path class="st0" d="M202.1,33.1h1.6l-0.3-1.2c-0.2-0.6-0.3-1.1-0.3-1.4c-0.1-0.3-0.1-0.6-0.1-0.9h-0.1c0,0.3-0.1,0.6-0.1,0.9
		c-0.1,0.3-0.2,0.8-0.3,1.4L202.1,33.1z M197.1,36.9l3.7-10.5h4.2l3.7,10.5h-4l-0.3-1.3h-2.8l-0.3,1.3H197.1z"/>
	<path class="st1" d="M218.5,36.9l-0.5-4.1c0-0.3-0.1-0.6-0.1-1c0-0.3-0.1-0.6-0.1-1c0,0.3-0.1,0.6-0.2,1c-0.1,0.3-0.2,0.7-0.3,1.1
		l-1.2,4H214l-1.2-4c-0.1-0.4-0.2-0.7-0.3-1.1c-0.1-0.3-0.1-0.7-0.2-1c0,0.3,0,0.6-0.1,1c0,0.3-0.1,0.6-0.1,1l-0.5,4.1H208l1.8-10.5
		h3.9l0.7,2.6c0,0.1,0.1,0.2,0.1,0.4c0.3,1.1,0.5,2,0.6,2.7h0.1c0.1-0.4,0.1-0.9,0.3-1.4c0.1-0.5,0.3-1.1,0.5-1.7l0.8-2.5h3.9
		l1.7,10.5L218.5,36.9L218.5,36.9z"/>
	<path class="st0" d="M226.4,32.6v1.7h0.6c0.4,0,0.7-0.1,0.9-0.2c0.2-0.1,0.3-0.4,0.3-0.6c0-0.3-0.1-0.5-0.3-0.6s-0.5-0.2-0.9-0.2
		h-0.6V32.6z M226.4,28.9v1.5h0.5c0.3,0,0.5-0.1,0.7-0.2s0.2-0.3,0.2-0.6c0-0.2-0.1-0.4-0.2-0.5c-0.2-0.1-0.4-0.2-0.7-0.2
		C226.9,28.9,226.4,28.9,226.4,28.9z M222.9,36.9V26.4h5c1.1,0,1.9,0.3,2.5,0.8s0.9,1.2,0.9,2.1c0,0.6-0.1,1-0.4,1.4
		c-0.3,0.4-0.7,0.6-1.2,0.7c0.7,0.1,1.2,0.4,1.6,0.8c0.3,0.4,0.5,1,0.5,1.7c0,1-0.3,1.7-1,2.2s-1.6,0.7-2.9,0.7L222.9,36.9
		L222.9,36.9z"/>
	<path class="st0" d="M236.5,29.1v2h0.6c0.4,0,0.6-0.1,0.8-0.3c0.2-0.2,0.3-0.4,0.3-0.8c0-0.3-0.1-0.6-0.3-0.8
		c-0.2-0.2-0.5-0.3-0.8-0.3h-0.6V29.1z M232.9,36.9V26.4h4.7c1.4,0,2.4,0.3,3.1,0.9c0.7,0.6,1.1,1.5,1.1,2.6c0,0.7-0.2,1.4-0.5,1.8
		c-0.4,0.5-0.9,0.8-1.5,0.8l2.8,4.3h-4.2l-1.8-3.5v3.5h-3.7L232.9,36.9L232.9,36.9z"/>
	<polygon class="st1" points="243,36.9 243,26.4 250,26.4 250,29.3 246.7,29.3 246.7,30.3 249.7,30.3 249.7,33 246.7,33 246.7,34.1 
		250.1,34.1 250.1,36.9 	"/>
	<path class="st0" d="M158.2,19.9l-0.9,2.1h1.8L158.2,19.9z M158.2,18.4l2.5,5.8H160l-0.7-1.7h-2.2l-0.7,1.7h-0.7L158.2,18.4z"/>
	<polygon class="st1" points="163.9,24.5 162.2,20.4 161.5,24.2 160.8,24.2 161.9,18.4 163.9,23.1 165.9,18.4 167,24.2 166.4,24.2 
		165.6,20.4 	"/>
	<path class="st0" d="M167.9,24.2v-5.6h3v0.6h-2.3v1.6h2.3v0.6h-2.3v2.1h2.3v0.6L167.9,24.2L167.9,24.2z M168.8,18.1l0.8-1.3h0.8
		l-1.1,1.3H168.8z"/>
	<path class="st0" d="M171.9,24.2v-5.6h1.3c0.4,0,0.6,0,0.8,0.1c0.2,0,0.3,0.1,0.5,0.2s0.3,0.3,0.4,0.5c0.1,0.2,0.1,0.5,0.1,0.7
		c0,0.5-0.1,0.8-0.4,1c-0.3,0.2-0.6,0.4-1.1,0.4h-0.1l2.1,2.7h-0.8l-2-2.7h-0.1v2.7C172.6,24.2,171.9,24.2,171.9,24.2z M172.6,19.2
		v1.9h0.5c0.5,0,0.9-0.1,1-0.2c0.2-0.1,0.3-0.4,0.3-0.7c0-0.4-0.1-0.6-0.3-0.8c-0.2-0.1-0.5-0.2-1-0.2
		C173.1,19.2,172.6,19.2,172.6,19.2z"/>
	<rect x="176.2" y="18.6" class="st1" width="0.7" height="5.6"/>
	<path class="st0" d="M182.7,20c-0.3-0.3-0.6-0.5-0.9-0.6c-0.3-0.1-0.6-0.2-1-0.2c-0.3,0-0.6,0.1-0.9,0.2c-0.3,0.1-0.5,0.3-0.7,0.5
		s-0.4,0.5-0.5,0.7c-0.1,0.3-0.2,0.6-0.2,0.9s0,0.5,0.1,0.7s0.2,0.4,0.3,0.6c0.2,0.3,0.5,0.6,0.8,0.7c0.3,0.2,0.7,0.3,1.1,0.3
		c0.4,0,0.7-0.1,1-0.2s0.6-0.4,0.8-0.7v0.9c-0.3,0.2-0.6,0.4-0.9,0.5c-0.3,0.1-0.7,0.2-1,0.2s-0.6,0-0.9-0.1
		c-0.3-0.1-0.5-0.2-0.8-0.4c-0.4-0.3-0.7-0.6-0.9-1s-0.3-0.9-0.3-1.4c0-0.4,0.1-0.8,0.2-1.2c0.1-0.4,0.4-0.7,0.7-1s0.6-0.5,0.9-0.6
		c0.3-0.1,0.7-0.2,1.1-0.2c0.3,0,0.6,0.1,0.9,0.1c0.3,0.1,0.6,0.2,0.9,0.5V20H182.7z"/>
	<path class="st0" d="M185.6,19.9l-0.9,2.1h1.8L185.6,19.9z M185.6,18.4l2.5,5.8h-0.7l-0.7-1.7h-2.2l-0.7,1.7h-0.7L185.6,18.4z"/>
	<polygon class="st1" points="191.1,24.2 191.1,18.6 191.7,18.6 191.7,23.6 193.9,23.6 193.9,24.2 	"/>
	<path class="st0" d="M196.4,19.9l-0.9,2.1h1.8L196.4,19.9z M196.4,18.4l2.6,5.8h-0.7l-0.7-1.7h-2.2l-0.7,1.7H194L196.4,18.4z"/>
	<polygon class="st1" points="200.5,24.2 200.5,19.3 198.9,19.3 198.9,18.6 202.8,18.6 202.8,19.3 201.2,19.3 201.2,24.2 	"/>
	<rect x="203.5" y="18.6" class="st1" width="0.7" height="5.6"/>
	<polygon class="st1" points="205.6,24.2 205.6,18.4 209.7,22.9 209.7,18.6 210.3,18.6 210.3,24.5 206.2,20 206.2,24.2 	"/>
	<path class="st0" d="M213.4,19.9l-0.9,2.1h1.8L213.4,19.9z M213.4,18.4l2.6,5.8h-0.7l-0.7-1.7h-2.2l-0.7,1.7H211L213.4,18.4z"/>
	<polygon class="st0" points="220.1,24.2 220.1,21.7 218.2,18.6 218.9,18.6 220.4,21.1 221.9,18.6 222.6,18.6 220.7,21.7 
		220.7,24.2 	"/>
	<path class="st0" d="M230.2,20c-0.3-0.3-0.6-0.5-0.9-0.6c-0.3-0.1-0.6-0.2-1-0.2c-0.3,0-0.6,0.1-0.9,0.2c-0.3,0.1-0.5,0.3-0.7,0.5
		s-0.4,0.5-0.5,0.7c-0.1,0.3-0.2,0.6-0.2,0.9s0,0.5,0.1,0.7s0.2,0.4,0.3,0.6c0.2,0.3,0.5,0.6,0.8,0.7c0.3,0.2,0.7,0.3,1.1,0.3
		c0.4,0,0.7-0.1,1-0.2s0.6-0.4,0.8-0.7v0.9c-0.3,0.2-0.6,0.4-0.9,0.5c-0.3,0.1-0.6,0.2-1,0.2c-0.3,0-0.6,0-0.9-0.1
		c-0.3-0.1-0.5-0.2-0.8-0.4c-0.4-0.3-0.7-0.6-0.9-1s-0.3-0.9-0.3-1.4c0-0.4,0.1-0.8,0.2-1.2c0.1-0.4,0.4-0.7,0.7-1s0.6-0.5,1-0.6
		c0.3-0.1,0.7-0.2,1.1-0.2c0.3,0,0.6,0.1,0.9,0.1c0.3,0.1,0.6,0.2,0.9,0.5L230.2,20L230.2,20z"/>
	<path class="st0" d="M233.1,19.9l-0.9,2.1h1.8L233.1,19.9z M233.1,18.4l2.5,5.8h-0.7l-0.7-1.7H232l-0.7,1.7h-0.7L233.1,18.4z"/>
	<path class="st0" d="M236.2,24.2v-5.6h1.3c0.4,0,0.6,0,0.8,0.1c0.2,0,0.3,0.1,0.5,0.2s0.3,0.3,0.4,0.5c0.1,0.2,0.1,0.5,0.1,0.7
		c0,0.5-0.1,0.8-0.4,1c-0.3,0.2-0.6,0.4-1.1,0.4h-0.1l2.1,2.7H239l-2-2.7h-0.1v2.7C236.9,24.2,236.2,24.2,236.2,24.2z M236.9,19.2
		v1.9h0.5c0.5,0,0.9-0.1,1-0.2c0.2-0.1,0.3-0.4,0.3-0.7c0-0.4-0.1-0.6-0.3-0.8c-0.2-0.1-0.5-0.2-1-0.2
		C237.4,19.2,236.9,19.2,236.9,19.2z"/>
	<rect x="240.4" y="18.6" class="st1" width="0.7" height="5.6"/>
	<path class="st0" d="M242.4,24.2v-5.6h1.2c0.4,0,0.7,0,0.9,0.1c0.2,0,0.4,0.1,0.5,0.2c0.2,0.1,0.3,0.3,0.4,0.5
		c0.1,0.2,0.1,0.4,0.1,0.7c0,0.3-0.1,0.5-0.2,0.7c-0.1,0.2-0.3,0.3-0.6,0.4c0.3,0.1,0.6,0.2,0.8,0.4c0.2,0.2,0.3,0.6,0.3,0.9
		c0,0.2,0,0.4-0.1,0.6s-0.2,0.4-0.3,0.5c-0.2,0.2-0.4,0.3-0.6,0.3c-0.2,0.1-0.6,0.1-1.2,0.1h-1.2L242.4,24.2L242.4,24.2z
		 M243.1,21.6v2h0.5c0.4,0,0.6,0,0.8,0s0.3-0.1,0.4-0.1c0.1-0.1,0.2-0.2,0.3-0.3c0.1-0.1,0.1-0.3,0.1-0.5s0-0.4-0.1-0.5
		c-0.1-0.2-0.2-0.3-0.3-0.4s-0.2-0.1-0.3-0.1s-0.3,0-0.5,0h-0.2h-0.7V21.6z M243.1,19.2v1.9h0.5c0.5,0,0.8-0.1,1-0.2
		s0.3-0.4,0.3-0.7c0-0.4-0.1-0.6-0.3-0.8c-0.2-0.1-0.5-0.2-1-0.2C243.6,19.2,243.1,19.2,243.1,19.2z"/>
	<polygon class="st1" points="246.9,24.2 246.9,18.6 249.8,18.6 249.8,19.2 247.5,19.2 247.5,20.9 249.8,20.9 249.8,21.5 
		247.5,21.5 247.5,23.6 249.8,23.6 249.8,24.2 	"/>
	<rect x="154.9" y="38.5" class="st1" width="95.2" height="3.4"/>
	<rect x="154.9" y="12.6" class="st1" width="95.2" height="3.4"/>
</g>
<g>
	<g>
		<path class="st1" d="M279.4,19.5l-2.1-4.4c-0.3-0.6-0.5-1.1-0.7-1.6c-0.3-0.6-0.5-1.2-0.7-1.7c0,0.3,0,1,0.1,2
			c0,1,0.1,1.8,0.1,2.5v3.2h-1.4v-10h1.6l2,4.4c0.3,0.6,0.5,1.2,0.7,1.6c0.2,0.5,0.4,1,0.7,1.6c0-0.1,0-1-0.1-2.7c0-0.6,0-1.2,0-1.8
			V9.5h1.4v10H279.4z"/>
		<path class="st1" d="M286.5,19.5l-0.1-0.9c-0.2,0.3-0.4,0.5-0.7,0.7c-0.3,0.2-0.7,0.3-1.2,0.3c-0.7,0-1.2-0.2-1.5-0.7
			c-0.4-0.5-0.5-1.2-0.5-2.2v-4.4h1.6v4.2c0,0.6,0.1,1.1,0.2,1.4s0.4,0.5,0.8,0.5c0.3,0,0.5-0.1,0.7-0.3c0.2-0.1,0.3-0.3,0.3-0.6
			c0-0.1,0-0.2,0.1-0.3s0-0.2,0-0.3v-4.6h1.6v5.1c0,0.1,0,0.5,0,1s0,0.9,0,1.1C287.8,19.5,286.5,19.5,286.5,19.5z M285.6,11.5h-1
			l1.2-2.1h1.5L285.6,11.5z"/>
		<path class="st1" d="M293.4,13.7c-0.2-0.1-0.3-0.1-0.5-0.2c-0.1,0-0.3,0-0.5,0c-0.6,0-1,0.2-1.3,0.7s-0.5,1.1-0.5,1.8
			c0,0.8,0.2,1.3,0.5,1.8c0.3,0.4,0.8,0.7,1.3,0.7c0.2,0,0.4,0,0.5-0.1c0.2,0,0.3-0.1,0.5-0.2l0.2,1.2c-0.2,0.1-0.4,0.2-0.6,0.2
			c-0.3,0.1-0.5,0.1-0.8,0.1c-0.9,0-1.7-0.3-2.3-1c-0.6-0.6-0.8-1.5-0.8-2.7c0-1.1,0.3-2,0.9-2.7s1.4-1.1,2.4-1.1
			c0.3,0,0.5,0,0.7,0.1c0.2,0,0.4,0.1,0.5,0.2L293.4,13.7z"/>
		<path class="st1" d="M294.5,19.5V9.2h1.6v10.4L294.5,19.5L294.5,19.5z"/>
		<path class="st1" d="M302.7,16.3h-3.9c0,0.8,0.2,1.3,0.6,1.7c0.3,0.3,0.7,0.4,1.3,0.4c0.3,0,0.6,0,0.8-0.1
			c0.2-0.1,0.5-0.1,0.7-0.2l0.2,1.1c-0.5,0.3-1.2,0.4-2,0.4c-1,0-1.8-0.3-2.3-1c-0.5-0.6-0.8-1.5-0.8-2.7c0-1.1,0.3-2.1,0.8-2.8
			c0.5-0.7,1.2-1.1,2.1-1.1s1.5,0.3,1.9,1c0.4,0.6,0.6,1.4,0.6,2.3C302.7,15.9,302.7,16.1,302.7,16.3z M301,13.8
			c-0.2-0.3-0.5-0.5-0.9-0.5s-0.7,0.2-1,0.6c-0.2,0.3-0.3,0.8-0.3,1.2h2.4C301.3,14.6,301.2,14.2,301,13.8z"/>
		<path class="st1" d="M308.4,18.8c-0.5,0.6-1.2,0.8-2,0.8c-0.9,0-1.5-0.3-2.1-1c-0.5-0.7-0.8-1.6-0.8-2.8s0.3-2.2,0.9-2.9
			c0.5-0.6,1.2-0.9,2.1-0.9s1.6,0.3,2.1,1s0.8,1.6,0.8,2.7C309.3,17.2,309,18.2,308.4,18.8z M307.5,14.2c-0.2-0.6-0.6-0.9-1-0.9
			c-0.5,0-0.8,0.3-1.1,0.9c-0.2,0.4-0.3,1-0.3,1.7c0,0.7,0.1,1.3,0.3,1.8s0.6,0.7,1,0.7s0.8-0.3,1-0.8s0.3-1,0.3-1.8
			C307.7,15.3,307.6,14.7,307.5,14.2z"/>
		<path class="st1" d="M317,19.5l-0.1-1c-0.2,0.3-0.4,0.6-0.7,0.8c-0.3,0.2-0.7,0.3-1.1,0.3c-0.7,0-1.3-0.3-1.8-1s-0.7-1.6-0.7-2.7
			c0-1.2,0.3-2.2,0.8-2.8s1.1-1,1.8-1s1.2,0.3,1.6,0.9V9.2h1.6v8.4c0,0,0,0.3,0,0.9c0,0.5,0,0.9,0,1.1L317,19.5L317,19.5z
			 M316.8,15.2c0-0.1,0-0.2,0-0.2v-0.2c-0.1-0.3-0.2-0.6-0.4-0.9s-0.5-0.3-0.8-0.3c-0.5,0-0.8,0.2-1,0.7s-0.3,1.1-0.3,1.8
			c0,0.7,0.1,1.3,0.4,1.8c0.2,0.5,0.6,0.7,1,0.7c0.3,0,0.5-0.1,0.7-0.3s0.4-0.5,0.5-0.8c0-0.1,0.1-0.3,0.1-0.5v-1.8
			C317,15.2,316.8,15.2,316.8,15.2z"/>
		<path class="st1" d="M324.9,16.3H321c0,0.8,0.2,1.3,0.6,1.7c0.3,0.3,0.7,0.4,1.3,0.4c0.3,0,0.6,0,0.8-0.1c0.2-0.1,0.5-0.1,0.7-0.2
			l0.2,1.1c-0.5,0.3-1.2,0.4-2,0.4c-1,0-1.8-0.3-2.3-1c-0.5-0.6-0.8-1.5-0.8-2.7c0-1.1,0.3-2.1,0.8-2.8c0.5-0.7,1.2-1.1,2.1-1.1
			s1.5,0.3,1.9,1c0.4,0.6,0.6,1.4,0.6,2.3C324.9,15.9,324.9,16.1,324.9,16.3z M323.2,13.8c-0.2-0.3-0.5-0.5-0.9-0.5s-0.7,0.2-1,0.6
			c-0.2,0.3-0.3,0.8-0.3,1.2h2.4C323.5,14.6,323.4,14.2,323.2,13.8z"/>
		<path class="st1" d="M333.8,11c-0.2-0.1-0.4-0.1-0.6-0.2s-0.4-0.1-0.7-0.1c-0.8,0-1.4,0.3-1.9,0.9c-0.5,0.7-0.8,1.6-0.8,2.9
			s0.3,2.2,0.8,2.8c0.5,0.6,1.1,0.9,1.9,0.9c0.2,0,0.5,0,0.7-0.1c0.2,0,0.4-0.1,0.6-0.2l0.2,1.3c-0.2,0.1-0.5,0.2-0.8,0.2
			c-0.3,0.1-0.7,0.1-1.1,0.1c-1.3,0-2.2-0.4-3-1.3c-0.7-0.9-1.1-2.1-1.1-3.7c0-1.7,0.4-3.1,1.3-4c0.8-0.8,1.8-1.2,3-1.2
			c0.4,0,0.7,0,1,0.1s0.5,0.1,0.7,0.2L333.8,11z"/>
		<path class="st1" d="M338.4,19.5l-0.1-0.8c-0.2,0.3-0.4,0.5-0.7,0.7s-0.6,0.2-1,0.2c-0.6,0-1-0.2-1.4-0.6s-0.5-0.9-0.5-1.5
			c0-0.9,0.3-1.6,1-2c0.6-0.4,1.5-0.6,2.5-0.6v-0.2c0-0.4-0.1-0.7-0.3-0.9c-0.2-0.3-0.5-0.4-1-0.4c-0.3,0-0.6,0-0.8,0.1
			s-0.5,0.2-0.7,0.3l-0.3-1.1c0.3-0.2,0.6-0.3,0.9-0.4c0.4-0.1,0.8-0.1,1.2-0.1c0.9,0,1.6,0.3,2,0.8c0.3,0.5,0.5,1.1,0.5,2v2.8
			c0,0.7,0,1.2,0.1,1.7C339.8,19.5,338.4,19.5,338.4,19.5z M338.1,15.9c-0.6,0-1,0.1-1.4,0.3c-0.5,0.2-0.7,0.6-0.7,1.2
			c0,0.4,0.1,0.7,0.3,0.9c0.2,0.2,0.4,0.3,0.6,0.3c0.3,0,0.5-0.1,0.7-0.3c0.2-0.2,0.3-0.4,0.4-0.7v-0.4v-1.3
			C338,15.9,338.1,15.9,338.1,15.9z"/>
		<path class="st1" d="M346.1,18.8c-0.5,0.6-1.1,0.9-1.8,0.9c-0.4,0-0.7-0.1-0.9-0.2c-0.3-0.2-0.5-0.4-0.6-0.6v3.6h-1.6v-7.8
			c0-0.2,0-0.6,0-1.2c0-0.6,0-1,0-1.2h1.4l0.1,1c0.4-0.7,1-1.1,1.8-1.1c0.7,0,1.3,0.3,1.8,1c0.4,0.7,0.7,1.6,0.7,2.7
			C346.9,17.1,346.6,18.1,346.1,18.8z M345,14.2c-0.2-0.5-0.6-0.7-1-0.7c-0.3,0-0.5,0.1-0.7,0.3s-0.4,0.5-0.4,0.8
			c0,0.2,0,0.3-0.1,0.3c0,0,0,0.1,0,0.2v1.6c0,0.1,0,0.2,0,0.3c0,0.1,0,0.2,0,0.3c0.1,0.4,0.3,0.6,0.5,0.8c0.2,0.2,0.4,0.2,0.7,0.2
			c0.5,0,0.8-0.2,1.1-0.7c0.2-0.4,0.3-1,0.3-1.8S345.2,14.6,345,14.2z"/>
		<path class="st1" d="M351.5,19.5l-0.1-0.8c-0.2,0.3-0.4,0.5-0.7,0.7s-0.6,0.2-1,0.2c-0.6,0-1-0.2-1.4-0.6s-0.5-0.9-0.5-1.5
			c0-0.9,0.3-1.6,1-2c0.6-0.4,1.5-0.6,2.5-0.6v-0.2c0-0.4-0.1-0.7-0.3-0.9c-0.2-0.3-0.5-0.4-1-0.4c-0.3,0-0.6,0-0.8,0.1
			s-0.5,0.2-0.7,0.3l-0.3-1.1c0.3-0.2,0.6-0.3,0.9-0.4c0.4-0.1,0.8-0.1,1.2-0.1c0.9,0,1.6,0.3,2,0.8c0.3,0.5,0.5,1.1,0.5,2v2.8
			c0,0.7,0,1.2,0.1,1.7C352.9,19.5,351.5,19.5,351.5,19.5z M351.2,15.9c-0.6,0-1,0.1-1.4,0.3c-0.5,0.2-0.7,0.6-0.7,1.2
			c0,0.4,0.1,0.7,0.3,0.9c0.2,0.2,0.4,0.3,0.6,0.3c0.3,0,0.5-0.1,0.7-0.3c0.2-0.2,0.3-0.4,0.4-0.7v-0.4v-1.3
			C351.1,15.9,351.2,15.9,351.2,15.9z"/>
		<path class="st1" d="M358.3,13.7c-0.2-0.1-0.3-0.1-0.5-0.2c-0.1,0-0.3,0-0.5,0c-0.6,0-1,0.2-1.3,0.7s-0.5,1.1-0.5,1.8
			c0,0.8,0.2,1.3,0.5,1.8c0.3,0.4,0.8,0.7,1.3,0.7c0.2,0,0.4,0,0.5-0.1c0.2,0,0.3-0.1,0.5-0.2l0.2,1.2c-0.2,0.1-0.4,0.2-0.6,0.2
			c-0.3,0.1-0.5,0.1-0.8,0.1c-0.9,0-1.7-0.3-2.3-1c-0.6-0.6-0.8-1.5-0.8-2.7c0-1.1,0.3-2,0.9-2.7s1.4-1.1,2.4-1.1
			c0.3,0,0.5,0,0.7,0.1c0.2,0,0.4,0.1,0.5,0.2L358.3,13.7z"/>
		<path class="st1" d="M360.9,10.9c-0.2,0.2-0.4,0.3-0.7,0.3c-0.3,0-0.5-0.1-0.7-0.3s-0.3-0.4-0.3-0.7s0.1-0.5,0.3-0.7
			s0.4-0.3,0.7-0.3c0.3,0,0.5,0.1,0.7,0.3s0.3,0.4,0.3,0.7C361.2,10.5,361.1,10.7,360.9,10.9z M359.5,19.5v-7.2h1.6v7.2H359.5z"/>
		<path class="st1" d="M364.4,13.5v3.7c0,0.4,0.1,0.7,0.2,0.9c0.1,0.2,0.3,0.3,0.6,0.3c0.2,0,0.4,0,0.6,0v1.2
			c-0.3,0.1-0.6,0.1-1.1,0.1c-0.6,0-1-0.2-1.3-0.5c-0.4-0.4-0.5-1-0.5-1.9v-3.7H362v-1.2h0.9V11l1.6-0.5v1.8h1.5v1.2H364.4z"/>
		<path class="st1" d="M370.3,19.5l-0.1-0.8c-0.2,0.3-0.4,0.5-0.7,0.7s-0.6,0.2-1,0.2c-0.6,0-1-0.2-1.4-0.6s-0.5-0.9-0.5-1.5
			c0-0.9,0.3-1.6,1-2c0.6-0.4,1.5-0.6,2.5-0.6v-0.2c0-0.4-0.1-0.7-0.3-0.9c-0.2-0.3-0.5-0.4-1-0.4c-0.3,0-0.6,0-0.8,0.1
			s-0.5,0.2-0.7,0.3l-0.3-1.1c0.3-0.2,0.6-0.3,0.9-0.4c0.4-0.1,0.8-0.1,1.2-0.1c0.9,0,1.6,0.3,2,0.8c0.3,0.5,0.5,1.1,0.5,2v2.8
			c0,0.7,0,1.2,0.1,1.7C371.7,19.5,370.3,19.5,370.3,19.5z M370.1,15.9c-0.6,0-1,0.1-1.4,0.3c-0.5,0.2-0.7,0.6-0.7,1.2
			c0,0.4,0.1,0.7,0.3,0.9c0.2,0.2,0.4,0.3,0.6,0.3c0.3,0,0.5-0.1,0.7-0.3c0.2-0.2,0.3-0.4,0.4-0.7v-0.4v-1.3
			C370,15.9,370.1,15.9,370.1,15.9z"/>
		<path class="st1" d="M377.1,13.7c-0.2-0.1-0.3-0.1-0.5-0.2c-0.1,0-0.3,0-0.5,0c-0.6,0-1,0.2-1.3,0.7s-0.5,1.1-0.5,1.8
			c0,0.8,0.2,1.3,0.5,1.8c0.3,0.4,0.8,0.7,1.3,0.7c0.2,0,0.4,0,0.5-0.1c0.2,0,0.3-0.1,0.5-0.2l0.2,1.2c-0.2,0.1-0.4,0.2-0.6,0.2
			c-0.3,0.1-0.5,0.1-0.8,0.1c-0.9,0-1.7-0.3-2.3-1c-0.6-0.6-0.8-1.5-0.8-2.7c0-1.1,0.3-2,0.9-2.7s1.4-1.1,2.4-1.1
			c0.3,0,0.5,0,0.7,0.1c0.2,0,0.4,0.1,0.5,0.2L377.1,13.7z"/>
		<path class="st1" d="M379.7,10.9c-0.2,0.2-0.4,0.3-0.7,0.3c-0.3,0-0.5-0.1-0.7-0.3s-0.3-0.4-0.3-0.7s0.1-0.5,0.3-0.7
			s0.4-0.3,0.7-0.3c0.3,0,0.5,0.1,0.7,0.3s0.3,0.4,0.3,0.7S379.9,10.7,379.7,10.9z M378.3,19.5v-7.2h1.6v7.2H378.3z"/>
		<path class="st1" d="M385.9,18.8c-0.5,0.6-1.2,0.8-2,0.8c-0.9,0-1.5-0.3-2.1-1c-0.5-0.7-0.8-1.6-0.8-2.8s0.3-2.2,0.9-2.9
			c0.5-0.6,1.2-0.9,2.1-0.9s1.6,0.3,2.1,1s0.8,1.6,0.8,2.7C386.8,17.2,386.5,18.2,385.9,18.8z M385,14.2c-0.2-0.6-0.6-0.9-1-0.9
			c-0.5,0-0.8,0.3-1.1,0.9c-0.2,0.4-0.3,1-0.3,1.7c0,0.7,0.1,1.3,0.3,1.8s0.6,0.7,1,0.7s0.8-0.3,1-0.8s0.3-1,0.3-1.8
			C385.2,15.3,385.1,14.7,385,14.2z M384.3,11.5h-1l1.2-2.1h1.5L384.3,11.5z"/>
		<path class="st1" d="M391.8,19.5v-4.4c0-0.5-0.1-0.9-0.2-1.1c-0.2-0.3-0.5-0.5-0.8-0.5c-0.6,0-0.9,0.3-1.1,1
			c0,0.2-0.1,0.4-0.1,0.6v4.4H388v-5.2c0-0.1,0-0.4,0-1c0-0.5,0-0.9,0-1.1h1.4l0.1,0.9c0.2-0.3,0.4-0.6,0.8-0.8
			c0.3-0.2,0.7-0.3,1.1-0.3c0.6,0,1.1,0.2,1.5,0.7s0.6,1.1,0.6,2v4.6h-1.7V19.5z"/>
	</g>
	<g>
		<path class="st1" d="M295.7,33.4h-3.9c0,0.8,0.2,1.3,0.6,1.7c0.3,0.3,0.7,0.4,1.3,0.4c0.3,0,0.6,0,0.8-0.1
			c0.2-0.1,0.5-0.1,0.7-0.2l0.2,1.1c-0.5,0.3-1.2,0.4-2,0.4c-1,0-1.8-0.3-2.3-1c-0.5-0.6-0.8-1.5-0.8-2.7c0-1.1,0.3-2.1,0.8-2.8
			c0.5-0.7,1.2-1.1,2.1-1.1s1.5,0.3,1.9,1c0.4,0.6,0.6,1.4,0.6,2.3C295.7,33,295.7,33.2,295.7,33.4z M294,30.9
			c-0.2-0.3-0.5-0.5-0.9-0.5s-0.7,0.2-1,0.6c-0.2,0.3-0.3,0.8-0.3,1.2h2.4C294.2,31.7,294.2,31.3,294,30.9z"/>
		<path class="st1" d="M300.7,36.6v-4.4c0-0.5-0.1-0.9-0.2-1.1c-0.2-0.3-0.5-0.5-0.8-0.5c-0.6,0-0.9,0.3-1.1,1
			c0,0.2-0.1,0.4-0.1,0.6v4.4h-1.6v-5.2c0-0.1,0-0.4,0-1c0-0.5,0-0.9,0-1.1h1.4l0.1,0.9c0.2-0.3,0.4-0.6,0.8-0.8
			c0.3-0.2,0.7-0.3,1.1-0.3c0.6,0,1.1,0.2,1.5,0.7s0.6,1.1,0.6,2v4.6h-1.7L300.7,36.6L300.7,36.6z"/>
		<path class="st1" d="M311.7,30.8c-0.1,0.4-0.3,0.7-0.6,1c-0.3,0.4-0.7,0.6-1.2,0.8s-0.9,0.3-1.5,0.3c-0.1,0-0.2,0-0.3,0
			s-0.2,0-0.3,0v3.9h-1.6v-9.9c0.3-0.1,0.6-0.1,1-0.1s0.7-0.1,1.1-0.1c1.2,0,2,0.3,2.6,0.8c0.3,0.3,0.5,0.6,0.6,0.9s0.2,0.8,0.2,1.2
			C311.9,30,311.8,30.4,311.7,30.8z M309.9,28.3c-0.3-0.3-0.7-0.5-1.3-0.5c-0.3,0-0.5,0-0.7,0.1v3.6h0.6c0.6,0,1.1-0.2,1.4-0.5
			s0.5-0.8,0.5-1.4C310.4,29.1,310.2,28.6,309.9,28.3z"/>
		<path class="st1" d="M317.2,35.9c-0.5,0.6-1.2,0.8-2,0.8c-0.9,0-1.5-0.3-2.1-1c-0.5-0.7-0.8-1.6-0.8-2.8s0.3-2.2,0.9-2.9
			c0.5-0.6,1.2-0.9,2.1-0.9s1.6,0.3,2.1,1s0.8,1.6,0.8,2.7C318.2,34.3,317.9,35.3,317.2,35.9z M316.3,31.3c-0.2-0.6-0.6-0.9-1-0.9
			c-0.5,0-0.8,0.3-1.1,0.9c-0.2,0.4-0.3,1-0.3,1.7s0.1,1.3,0.3,1.8s0.6,0.7,1,0.7s0.8-0.3,1-0.8s0.3-1,0.3-1.8
			C316.6,32.4,316.5,31.8,316.3,31.3z"/>
		<path class="st1" d="M319.3,36.6V26.3h1.6v10.4L319.3,36.6L319.3,36.6z"/>
		<path class="st1" d="M322.4,36.6v-7.2h1.6v7.2H322.4z M323.6,28.6h-1l1.2-2.1h1.5L323.6,28.6z"/>
		<path class="st1" d="M327.4,30.6v3.7c0,0.4,0.1,0.7,0.2,0.9s0.3,0.3,0.6,0.3c0.2,0,0.4,0,0.6,0v1.2c-0.3,0.1-0.6,0.1-1.1,0.1
			c-0.6,0-1-0.2-1.3-0.5c-0.4-0.4-0.5-1-0.5-1.9v-3.7H325v-1.2h0.9v-1.3l1.6-0.5v1.8h1.5v1.2L327.4,30.6L327.4,30.6z"/>
		<path class="st1" d="M331.3,28c-0.2,0.2-0.4,0.3-0.7,0.3c-0.3,0-0.5-0.1-0.7-0.3s-0.3-0.4-0.3-0.7s0.1-0.5,0.3-0.7
			s0.4-0.3,0.7-0.3c0.3,0,0.5,0.1,0.7,0.3c0.2,0.2,0.3,0.4,0.3,0.7C331.6,27.6,331.5,27.8,331.3,28z M329.9,36.6v-7.2h1.6v7.2H329.9
			z"/>
		<path class="st1" d="M337,30.8c-0.2-0.1-0.3-0.1-0.5-0.2c-0.1,0-0.3,0-0.5,0c-0.6,0-1,0.2-1.3,0.7s-0.5,1.1-0.5,1.8
			c0,0.8,0.2,1.3,0.5,1.8c0.3,0.4,0.8,0.7,1.3,0.7c0.2,0,0.4,0,0.5-0.1c0.2,0,0.3-0.1,0.5-0.2l0.2,1.2c-0.2,0.1-0.4,0.2-0.6,0.2
			c-0.3,0.1-0.5,0.1-0.8,0.1c-0.9,0-1.7-0.3-2.3-1c-0.6-0.6-0.8-1.5-0.8-2.7c0-1.1,0.3-2,0.9-2.7s1.4-1.1,2.4-1.1
			c0.3,0,0.5,0,0.7,0.1c0.2,0,0.4,0.1,0.5,0.2L337,30.8z"/>
		<path class="st1" d="M341.6,36.6l-0.1-0.8c-0.2,0.3-0.4,0.5-0.7,0.7s-0.6,0.2-1,0.2c-0.6,0-1-0.2-1.4-0.6
			c-0.4-0.4-0.5-0.9-0.5-1.5c0-0.9,0.3-1.6,1-2c0.6-0.4,1.5-0.6,2.5-0.6v-0.2c0-0.4-0.1-0.7-0.3-0.9c-0.2-0.3-0.5-0.4-1-0.4
			c-0.3,0-0.6,0-0.8,0.1s-0.5,0.2-0.7,0.3l-0.3-1.1c0.3-0.2,0.6-0.3,0.9-0.4c0.4-0.1,0.8-0.1,1.2-0.1c0.9,0,1.6,0.3,2,0.8
			c0.3,0.5,0.5,1.1,0.5,2V35c0,0.7,0,1.2,0.1,1.7h-1.4L341.6,36.6L341.6,36.6z M341.4,33c-0.6,0-1,0.1-1.4,0.3
			c-0.5,0.2-0.7,0.6-0.7,1.2c0,0.4,0.1,0.7,0.3,0.9c0.2,0.2,0.4,0.3,0.6,0.3c0.3,0,0.5-0.1,0.7-0.3s0.3-0.4,0.4-0.7v-0.4V33H341.4z"
			/>
		<path class="st1" d="M347.6,36.2c-0.5,0.4-1.1,0.6-1.8,0.6c-0.3,0-0.7,0-1-0.1s-0.6-0.2-0.8-0.3l0.3-1.1c0.2,0.1,0.4,0.2,0.7,0.3
			c0.3,0.1,0.5,0.1,0.8,0.1s0.6-0.1,0.7-0.2c0.2-0.2,0.3-0.4,0.3-0.6c0-0.2-0.1-0.5-0.2-0.6s-0.4-0.4-0.8-0.5
			c-0.6-0.3-1-0.6-1.3-0.9c-0.3-0.3-0.4-0.7-0.4-1.1c0-0.6,0.2-1.2,0.6-1.6s1-0.6,1.7-0.6c0.3,0,0.6,0,0.9,0.1s0.5,0.2,0.7,0.3
			l-0.3,1.1c-0.2-0.1-0.4-0.2-0.5-0.3c-0.2-0.1-0.4-0.1-0.6-0.1c-0.3,0-0.5,0.1-0.7,0.2c-0.2,0.2-0.2,0.3-0.2,0.6
			c0,0.2,0.1,0.4,0.2,0.5c0.1,0.2,0.4,0.3,0.8,0.5c0.5,0.3,0.9,0.6,1.2,0.9c0.3,0.4,0.4,0.8,0.4,1.2C348.2,35.2,348,35.8,347.6,36.2
			z"/>
		<path class="st1" d="M357.3,30.8c-0.1,0.4-0.3,0.7-0.6,1c-0.3,0.4-0.7,0.6-1.2,0.8s-0.9,0.3-1.5,0.3c-0.1,0-0.2,0-0.3,0
			s-0.2,0-0.3,0v3.9h-1.6v-9.9c0.3-0.1,0.6-0.1,1-0.1s0.7-0.1,1.1-0.1c1.2,0,2,0.3,2.6,0.8c0.3,0.3,0.5,0.6,0.6,0.9s0.2,0.8,0.2,1.2
			C357.5,30,357.4,30.4,357.3,30.8z M355.5,28.3c-0.3-0.3-0.7-0.5-1.3-0.5c-0.3,0-0.5,0-0.7,0.1v3.6h0.6c0.6,0,1.1-0.2,1.4-0.5
			s0.5-0.8,0.5-1.4C356,29.1,355.8,28.6,355.5,28.3z"/>
		<path class="st1" d="M362.6,36.6l-0.1-0.9c-0.2,0.3-0.4,0.5-0.7,0.7c-0.3,0.2-0.7,0.3-1.2,0.3c-0.7,0-1.2-0.2-1.5-0.7
			c-0.4-0.5-0.5-1.2-0.5-2.2v-4.4h1.6v4.2c0,0.6,0.1,1.1,0.2,1.4s0.4,0.5,0.8,0.5c0.3,0,0.5-0.1,0.7-0.3c0.2-0.1,0.3-0.3,0.3-0.6
			c0-0.1,0-0.2,0.1-0.3s0-0.2,0-0.3v-4.6h1.6v5.1c0,0.1,0,0.5,0,1s0,0.9,0,1.1H362.6z M361.7,28.6h-1l1.2-2.1h1.5L361.7,28.6z"/>
		<path class="st1" d="M370.4,35.8c-0.5,0.6-1.1,1-1.8,1c-0.7,0-1.3-0.4-1.8-1.1l-0.1,1h-1.3c0-0.2,0-0.5,0-0.9c0-0.5,0-0.8,0-1
			v-8.4h1.6v4c0.4-0.7,1-1,1.8-1c0.7,0,1.3,0.3,1.7,1c0.4,0.7,0.6,1.5,0.6,2.6C371.2,34.1,370.9,35.1,370.4,35.8z M369.3,31.3
			c-0.2-0.4-0.6-0.7-1-0.7c-0.3,0-0.5,0.1-0.7,0.3s-0.3,0.5-0.4,0.7s-0.1,0.4-0.1,0.6v1.7c0,0.2,0,0.3,0.1,0.5
			c0.1,0.4,0.3,0.7,0.5,0.9s0.4,0.2,0.7,0.2c0.5,0,0.8-0.2,1-0.7s0.3-1.1,0.3-1.8C369.6,32.3,369.5,31.7,369.3,31.3z"/>
		<path class="st1" d="M372.4,36.6V26.3h1.6v10.4L372.4,36.6L372.4,36.6z"/>
		<path class="st1" d="M376.9,28c-0.2,0.2-0.4,0.3-0.7,0.3c-0.3,0-0.5-0.1-0.7-0.3s-0.3-0.4-0.3-0.7s0.1-0.5,0.3-0.7
			s0.4-0.3,0.7-0.3c0.3,0,0.5,0.1,0.7,0.3c0.2,0.2,0.3,0.4,0.3,0.7C377.2,27.6,377.1,27.8,376.9,28z M375.5,36.6v-7.2h1.6v7.2H375.5
			z"/>
		<path class="st1" d="M382.6,30.8c-0.2-0.1-0.3-0.1-0.5-0.2c-0.1,0-0.3,0-0.5,0c-0.6,0-1,0.2-1.3,0.7s-0.5,1.1-0.5,1.8
			c0,0.8,0.2,1.3,0.5,1.8c0.3,0.4,0.8,0.7,1.3,0.7c0.2,0,0.4,0,0.5-0.1c0.2,0,0.3-0.1,0.5-0.2l0.2,1.2c-0.2,0.1-0.4,0.2-0.6,0.2
			c-0.3,0.1-0.5,0.1-0.8,0.1c-0.9,0-1.7-0.3-2.3-1c-0.6-0.6-0.8-1.5-0.8-2.7c0-1.1,0.3-2,0.9-2.7s1.4-1.1,2.4-1.1
			c0.3,0,0.5,0,0.7,0.1c0.2,0,0.4,0.1,0.5,0.2L382.6,30.8z"/>
		<path class="st1" d="M387.2,36.6l-0.1-0.8c-0.2,0.3-0.4,0.5-0.7,0.7s-0.6,0.2-1,0.2c-0.6,0-1-0.2-1.4-0.6
			c-0.4-0.4-0.5-0.9-0.5-1.5c0-0.9,0.3-1.6,1-2c0.6-0.4,1.5-0.6,2.5-0.6v-0.2c0-0.4-0.1-0.7-0.3-0.9c-0.2-0.3-0.5-0.4-1-0.4
			c-0.3,0-0.6,0-0.8,0.1s-0.5,0.2-0.7,0.3l-0.3-1.1c0.3-0.2,0.6-0.3,0.9-0.4c0.4-0.1,0.8-0.1,1.2-0.1c0.9,0,1.6,0.3,2,0.8
			c0.3,0.5,0.5,1.1,0.5,2V35c0,0.7,0,1.2,0.1,1.7h-1.4L387.2,36.6L387.2,36.6z M386.9,33c-0.6,0-1,0.1-1.4,0.3
			c-0.5,0.2-0.7,0.6-0.7,1.2c0,0.4,0.1,0.7,0.3,0.9c0.2,0.2,0.4,0.3,0.6,0.3c0.3,0,0.5-0.1,0.7-0.3s0.3-0.4,0.4-0.7v-0.4V33H386.9z"
			/>
		<path class="st1" d="M393.1,36.2c-0.5,0.4-1.1,0.6-1.8,0.6c-0.3,0-0.7,0-1-0.1s-0.6-0.2-0.8-0.3l0.3-1.1c0.2,0.1,0.4,0.2,0.7,0.3
			c0.3,0.1,0.5,0.1,0.8,0.1s0.6-0.1,0.7-0.2c0.2-0.2,0.3-0.4,0.3-0.6c0-0.2-0.1-0.5-0.2-0.6s-0.4-0.4-0.8-0.5
			c-0.6-0.3-1-0.6-1.3-0.9c-0.3-0.3-0.4-0.7-0.4-1.1c0-0.6,0.2-1.2,0.6-1.6s1-0.6,1.7-0.6c0.3,0,0.6,0,0.9,0.1s0.5,0.2,0.7,0.3
			l-0.3,1.1c-0.2-0.1-0.4-0.2-0.5-0.3c-0.2-0.1-0.4-0.1-0.6-0.1c-0.3,0-0.5,0.1-0.7,0.2c-0.2,0.2-0.2,0.3-0.2,0.6
			c0,0.2,0.1,0.4,0.2,0.5c0.1,0.2,0.4,0.3,0.8,0.5c0.5,0.3,0.9,0.6,1.2,0.9c0.3,0.4,0.4,0.8,0.4,1.2
			C393.8,35.2,393.6,35.8,393.1,36.2z"/>
	</g>
</g>
<g>
	<path class="st1" d="M35.7,36.1c-3.8,3.8-9.1,6.2-14.9,6.2c-11.6,0-21.1-9.4-21.1-21.1c0-11.6,9.4-21.1,21.1-21.1
		c5.7,0,11.1,2.3,14.9,6.1l-7.3,7.4c-1.9-1.9-4.6-3.1-7.5-3.1c-5.9,0-10.6,4.7-10.6,10.6S15,31.7,20.9,31.7c2.9,0,5.6-1.2,7.5-3.1
		L35.7,36.1z"/>
	<path class="st1" d="M23.1,15.1c5.1,0,5.8,4.3,11.1,4.3c1.6,0,2.9-1.6,4.3-2.5c0,0.7-1,9.8-6.8,10c-6,0-7.4-4.5-12.3-4.5
		c-2.6,0-2.7,1.5-3.9,2.6C16.3,21.2,16.9,15.1,23.1,15.1z"/>
	<path class="st1" d="M52,17c-0.8,0.2-1.6,0.3-2.4,0.3c-3.4,0-5.7-1.7-5.7-5.2c0-3.6,2.2-5.6,5.7-5.6c0.7,0,1.6,0.1,2.4,0.4
		l-0.1,1.8c-0.8-0.4-1.5-0.6-2.3-0.6c-2.2,0-3.5,1.7-3.5,3.8s1.3,3.7,3.6,3.7c0.8,0,1.8-0.2,2.3-0.4V17z"/>
	<path class="st1" d="M56.9,9.3c2.3,0,4,1.5,4,4.1c0,2.2-1.5,4-4,4s-4-1.8-4-4C52.9,10.8,54.7,9.3,56.9,9.3z M56.9,15.8
		c1.5,0,1.9-1.4,1.9-2.7c0-1.2-0.6-2.3-1.9-2.3c-1.3,0-1.9,1.1-1.9,2.3C55,14.4,55.4,15.8,56.9,15.8z"/>
	<path class="st1" d="M66.1,9.3c2.3,0,4,1.5,4,4.1c0,2.2-1.5,4-4,4s-4-1.8-4-4C62.1,10.8,63.8,9.3,66.1,9.3z M66.1,15.8
		c1.5,0,1.9-1.4,1.9-2.7c0-1.2-0.6-2.3-1.9-2.3s-1.9,1.1-1.9,2.3C64.2,14.4,64.6,15.8,66.1,15.8z"/>
	<path class="st1" d="M71.7,9.5h1.9v1.1l0,0C74,9.9,74.8,9.3,76,9.3c2.4,0,3.2,1.9,3.2,4s-0.9,4.1-3.3,4.1c-0.9,0-1.6-0.2-2.3-1.1
		l0,0v4h-2V9.5H71.7z M73.7,13.3c0,1.1,0.4,2.5,1.8,2.5c1.3,0,1.7-1.4,1.7-2.5c0-1-0.4-2.5-1.7-2.5C74.2,10.9,73.7,12.2,73.7,13.3z"
		/>
	<path class="st1" d="M87,16.8c-0.7,0.4-1.6,0.6-2.6,0.6c-2.5,0-4-1.5-4-4c0-2.2,1.2-4.1,3.6-4.1c2.9,0,3.7,2,3.7,4.7h-5.3
		c0.1,1.2,1,1.9,2.2,1.9c1,0,1.8-0.4,2.6-0.8v1.7H87z M85.7,12.6c-0.1-1-0.5-1.8-1.6-1.8s-1.7,0.8-1.8,1.8H85.7z"/>
	<path class="st1" d="M89.2,9.5H91v1.8l0,0c0.1-0.7,0.9-1.9,2.1-1.9c0.2,0,0.4,0,0.6,0.1v2c-0.2-0.1-0.5-0.2-0.9-0.2
		c-1.6,0-1.6,2-1.6,3.1v2.8h-2V9.5z"/>
	<path class="st1" d="M95.4,9.9c0.8-0.4,1.8-0.6,2.7-0.6c2.4,0,3.3,1,3.3,3.2v1c0,0.8,0,1.4,0,1.9c0,0.6,0,1.1,0.1,1.7h-1.8
		c-0.1-0.4-0.1-0.9-0.1-1.2l0,0c-0.5,0.9-1.5,1.3-2.4,1.3c-1.4,0-2.7-0.8-2.7-2.3c0-1.1,0.6-1.8,1.3-2.2c0.8-0.4,1.8-0.5,2.6-0.5
		h1.1c0-1.2-0.6-1.7-1.7-1.7c-0.9,0-1.7,0.3-2.4,0.8V9.9z M97.7,15.9c0.6,0,1.1-0.3,1.4-0.7s0.4-1,0.4-1.6h-0.9
		c-0.9,0-2.2,0.1-2.2,1.3C96.4,15.6,97,15.9,97.7,15.9z"/>
	<path class="st1" d="M108.4,11.1c-0.4-0.2-0.7-0.3-1.4-0.3c-1.2,0-2,1-2,2.4s0.7,2.5,2.1,2.5c0.6,0,1.2-0.2,1.5-0.4l0.1,1.7
		c-0.6,0.2-1.2,0.3-2,0.3c-2.5,0-3.8-1.7-3.8-4.1c0-2.2,1.3-4,3.7-4c0.8,0,1.4,0.1,1.9,0.3L108.4,11.1z"/>
	<path class="st1" d="M110,6.2h2v1.9h-2V6.2z M110,9.5h2v7.7h-2V9.5z"/>
	<path class="st1" d="M117.7,9.3c2.3,0,4,1.5,4,4.1c0,2.2-1.5,4-4,4s-4-1.8-4-4C113.7,10.8,115.4,9.3,117.7,9.3z M117.7,15.8
		c1.5,0,1.9-1.4,1.9-2.7c0-1.2-0.6-2.3-1.9-2.3s-1.9,1.1-1.9,2.3C115.8,14.4,116.2,15.8,117.7,15.8z M117.8,6.2h2.1l-2.1,2.2h-1.2
		L117.8,6.2z"/>
	<path class="st1" d="M123.3,9.5h1.9v1l0,0c0.6-0.9,1.5-1.2,2.5-1.2c1.8,0,2.6,1.3,2.6,3v4.9h-2v-4.1c0-0.9,0-2.2-1.3-2.2
		c-1.5,0-1.8,1.6-1.8,2.6v3.8h-2V9.5H123.3z"/>
	<polygon class="st1" points="43.9,22.7 50.1,22.7 50.1,24.3 46,24.3 46,26.9 49.7,26.9 49.7,28.5 46,28.5 46,31.5 50.1,31.5 
		50.1,33.1 43.9,33.1 	"/>
	<path class="st1" d="M56.7,27c-0.6-0.2-1.1-0.3-1.8-0.3c-0.5,0-1.2,0.2-1.2,0.9c0,1.2,3.5,0.4,3.5,3.2c0,1.8-1.6,2.5-3.2,2.5
		c-0.8,0-1.5-0.1-2.3-0.3l0.1-1.6c0.6,0.3,1.3,0.5,2,0.5c0.5,0,1.3-0.2,1.3-0.9c0-1.5-3.5-0.5-3.5-3.3c0-1.7,1.5-2.4,3-2.4
		c0.9,0,1.6,0.1,2.2,0.3L56.7,27z"/>
	<path class="st1" d="M58.7,25.4h1.9v1.1l0,0c0.5-0.7,1.2-1.3,2.4-1.3c2.4,0,3.2,1.9,3.2,4s-0.9,4.1-3.3,4.1c-0.9,0-1.6-0.2-2.3-1.1
		l0,0v4h-2L58.7,25.4L58.7,25.4z M60.7,29.3c0,1.1,0.4,2.5,1.8,2.5c1.3,0,1.7-1.4,1.7-2.5c0-1-0.4-2.5-1.7-2.5
		C61.3,26.8,60.7,28.2,60.7,29.3z"/>
	<path class="st1" d="M68.2,25.8c0.8-0.4,1.8-0.6,2.7-0.6c2.4,0,3.3,1,3.3,3.2v1c0,0.8,0,1.4,0,1.9c0,0.6,0,1.1,0.1,1.7h-1.8
		c-0.1-0.4-0.1-0.9-0.1-1.2l0,0c-0.5,0.9-1.5,1.3-2.4,1.3c-1.4,0-2.7-0.8-2.7-2.3c0-1.1,0.6-1.8,1.3-2.2c0.8-0.4,1.8-0.5,2.6-0.5
		h1.1c0-1.2-0.6-1.7-1.7-1.7c-0.9,0-1.7,0.3-2.4,0.8V25.8z M70.6,31.8c0.6,0,1.1-0.3,1.4-0.7c0.3-0.4,0.4-1,0.4-1.6h-0.9
		c-0.9,0-2.2,0.1-2.2,1.3C69.3,31.6,69.9,31.8,70.6,31.8z"/>
	<path class="st1" d="M76.2,25.4h1.9v1l0,0c0.6-0.9,1.5-1.2,2.5-1.2c1.8,0,2.6,1.3,2.6,3v4.9h-2V29c0-0.9,0-2.2-1.3-2.2
		c-1.5,0-1.8,1.6-1.8,2.6v3.8h-2v-7.8C76.1,25.4,76.2,25.4,76.2,25.4z M77.1,24.1c0-0.9,0.6-1.8,1.5-1.8c0.4,0,0.8,0.2,1.2,0.3
		c0.4,0.2,0.7,0.3,1.1,0.3c0.5,0,0.7-0.3,0.7-0.7h0.8c0,1-0.5,1.8-1.5,1.8c-0.6,0-0.9-0.1-1.3-0.3c-0.4-0.1-0.7-0.3-1-0.3
		c-0.5,0-0.7,0.4-0.7,0.7H77.1z"/>
	<path class="st1" d="M88.9,25.2c2.3,0,4,1.5,4,4.1c0,2.2-1.5,4-4,4s-4-1.8-4-4C84.9,26.8,86.6,25.2,88.9,25.2z M88.9,31.8
		c1.5,0,1.9-1.4,1.9-2.7c0-1.2-0.6-2.3-1.9-2.3S87,27.9,87,29.1C87,30.4,87.4,31.8,88.9,31.8z"/>
	<rect x="94.6" y="21.9" class="st1" width="2" height="11.2"/>
	<path class="st1" d="M99,25.8c0.8-0.4,1.8-0.6,2.7-0.6c2.3,0,3.3,1,3.3,3.2v1c0,0.8,0,1.4,0,1.9c0,0.6,0,1.1,0.1,1.7h-1.8
		c-0.1-0.4-0.1-0.9-0.1-1.2l0,0c-0.5,0.9-1.5,1.3-2.4,1.3c-1.4,0-2.7-0.8-2.7-2.3c0-1.1,0.6-1.8,1.3-2.2c0.8-0.4,1.8-0.5,2.6-0.5
		h1.1c0-1.2-0.6-1.7-1.7-1.7c-0.9,0-1.7,0.3-2.4,0.8V25.8z M101.4,31.8c0.6,0,1.1-0.3,1.4-0.7c0.3-0.4,0.4-1,0.4-1.6h-0.9
		c-0.9,0-2.2,0.1-2.2,1.3C100.1,31.6,100.7,31.8,101.4,31.8z"/>
</g>
</svg>
