<?xml version="1.0" encoding="utf-8"?>
<!-- Generator: Adobe Illustrator 24.1.2, SVG Export Plug-In . SVG Version: 6.00 Build 0)  -->
<svg version="1.1" id="Layer_1" xmlns="http://www.w3.org/2000/svg" xmlns:xlink="http://www.w3.org/1999/xlink" x="0px" y="0px"
	 viewBox="0 0 183.2 183.2" style="enable-background:new 0 0 183.2 183.2;" xml:space="preserve">
<style type="text/css">
	.st0{fill:#FAEBCC;}
	.st1{fill:#D4832C;}
	.st2{fill:none;stroke:#D4832C;stroke-width:10;stroke-linecap:round;stroke-miterlimit:10;}
</style>
<circle class="st0" cx="91.5" cy="91.5" r="87.2"/>
<g>
	<path class="st1" d="M92.1,30.9c0,0,26.1,22,55.4,25.2c0,0,7.3,86.3-55.4,98.5c-62.7-12.2-55.4-98.5-55.4-98.5
		C66,52.9,92.1,30.9,92.1,30.9 M92.1,20.3l-5.2,4.4C86.4,25.1,62.1,45.1,35.8,48l-6.7,0.7l-0.6,6.7c-0.1,1-1.9,23.2,4.4,47.4
		c8.7,33.5,28.6,54.2,57.5,59.8l1.5,0.3l1.5-0.3c28.9-5.6,48.9-26.3,57.5-59.8c6.3-24.2,4.5-46.5,4.4-47.4l-0.6-6.7l-6.7-0.7
		C122,45.1,97.5,24.9,97.3,24.7L92.1,20.3L92.1,20.3z"/>
</g>
<g>
	<g>
		<line class="st2" x1="70.9" y1="71.6" x2="113.3" y2="114"/>
	</g>
	<g>
		<line class="st2" x1="113.3" y1="71.6" x2="70.9" y2="114"/>
	</g>
</g>
</svg>
