<?xml version="1.0" encoding="utf-8"?>
<!-- Generator: Adobe Illustrator 24.1.2, SVG Export Plug-In . SVG Version: 6.00 Build 0)  -->
<svg version="1.1" id="Layer_1" xmlns="http://www.w3.org/2000/svg" xmlns:xlink="http://www.w3.org/1999/xlink" x="0px" y="0px"
	 viewBox="0 0 183.2 183.2" style="enable-background:new 0 0 183.2 183.2;" xml:space="preserve">
<style type="text/css">
	.st0{fill:#FAEBCC;}
	.st1{fill:none;stroke:#D4832C;stroke-width:10;stroke-linecap:round;stroke-linejoin:round;stroke-miterlimit:10;}
	.st2{fill:#D4832C;}
</style>
<circle class="st0" cx="91.5" cy="91.5" r="87.2"/>
<polyline class="st1" points="126.4,73.4 158.6,84.1 142.5,114.7 "/>
<polyline class="st1" points="58.2,73.4 26,84.1 42.1,114.7 "/>
<polyline class="st1" points="66,48.9 92.8,22.9 118.8,48.9 "/>
<path class="st2" d="M92.3,105.1c2.4-2.6,5.1-5.3,8.1-7.8V30.5c0-4.2-3.4-7.7-7.7-7.7s-7.7,3.4-7.7,7.7V98
	C87.7,100.3,90.1,102.7,92.3,105.1z"/>
<path class="st2" d="M39.3,79.7L26.6,84l-0.2,0.6l4.2,8.1c21.5,7.9,36.8,20.6,45.6,37.7c2-4.9,4.7-10.2,8.4-15.7
	C76,102,62,88.8,39.3,79.7z"/>
<path class="st2" d="M158.3,84.7l-0.3-0.8l-12.3-4.4c-32.7,13-47.5,34.5-54.2,51c-6.5,15.9-6.7,32.6-6.5,38.8
	c2.1,0.2,4.3,0.3,6.5,0.3c3,0,5.9-0.2,8.8-0.5c-0.1-6,0.4-20.8,5.6-33.4c8.3-19.8,24.5-34.2,48.2-43L158.3,84.7z"/>
</svg>
