<?xml version="1.0" encoding="utf-8"?>
<!-- Generator: Adobe Illustrator 24.1.2, SVG Export Plug-In . SVG Version: 6.00 Build 0)  -->
<svg version="1.1" id="Layer_1" xmlns="http://www.w3.org/2000/svg" xmlns:xlink="http://www.w3.org/1999/xlink" x="0px" y="0px"
	 viewBox="0 0 208.9 186.9" style="enable-background:new 0 0 208.9 186.9;" xml:space="preserve">
<style type="text/css">
	.st0{fill:#A4CCA3;}
	.st1{fill:#DFF0D7;}
	.st2{fill:none;stroke:#A4CCA3;stroke-width:5;stroke-miterlimit:10;}
	.st3{clip-path:url(#SVGID_2_);}
</style>
<circle class="st0" cx="104.6" cy="93.2" r="66.8"/>
<path class="st0" d="M107.6,5.9l7.4,6.5c1.3,1.2,3.2,1.5,4.8,0.8l9-3.9c2.1-0.9,4.5-0.1,5.7,1.9l5,8.4c0.9,1.5,2.6,2.4,4.3,2.2
	l9.8-0.9c2.3-0.2,4.3,1.3,4.8,3.5l2.2,9.6c0.4,1.7,1.7,3,3.4,3.4l9.6,2.2c2.2,0.5,3.7,2.6,3.5,4.8l-0.9,9.8
	c-0.2,1.7,0.7,3.4,2.2,4.3l8.4,5c2,1.2,2.8,3.6,1.9,5.7l-3.9,9c-0.7,1.6-0.4,3.5,0.8,4.8l6.5,7.4c1.5,1.7,1.5,4.3,0,6l-6.5,7.4
	c-1.2,1.3-1.5,3.2-0.8,4.8l3.9,9c0.9,2.1,0.1,4.5-1.9,5.7l-8.4,5c-1.5,0.9-2.4,2.6-2.2,4.3l0.9,9.8c0.2,2.3-1.3,4.3-3.5,4.8
	l-9.6,2.2c-1.7,0.4-3,1.7-3.4,3.4l-2.2,9.6c-0.5,2.2-2.6,3.7-4.8,3.5l-9.8-0.9c-1.7-0.2-3.4,0.7-4.3,2.2l-5,8.4
	c-1.2,2-3.6,2.8-5.7,1.9l-9-3.9c-1.6-0.7-3.5-0.4-4.8,0.8l-7.4,6.5c-1.7,1.5-4.3,1.5-6,0l-7.4-6.5c-1.3-1.2-3.2-1.5-4.8-0.8l-9,3.9
	c-2.1,0.9-4.5,0.1-5.7-1.9l-5-8.4c-0.9-1.5-2.6-2.4-4.3-2.2l-9.8,0.9c-2.3,0.2-4.3-1.3-4.8-3.5l-2.2-9.6c-0.4-1.7-1.7-3-3.4-3.4
	l-9.6-2.2c-2.2-0.5-3.7-2.6-3.5-4.8l0.9-9.8c0.2-1.7-0.7-3.4-2.2-4.3l-8.4-5c-2-1.2-2.8-3.6-1.9-5.7l3.9-9c0.7-1.6,0.4-3.5-0.8-4.8
	l-6.5-7.4c-1.5-1.7-1.5-4.3,0-6l6.5-7.4c1.2-1.3,1.5-3.2,0.8-4.8l-3.9-9c-0.9-2.1-0.1-4.5,1.9-5.7l8.4-5c1.5-0.9,2.4-2.6,2.2-4.3
	l-0.9-9.8c-0.2-2.3,1.3-4.3,3.5-4.8l9.6-2.2c1.7-0.4,3-1.7,3.4-3.4l2.2-9.6c0.5-2.2,2.6-3.7,4.8-3.5l9.8,0.9
	c1.7,0.2,3.4-0.7,4.3-2.2l5-8.4c1.2-2,3.6-2.8,5.7-1.9l9,3.9c1.6,0.7,3.5,0.4,4.8-0.8l7.4-6.5C103.3,4.3,105.9,4.3,107.6,5.9z"/>
<circle class="st1" cx="104.6" cy="93.2" r="72"/>
<g>
	<circle class="st2" cx="104.4" cy="91.8" r="65.4"/>
	<g>
		<defs>
			<circle id="SVGID_1_" cx="104.4" cy="91.8" r="65.4"/>
		</defs>
		<clipPath id="SVGID_2_">
			<use xlink:href="#SVGID_1_"  style="overflow:visible;"/>
		</clipPath>
		<g class="st3">
			<path class="st0" d="M19,88.6c0,0,30.3,8.8,29.3,17.6c-1,8.8,1,9.8,3.9,15.6c2.9,5.9,4.9,25.2,4.9,25.2l-29.3,9L19,88.6z"/>
			<path class="st0" d="M115.6,29.1c0,0,0,19.5-11.7,21.5s-13.7,1-16.6,2c-2.9,1-4.9-6.8-4.9-6.8l-8.8,2.9c0,0,4.9,5.9,0,7.8
				c0,0,5.9,9.8,0,11.7c-5.9,2-8.8-3.9-8.8-3.9s0,9.8-7.8,12.7s-8.8,8.8-8.8,8.8s-1,11.7,2,12.7c2.9,1,2.9,0,2.9,0s7.8,1,12.7,0
				c4.9-1,8.8,10.7,4.9,12.7c0,0,14.6,1,10.7,10.7c0,0,3.9,9.8-5.9,15.6c0,0-4.9,29.3-1,32.2c3.9,2.9,61.5,0,61.5,0l15.6-16.6
				c0,0-24.4-48.8-36.1-45.9c0,0-12.7,2.9-18.5-4.9s-3.9-20.5,9.8-26.3c0,0,14.6-6.8,22.4-2c0,0,2.9-15.6-13.7-8.8
				c0,0-6.8,9.8-11.7,6.8C99,69.1,98,57.4,115.6,56.4c0,0,2.9,0,2.9-3.9s7.8-2,10.7-7.8c2.9-5.9,2.9-18.5,2.9-18.5L115.6,29.1z"/>
			<path class="st0" d="M169.8,130.1l-13.7-7.8c0,0,10.7-8.8,6.8-17.6s-1.3-19.3,3.7-22.8c5-3.5,27.5,6.2,27.5,6.2l-6.8,44.9
				L169.8,130.1z"/>
		</g>
	</g>
</g>
<g>
	<path class="st0" d="M20.6,136.8c-2.8,0-5.2-1.9-5.8-4.6l-7-29.2c-0.4-1.6-0.1-3.2,0.7-4.5c0.8-1.4,2.1-2.3,3.7-2.7l175.1-42
		c0.5-0.1,0.9-0.2,1.4-0.2c2.8,0,5.2,1.9,5.8,4.6l7,29.2c0.4,1.6,0.1,3.2-0.7,4.5s-2.1,2.3-3.7,2.7L22,136.7
		C21.5,136.8,21.1,136.8,20.6,136.8z"/>
	<path class="st1" d="M188.7,55.6c1.8,0,3.4,1.2,3.9,3.1l7,29.2c0.5,2.1-0.8,4.3-2.9,4.8l-175.1,42c-0.3,0.1-0.6,0.1-0.9,0.1
		c-1.8,0-3.4-1.2-3.9-3.1l-7-29.2c-0.5-2.1,0.8-4.3,2.9-4.8l175.1-42C188,55.7,188.3,55.6,188.7,55.6 M188.7,51.6
		c-0.6,0-1.3,0.1-1.9,0.2l-175.1,42c-4.3,1-6.9,5.3-5.9,9.6l7,29.2c0.9,3.6,4.1,6.1,7.8,6.1c0.6,0,1.3-0.1,1.9-0.2l175.1-42
		c4.3-1,6.9-5.3,5.9-9.6l-7-29.2C195.5,54.1,192.4,51.6,188.7,51.6L188.7,51.6z"/>
</g>
<g>
	<g>
		<path class="st1" d="M43.9,111.1l-7.6,1.8l1,4.4l8.4-2l0.8,3.4l-13.1,3.1l-4.4-18.4l12.7-3l0.8,3.4l-8,1.9l0.9,3.8l7.6-1.8
			L43.9,111.1z"/>
		<path class="st1" d="M63.4,114.6l-2.7-2.9c-1.1-1.1-1.8-1.9-2.6-2.9l-0.1,0c-0.2,1.2-0.5,2.2-0.8,3.7l-0.9,3.7l-5.3,1.3l3.7-10.7
			l-7.9-7.7l5.3-1.3l2.6,2.9c0.9,1,1.6,1.8,2.3,2.7l0.1,0c0.2-1.3,0.4-2.2,0.7-3.4l0.9-3.8L64,95l-3.6,10.3l8.4,7.9L63.4,114.6z"/>
		<path class="st1" d="M77.2,106.3l-0.3,5.1l-4.8,1.2L74,92.7l6.1-1.5L90.8,108l-5,1.2l-2.7-4.3L77.2,106.3z M81.7,101.9l-2.2-3.6
			c-0.6-1-1.3-2.3-1.9-3.3l-0.1,0c0,1.2,0,2.6-0.1,3.8l-0.3,4.2L81.7,101.9z"/>
		<path class="st1" d="M112,95.5c-0.6-2.2-1.4-4.8-2-7.5l-0.1,0c-0.1,2.5-0.3,5.3-0.6,7.7l-0.8,7.8l-3.6,0.9l-3.9-6.6
			c-1.2-2-2.5-4.4-3.6-6.7l-0.1,0c0.5,2.5,1.1,5.4,1.5,7.7l1.3,7.1l-4.3,1l-3.1-18.7l6.2-1.5l3.5,5.6c1.2,2,2.3,4.1,3.3,6.1l0.1,0
			c0.1-2.3,0.2-4.9,0.4-7.1l0.7-6.6l6.1-1.5l5.5,18.1l-4.5,1.1L112,95.5z"/>
		<path class="st1" d="M120.5,81.7c1.4-0.6,3.4-1.2,6.2-1.9c2.9-0.7,5-0.7,6.6,0c1.5,0.6,2.8,1.9,3.2,3.7c0.4,1.8,0.1,3.5-0.8,4.8
			c-1.3,1.7-3.5,2.9-6.2,3.5c-0.6,0.1-1.2,0.3-1.6,0.3l1.6,6.6l-4.6,1.1L120.5,81.7z M127.1,89c0.4,0,0.9-0.1,1.6-0.3
			c2.5-0.6,3.7-2.1,3.3-4c-0.4-1.7-2-2.4-4.3-1.8c-0.9,0.2-1.6,0.5-1.9,0.6L127.1,89z"/>
		<path class="st1" d="M140.9,76.6l4.7-1.1l3.6,14.9l8.2-2l0.8,3.5l-12.8,3.1L140.9,76.6z"/>
		<path class="st1" d="M174,79.8l-7.6,1.8l1,4.4l8.4-2l0.8,3.4l-13.1,3.1l-4.4-18.4l12.7-3l0.8,3.4l-8,1.9l0.9,3.8l7.6-1.8L174,79.8
			z"/>
	</g>
</g>
</svg>
