<?xml version="1.0" encoding="utf-8"?>
<!-- Generator: Adobe Illustrator 24.1.2, SVG Export Plug-In . SVG Version: 6.00 Build 0)  -->
<svg version="1.1" id="Layer_1" xmlns="http://www.w3.org/2000/svg" xmlns:xlink="http://www.w3.org/1999/xlink" x="0px" y="0px"
	 viewBox="0 0 66 66" style="enable-background:new 0 0 66 66;" xml:space="preserve">
<style type="text/css">
	.st0{fill:#F0AD4E;}
	.st1{fill:#FFFFFF;}
</style>
<path class="st0" d="M60,64H2V6c0-2.2,1.8-4,4-4h58v58C64,62.2,62.2,64,60,64z"/>
<g>
	<g>
		<path class="st1" d="M32.1,35c0.1,0,0.2-0.1,0.4-0.2c0.1-0.1,0.3-0.2,0.4-0.3c0.1-0.1,0.2-0.1,0.2-0.2c0.1-0.1,0.1-0.1,0.2-0.1
			c0.1-0.1,0.1-0.1,0.2-0.2s0.1-0.1,0.2-0.1c0.2-0.2,0.5-0.4,0.7-0.6c0.2-0.2,0.4-0.4,0.7-0.6c0.2-0.2,0.5-0.5,0.7-0.7
			c0.2-0.2,0.5-0.4,0.7-0.7c0.5-0.4,0.9-0.9,1.4-1.4c0.5-0.5,0.9-0.9,1.4-1.4c0.2-0.3,0.5-0.5,0.7-0.8c0.2-0.3,0.4-0.5,0.6-0.8
			c0.2-0.2,0.4-0.5,0.6-0.8c0.2-0.3,0.4-0.5,0.5-0.8c0.4-0.6,0.7-1.1,0.9-1.6c0.2-0.5,0.4-1,0.5-1.4c0.2-0.6,0.2-1.3,0.1-1.8
			c-0.1-0.6-0.3-1.1-0.7-1.6c-0.4-0.6-0.9-1-1.7-1.4c-0.8-0.4-1.8-0.6-2.9-0.8c-0.1,0-0.2,0-0.3,0c-0.1,0-0.2,0-0.3,0
			c0,0-0.1,0-0.1,0s-0.1,0-0.1-0.1c-0.1,0-0.1,0-0.2,0c0,0-0.1,0-0.1,0c-0.1,0-0.2,0-0.3,0c-0.1,0-0.2,0-0.3,0c0,0-0.1,0-0.2,0
			c-0.1,0-0.1,0-0.1-0.1c0,0-0.1,0-0.1,0c0,0-0.1,0-0.1,0c-0.4,0-0.7,0-1.1,0c-0.4,0-0.8,0.1-1.2,0.1c-0.2,0-0.4,0.1-0.6,0.1
			c-0.2,0-0.4,0-0.6,0c-0.2,0-0.4,0.1-0.6,0.1c-0.2,0-0.4,0.1-0.6,0.1c-0.4,0-0.7,0.1-1.1,0.2c-0.4,0.1-0.7,0.1-1,0.2
			c-0.2,0-0.4,0.1-0.6,0.1c-0.2,0-0.4,0.1-0.5,0.1c-0.2,0-0.4,0.1-0.5,0.1c-0.2,0-0.3,0.1-0.5,0.1c-0.1,0-0.2,0.1-0.4,0.1
			c-0.1,0-0.2,0-0.4,0c-0.1,0-0.2,0.1-0.3,0.1c-0.1,0-0.2,0-0.3,0l1.1-2.7c0.6-0.1,1.2-0.2,1.8-0.4c0.6-0.1,1.3-0.2,1.9-0.4
			c0.7-0.1,1.4-0.2,2-0.3c0.7-0.1,1.3-0.1,2-0.2c0.1,0,0.2,0,0.2,0c0.1,0,0.2,0,0.2-0.1c0.1,0,0.2,0,0.3,0c0.1,0,0.2,0,0.3,0
			c0.2,0,0.3,0,0.5,0c0.2,0,0.3,0,0.5,0c1.7,0,3.3,0.2,4.7,0.5c1.4,0.3,2.7,0.8,3.9,1.4c1.2,0.6,1.9,1.5,2.3,2.5
			c0.4,1,0.4,2.2,0.1,3.5c-0.2,0.7-0.5,1.4-0.9,2.3c-0.4,0.8-1,1.7-1.7,2.6c-0.7,1-1.6,1.9-2.6,3c-1,1-2.2,2.1-3.5,3.3L21.2,48.4
			h18.5L39,50.9H16.2l0.8-3L32.1,35z"/>
		<path class="st1" d="M47.3,47.1l-1,3.8h-4.3l1-3.8H47.3z"/>
	</g>
</g>
</svg>
