<?xml version="1.0" encoding="utf-8"?>
<!-- Generator: Adobe Illustrator 24.1.2, SVG Export Plug-In . SVG Version: 6.00 Build 0)  -->
<svg version="1.1" id="Layer_1" xmlns="http://www.w3.org/2000/svg" xmlns:xlink="http://www.w3.org/1999/xlink" x="0px" y="0px"
	 viewBox="0 0 182 146" style="enable-background:new 0 0 182 146;" xml:space="preserve">
<style type="text/css">
	.st0{fill:#457E9B;}
</style>
<path class="st0" d="M93.4,70.3c2.3-6.3,4.2-11.5,6.2-16.8c-1-1.3-1.9-2.5-2.8-3.7c-7-9.8-6.9-21.4,1-30.4c3.3-3.8,7.5-7.3,11.9-9.6
	c16.2-8.1,32.8-8.1,49-0.2c4.1,2,7.9,5,11.1,8.3c9.7,10.3,9.5,24.3-0.1,34.6c-6.6,7.1-15,10.9-24.4,12.7c-9.8,1.9-19.6,1.4-29.1-2
	c-2-0.7-3.7-0.7-5.7,0.1C105.3,65.7,99.8,67.7,93.4,70.3z M114.1,40.6c3.2,0,5.7-2.5,5.6-5.6c-0.1-2.9-2.5-5.4-5.3-5.5
	c-3-0.1-5.7,2.4-5.8,5.5C108.5,38.1,110.9,40.6,114.1,40.6z M155,40.6c3.1-0.1,5.6-2.8,5.4-5.8c-0.2-2.8-2.8-5.3-5.6-5.3
	c-3,0-5.6,2.6-5.6,5.7C149.3,38.4,151.8,40.7,155,40.6z M140,35.1c0-3.1-2.7-5.7-5.7-5.6c-2.9,0.1-5.6,3-5.5,5.9
	c0.1,2.9,2.6,5.2,5.5,5.2C137.6,40.6,140,38.3,140,35.1z"/>
<path class="st0" d="M88.8,137.3c4,0,7.8,0,11.6,0c2.5,0,4.6,0.5,4.9,3.8c-21.2,0-42.3,0-63.6,0c0.9-4.6,4.2-3.7,7.1-3.8
	c3-0.1,6,0,9.6,0c0.3-5.3,0.2-10.4,0.1-16c-1.9-0.1-3.7-0.3-5.4-0.3c-11,0-22,0-33,0c-9.6,0-13.3-3.8-13.3-13.4
	c0-23.2,0.2-46.3-0.1-69.5C6.5,28.5,12.3,24.4,20,24.5c21.8,0.2,43.7,0.1,65.5,0.1c1.2,0,2.3,0,4,0c-0.5,1.6-0.8,2.7-1.2,4.1
	c-2.2,0-4.2,0-6.2,0c-20.2,0-40.3,0-60.5,0c-1.5,0-3-0.1-4.5,0.1c-3.6,0.5-5.6,2.5-6.2,6.1c-0.1,0.8-0.1,1.7-0.1,2.5
	c0,18.8,0,37.7,0,56.5c0,1.1,0.2,2.3,0.3,4.2c14.1,0.2,28.2,0,42.8,0.1c-0.3-3.3-0.5-6.1-0.7-8.8c-0.1-1.7-0.5-3.3-0.3-5
	c0.5-5,3.8-8.2,8.9-8.3c7.7-0.2,15.3-0.2,23,0c6,0.1,9.3,3.9,9.2,10.1c-0.1,2-0.3,4-0.5,6c-0.2,1.8-0.3,3.6-0.5,5.8
	c14.4,0,28.4,0,43,0c0-9.2,0-18.1,0-27.3c1.6,0,2.7,0,4.3,0c0,1.8,0,3.4,0,5.1c0,10.5,0,21,0,31.5c0,10.1-3.7,13.7-14,13.8
	c-12.3,0-24.6,0-37.4,0C88.8,126.4,88.8,131.6,88.8,137.3z M10.8,102.6c0,2.7-0.1,5,0,7.3c0.3,4.4,2.6,6.6,7,6.8
	c1.2,0.1,2.3,0,3.5,0c34.3,0,68.6-0.2,102.9,0.1c12,0.1,12.2-3.4,11.5-13.1c0-0.3-0.3-0.6-0.6-1.1C94.1,102.6,52.9,102.6,10.8,102.6
	z M89,98.1c0.5-4.4,1.2-8.6,1.3-12.9c0.1-3.3-2-5.3-5.4-5.4c-7.7-0.2-15.3-0.2-23,0c-3.4,0.1-5.3,2.1-5.3,5.4
	c0.1,4.3,0.8,8.5,1.2,12.8C68.5,98.1,78.5,98.1,89,98.1z M83.8,137c0-5.3,0-10.5,0-15.7c-7.2,0-13.9,0-20.8,0c0,5.4,0,10.4,0,15.7
	C70.1,137,76.8,137,83.8,137z"/>
<path class="st0" d="M87.9,59.8c0,8.1-6.4,14.5-14.6,14.4c-7.9-0.1-14.2-6.4-14.4-14.2c-0.1-8,6.4-14.6,14.4-14.7
	C81.5,45.3,87.9,51.6,87.9,59.8z M74,49.1c-6-0.3-11.1,4.3-11.3,10.2C62.4,65,67,70.1,72.6,70.5c6,0.4,11.1-4,11.5-10
	C84.6,54.6,80,49.4,74,49.1z"/>
<path class="st0" d="M81.1,110.9c-5,0.8-10.1,0.6-16.6,0c1.5-1.7,2.2-3.2,2.9-3.2c4.1-0.2,8.2-0.2,12.3,0c0.6,0,1.2,1.2,1.9,1.9
	C81.5,110.1,81.3,110.5,81.1,110.9z"/>
<path class="st0" d="M124,113.9c-1.3-2.1-2.6-3.3-2.7-4.6c-0.1-1.8,1.2-3,3.2-2.9c1.9,0.2,3.2,1.5,2.8,3.3
	C127.1,111,125.6,112,124,113.9z"/>
</svg>
