<?xml version="1.0" encoding="utf-8"?>
<!-- Generator: Adobe Illustrator 24.1.2, SVG Export Plug-In . SVG Version: 6.00 Build 0)  -->
<svg version="1.1" id="Layer_1" xmlns="http://www.w3.org/2000/svg" xmlns:xlink="http://www.w3.org/1999/xlink" x="0px" y="0px"
	 viewBox="0 0 247 82" style="enable-background:new 0 0 247 82;" xml:space="preserve">
<style type="text/css">
	.st0{fill:#698E43;}
	.st1{fill:url(#SVGID_1_);}
</style>
<path class="st0" d="M213.3,17l1.7-2L195.5,3.5l-1,6l10,19.2c-88,27.5-151.5,11-181.8-1.5l0.5-3.2L2.6,12.1v5
	c87.7,78.3,191.5,44,216.4,39.5l10.5,20.2l10.9-49L213.3,17z"/>
<linearGradient id="SVGID_1_" gradientUnits="userSpaceOnUse" x1="122.5479" y1="70.8756" x2="122.5479" y2="3.5126">
	<stop  offset="0" style="stop-color:#7AA84E"/>
	<stop  offset="1" style="stop-color:#89C459"/>
</linearGradient>
<path class="st1" d="M242.5,21.9l-47-18.3l10,19.2C79.3,62.2,2.6,12.1,2.6,12.1c87.7,78.3,192.5,43,217.4,38.5l10.5,20.2L242.5,21.9
	z"/>
</svg>
