<?xml version="1.0" encoding="utf-8"?>
<!-- Generator: Adobe Illustrator 24.1.2, SVG Export Plug-In . SVG Version: 6.00 Build 0)  -->
<svg version="1.1" id="Layer_1" xmlns="http://www.w3.org/2000/svg" xmlns:xlink="http://www.w3.org/1999/xlink" x="0px" y="0px"
	 viewBox="0 0 199 193" style="enable-background:new 0 0 199 193;" xml:space="preserve">
<style type="text/css">
	.st0{fill:#457E9B;}
	.st1{fill:#5CACCC;}
	.st2{fill:#A1D5E5;}
</style>
<path class="st0" d="M155.2-81.9C82.6-81.9,23.6-23,23.6,49.7s58.9,131.6,131.6,131.6s131.6-58.9,131.6-131.6S227.9-81.9,155.2-81.9
	z M155.2,126.4c-42.4,0-76.7-34.3-76.7-76.7S112.9-27,155.2-27s76.7,34.3,76.7,76.7S197.6,126.4,155.2,126.4z"/>
<path class="st1" d="M241.3-50.3c-52.5-50.3-135.8-48.5-186.1,4s-48.5,135.8,4,186.1s135.8,48.5,186.1-4S293.8-0.1,241.3-50.3z
	 M97.2,100.1C66.6,70.8,65.5,22.3,94.8-8.3s77.8-31.6,108.4-2.3s31.6,77.8,2.3,108.4S127.8,129.4,97.2,100.1z"/>
<path class="st2" d="M142.5-86.7l3.9,54.8c5.8-0.3,11.6,0.1,17.4,1.1l8.8-54.2C162.7-86.7,152.6-87.2,142.5-86.7z"/>
<path class="st2" d="M22.8,11.7l53.4,13C77.7,19,80,13.4,82.9,8l-49-25C29.1-7.8,25.4,1.8,22.8,11.7z"/>
<path class="st2" d="M80.9,156.6L110,110c-4.5-2.8-8.8-6.1-12.8-9.9c-0.5-0.5-1-1-1.5-1.5l-39.1,38.6c0.8,0.9,1.7,1.7,2.6,2.5
	C66,146.2,73.2,151.8,80.9,156.6z"/>
<path class="st2" d="M234.5,145.9L200,103.1c-4.6,4-9.6,7.3-14.9,9.9l23.7,49.6C217.8,158.1,226.5,152.5,234.5,145.9z"/>
<path class="st2" d="M273.2-2.4l-51.4,19.3c2.1,5.4,3.6,11.1,4.4,16.8l54.5-6.9C279.3,16.8,276.8,7.1,273.2-2.4z"/>
</svg>
