<?xml version="1.0" encoding="utf-8"?>
<!-- Generator: Adobe Illustrator 24.1.2, SVG Export Plug-In . SVG Version: 6.00 Build 0)  -->
<svg version="1.1" id="Layer_1" xmlns="http://www.w3.org/2000/svg" xmlns:xlink="http://www.w3.org/1999/xlink" x="0px" y="0px"
	 viewBox="0 0 248.5 159.4" style="enable-background:new 0 0 248.5 159.4;" xml:space="preserve">
<style type="text/css">
	.st0{opacity:0.4;}
	.st1{fill:#80E1FF;}
</style>
<g class="st0">
	<g>
		<g>
			<path class="st1" d="M169.9,126.7c4.5,3.5,9.2,7.4,10,8.6l-3.4,12.6l-15.5,0.9l-1-7.3l-0.1-0.4l-0.3-0.2l-4-3
				c1.2-2.1,4.1-7.6,4.6-9.4c0.5-0.8,4.6-1.2,6.4-1.4C168.1,127,169.2,126.9,169.9,126.7 M170.1,125.6c-1.3,0.8-10.3,0.6-10.9,2.7
				c-0.6,2.1-4.9,9.9-4.9,9.9l4.7,3.5l1.2,8.2l17.2-1c0,0,3.4-12.6,3.7-13.6S170.1,125.6,170.1,125.6L170.1,125.6z"/>
		</g>
		<g>
			<path class="st1" d="M183.2,137.3c2.9,0.1,8.6,0.3,10,0.7c0.6,0.1,0.5,2.4,0,4.6l-4.1,11.2l-9.2-4.4L183.2,137.3 M182.4,136.2
				l-3.7,13.6l11,5.2l4.4-12.3c0,0,1.4-5.2-0.7-5.8S182.4,136.2,182.4,136.2L182.4,136.2z"/>
		</g>
		<g>
			<path class="st1" d="M153.2,140.7l3.2,1.8l1,7.2c-3.4,3.3-7.1,6.8-8.8,8.3c-0.7-2-2.4-6.1-6.7-15.3
				C145,142.4,151.4,141.1,153.2,140.7 M153.3,139.7c0,0-10.6,2.2-12.7,2.2c-0.1,0-0.2,0-0.3,0c0,0,7.9,16.8,7.6,17.8v0.1
				c0.7,0,10.4-9.6,10.4-9.6l-1.2-8.2L153.3,139.7L153.3,139.7z"/>
		</g>
		<g>
			<path class="st1" d="M159.6,152.4l3.1,0.1l1,11.4l-3.8,4.3l-7.2-8.6L159.6,152.4 M159.2,151.4l-7.8,8l8.5,10.2l4.8-5.5l-1.1-12.7
				H159.2L159.2,151.4z"/>
		</g>
		<g>
			<path class="st1" d="M177.2,151.7l10.8,6l-0.6,2.1c-3,2.8-5.1,4.9-6.4,6.3c-0.2-1.6-0.5-3.9-0.7-6l-0.2-1.7l-1.4,1l-11,7.9v-14.1
				L177.2,151.7 M177.4,150.7l-10.6,1.7v16.9l12.6-9c0,0,0.8,8.3,1.1,8.3c0,0,0,0,0.1-0.1c0.3-1,7.8-8,7.8-8l0.8-3.1L177.4,150.7
				L177.4,150.7z"/>
		</g>
		<g>
			<path class="st1" d="M152.4,122.7l4.2,4.8l-4.7,9.9c-2.2,0.2-9.8,0.8-12.3,0.8c-0.1,0-0.2,0-0.3,0l-1.9-2.1l4.2-8L152.4,122.7
				 M152.6,121.5l-11.7,5.9l-4.6,8.9l2.6,2.9c0.1,0,0.4,0,0.8,0c3,0,12.9-0.9,12.9-0.9l5.2-11L152.6,121.5L152.6,121.5z"/>
		</g>
		<g>
			<path class="st1" d="M134.5,139.5l3.1,4.3l-2.6,6l-6.9,0.7l4.4-9.2L134.5,139.5 M134.6,138l-2.9,2.6l-5.2,11l9.2-0.9l3-7.1
				L134.6,138L134.6,138z"/>
		</g>
		<g>
			<path class="st1" d="M196.9,144.4l6.4,0.1l-7.2,9.9c-0.8-0.5-1.9-1.2-2.8-1.6C193.6,151.5,195.3,147.7,196.9,144.4 M196.3,143.4
				c0,0-4.9,9.9-3.9,10.2s3.9,2.2,3.9,2.2l8.9-12.2L196.3,143.4L196.3,143.4z"/>
		</g>
		<g>
			<path class="st1" d="M207.3,143.8l3.5,0.2l-0.5,2l-0.1,0.3l0.1,0.3l1.9,4.7l-2.3,5.7l-3.9-8L207.3,143.8 M206.6,142.7l-1.7,6.3
				l5.1,10.4l3.3-8.1l-2-5l0.8-3.1L206.6,142.7L206.6,142.7z"/>
		</g>
		<g>
			<path class="st1" d="M214.3,155.3c4.3,2.9,8.7,6.1,9.5,7.1c-0.1,0.5,0,1.2,0,2.3c0,0.9,0.1,2.5-0.1,3.2c-1.1,0.4-3.3,2.1-6.4,5.1
				l-1.3-3.3l1.9-7l0.2-0.8l-0.7-0.4l-4.2-2.1L214.3,155.3 M213.7,153.7L212,160l5,2.5l-2,7.3l2,5c0,0,5.9-5.9,7.2-5.9h0.1
				c0,0,0,0,0.1,0c0.9,0,0.3-5.6,0.6-6.6C225.2,161.3,213.7,153.7,213.7,153.7L213.7,153.7z"/>
		</g>
		<g>
			<path class="st1" d="M239.7,170.5c0.5,1.1,1.1,2.2,1.7,2.8c-0.6,1.5-3.3,5.6-4.5,6.8c-0.5-0.9-1.3-2.9-1.8-4.9L239.7,170.5
				 M240.1,168.7l-6.2,6.2c0,0,1.7,6.1,2.8,6.4c0,0,0,0,0.1,0c1.2,0,6.7-8.3,5.6-8.6C241.4,172.4,240.1,168.7,240.1,168.7
				L240.1,168.7z"/>
		</g>
		<g>
			<path class="st1" d="M223.9,172.3l6.8,4.2l-2.1,0.4l-7.5-2L223.9,172.3 M223.7,171l-4.6,4.4l9.4,2.5l4.8-1L223.7,171L223.7,171z"
				/>
		</g>
		<g>
			<path class="st1" d="M132.2,154.4c-0.6,1.5-1,3-1.4,4.5c-1.5,5.6-2.1,11.3-1.7,17.1l0.1,1l1-0.1c0.6-0.1,1.1-0.1,1.7-0.1
				c1.6,0,3,0.3,4.2,0.9c1.8,0.9,2.6,2.1,3.6,3.4c1.2,1.6,2.5,3.5,5.5,4.7c1.9,0.7,3.4,0.8,4.7,0.8c0.4,0,0.8,0,1.3,0
				c0.4,0,0.8,0,1.1,0c1.6,0,2.9,0.2,4.5,1.2c1.4,0.8,3.9,2.9,3.7,4.6c-0.1,1.1-1.5,1.9-2.9,2.6c-1.5,0.9-3.3,1.9-3.3,3.7
				c0,1.5,1.1,2.3,2.2,3.1c1.1,0.8,2.2,1.6,3.1,3.3c1.1,2.2,1.5,5.4,0.3,6.8c-0.7,0.7-1.7,0.9-2.6,1c-1,0.1-2.2,0.3-2.6,1.4
				c-0.5,1.4,0.7,2.3,2.1,3.5c0.6,0.5,1.3,1.1,1.9,1.7l0.1,0.1l0.2,0.1c2.8,1.3,5.6,2.3,8.4,3.1c4.4,1.2,9,1.8,13.5,1.8
				c3.1,0,6.3-0.3,9.4-0.9l0.4-0.1l0.2-0.4c0.2-0.3,0.4-0.5,0.5-0.8c1.3-1.6,3-2.2,4.5-2.8c1.7-0.6,3.4-1.3,3.9-3.2
				c0.6-2.1-0.7-3.9-1.9-5.6c-0.9-1.2-1.7-2.3-1.4-3.1c0.2-0.5,0.9-0.7,2.3-0.9c1.6-0.3,3.6-0.6,5.2-2.3c1.8-2,1.8-4.3,1.7-6.3
				c0-2,0-3.2,1-4.1c0.4-0.4,0.7-0.5,1.9-0.5c0.2,0,0.5,0,0.7,0c0.3,0,0.7,0,1.1,0c1,0,2.6,0,4.9-0.2c1.8-0.1,3.1-0.3,4.2-0.4
				c0.9-0.1,1.6-0.2,2.1-0.2s0.7,0.1,0.8,0.3c0.4,0.4,0.7,1.2,0.7,2.2c0,1.8-0.7,3.9-1.9,5.1c-0.9,0.9-1.8,1.2-2.8,1.5
				c-1.2,0.4-2.7,0.8-3.9,2.4c-1.2,1.5-2.4,4.1-1.6,6.2c0.1,0.4,0.3,0.7,0.6,1l0.7,0.8l0.8-0.7c7.8-6.8,13.3-15.7,16-25.6
				c0.4-1.5,0.8-3.2,1-4.8l2.1,1.6c-0.3,1.4-0.5,2.6-0.9,3.8c-2.6,9.7-7.9,18.5-15.2,25.4c-0.8,0.7-1.7,1.5-2.6,2.3l-0.2,0.2
				c-0.2,0.1-0.3,0.3-0.5,0.4c-0.4,0.3-0.7,0.6-1.1,0.8c-0.3,0.2-0.5,0.4-0.8,0.6c-0.4,0.3-0.7,0.5-1.1,0.8
				c-0.2,0.2-0.5,0.3-0.7,0.5l-0.1,0.1l-0.1,0.1c-0.3,0.2-0.7,0.4-1,0.6c-0.2,0.1-0.4,0.2-0.5,0.3l-0.3,0.2
				c-0.7,0.4-1.4,0.8-2.1,1.2l-0.2,0.1c-0.2,0.1-0.5,0.3-0.7,0.4c-0.3,0.2-0.7,0.4-1.1,0.5h-0.1c-0.3,0.2-0.7,0.3-1,0.5
				c-0.4,0.2-0.8,0.4-1.1,0.5c-0.3,0.2-0.7,0.3-1,0.4l-0.2,0.1c-0.3,0.1-0.6,0.3-1,0.4c-0.3,0.1-0.7,0.3-1,0.4l-0.2,0.1
				c-0.6,0.2-1.1,0.4-1.7,0.6h-0.1c-0.4,0.1-0.9,0.3-1.3,0.4c-0.3,0.1-0.6,0.2-0.9,0.2l-0.2,0.1c-0.4,0.1-0.8,0.2-1.2,0.3
				s-0.8,0.2-1.1,0.3c-0.4,0.1-0.8,0.2-1.2,0.3h-0.1c-0.4,0.1-0.7,0.1-1.1,0.2c-0.4,0.1-0.9,0.1-1.4,0.2c-2.7,0.4-5.5,0.6-8.3,0.6
				c-4.8,0-9.5-0.6-14.1-1.9c-2.1-0.6-4.1-1.3-6.3-2.1l0,0l0,0c-1.8-0.7-3.6-1.6-5.3-2.5l-0.5,0.9l0.4-0.9c-2.3-1.2-4.4-2.6-6.5-4.1
				h-0.1l-0.1-0.1c-2-1.5-3.9-3.1-5.7-4.9l-0.3-0.3c-1.2-1.2-2.4-2.6-3.6-3.9l-0.1-0.1l-0.1-0.2c-0.3-0.4-0.7-0.9-1-1.3l-0.2-0.3
				l-0.1-0.1c-1-1.3-1.9-2.7-2.8-4.2l-0.1-0.1c-0.1-0.1-0.2-0.3-0.3-0.4c-0.3-0.4-0.5-0.9-0.8-1.3c-0.1-0.1-0.1-0.3-0.2-0.4
				l-0.1-0.2c-0.5-0.9-1-1.8-1.4-2.7l-0.1-0.2l-0.1-0.2c-0.2-0.4-0.4-0.9-0.6-1.3c-0.1-0.2-0.2-0.5-0.3-0.7
				c-0.2-0.4-0.4-0.9-0.5-1.3c-0.1-0.1-0.1-0.3-0.2-0.5l-0.1-0.2c-0.3-0.8-0.6-1.6-0.8-2.5l-0.1-0.2c-0.1-0.2-0.1-0.3-0.2-0.5
				c-0.1-0.4-0.3-0.9-0.4-1.3c-0.1-0.3-0.2-0.6-0.2-0.9c-0.1-0.4-0.2-0.9-0.3-1.3c0-0.2-0.1-0.3-0.1-0.5l-0.1-0.3
				c-0.2-0.8-0.3-1.6-0.5-2.5V181c0-0.2-0.1-0.5-0.1-0.7c-0.1-0.4-0.1-0.9-0.2-1.3c0-0.3-0.1-0.6-0.1-0.9v-0.2
				c0-0.4-0.1-0.8-0.1-1.2c-0.5-6.2,0.1-12.5,1.7-18.6c0.3-1.2,0.7-2.4,1.1-3.7L132.2,154.4 M133.7,153.3l-4.8,0.4
				c-0.5,1.4-1,2.9-1.4,4.4c-1.7,6.3-2.2,12.7-1.7,18.9l0,0c0,0.5,0.1,0.9,0.1,1.4c0,0.3,0.1,0.6,0.1,0.9c0.1,0.5,0.1,0.9,0.2,1.4
				c0,0.3,0.1,0.6,0.1,0.9c0.1,0.8,0.3,1.7,0.5,2.5c0.1,0.3,0.1,0.5,0.2,0.8c0.1,0.5,0.2,0.9,0.3,1.4c0.1,0.3,0.2,0.6,0.2,0.9
				c0.1,0.5,0.3,0.9,0.4,1.4c0.1,0.3,0.2,0.5,0.2,0.8c0.3,0.8,0.6,1.7,0.9,2.5c0.1,0.2,0.2,0.5,0.3,0.7c0.2,0.5,0.4,0.9,0.5,1.3
				c0.1,0.2,0.2,0.5,0.3,0.7c0.2,0.5,0.4,0.9,0.6,1.4c0,0.1,0.1,0.2,0.2,0.3c0.4,0.9,0.9,1.9,1.4,2.8c0.1,0.2,0.2,0.4,0.3,0.6
				c0.3,0.4,0.5,0.9,0.8,1.3c0.1,0.2,0.2,0.4,0.3,0.6c0.9,1.5,1.8,2.9,2.9,4.2c0.1,0.1,0.2,0.3,0.3,0.4c0.3,0.4,0.7,0.9,1,1.3
				c0.1,0.1,0.2,0.2,0.2,0.3c1.1,1.4,2.3,2.7,3.6,4c0.1,0.1,0.2,0.2,0.3,0.3c1.8,1.8,3.7,3.4,5.8,5c0.1,0,0.1,0.1,0.2,0.1
				c2.1,1.5,4.3,3,6.6,4.2h0.1c1.7,0.9,3.5,1.8,5.4,2.5h0.1c2.1,0.8,4.2,1.6,6.4,2.2c4.8,1.3,9.6,1.9,14.4,1.9
				c2.9,0,5.7-0.2,8.5-0.7c0.5-0.1,0.9-0.1,1.4-0.2c0.4-0.1,0.8-0.1,1.2-0.2c0.4-0.1,0.8-0.2,1.2-0.3s0.8-0.2,1.2-0.3
				s0.8-0.2,1.2-0.3s0.8-0.2,1.1-0.3c0.5-0.1,0.9-0.3,1.4-0.4c0.6-0.2,1.2-0.4,1.8-0.6c0.4-0.2,0.8-0.3,1.2-0.5s0.8-0.3,1.2-0.5
				c0.4-0.1,0.7-0.3,1.1-0.5c0.4-0.2,0.8-0.3,1.2-0.5c0.3-0.2,0.7-0.3,1-0.5c0.4-0.2,0.8-0.4,1.2-0.6c0.3-0.2,0.6-0.3,1-0.5
				c0.7-0.4,1.4-0.8,2.1-1.2c0.3-0.2,0.6-0.3,0.8-0.5c0.4-0.2,0.8-0.5,1.2-0.8c0.3-0.2,0.6-0.4,0.8-0.6c0.4-0.3,0.8-0.5,1.1-0.8
				c0.3-0.2,0.5-0.4,0.8-0.6c0.4-0.3,0.7-0.6,1.1-0.9c0.2-0.2,0.5-0.4,0.7-0.6c0.9-0.8,1.8-1.5,2.7-2.4l0,0
				c7.2-6.8,12.7-15.6,15.5-25.9c0.4-1.5,0.7-3,1-4.5l-3.9-3.1l0,0c-0.3,2.1-0.7,4.3-1.3,6.4c-2.7,10.1-8.3,18.7-15.7,25.1
				c-0.2-0.2-0.3-0.5-0.5-0.8c-0.7-1.8,0.5-4.1,1.4-5.2c2.1-2.6,4.5-1.6,6.7-3.8c2.4-2.4,2.9-7,1.2-8.7c-0.4-0.4-0.8-0.5-1.5-0.5
				c-1.1,0-2.9,0.4-6.4,0.7c-2.1,0.2-3.7,0.2-4.8,0.2c-0.7,0-1.3,0-1.8,0c-1.3,0-1.9,0.1-2.6,0.7c-2.9,2.5,0.2,7.2-2.8,10.5
				c-2.6,2.8-6.8,1.3-7.7,3.6c-1.1,2.6,4.2,5.5,3.3,8.8c-0.8,2.8-5.2,2-8.3,5.7c-0.2,0.3-0.4,0.6-0.6,0.9c-3,0.6-6.1,0.8-9.2,0.8
				c-4.4,0-8.8-0.6-13.3-1.8c-2.9-0.8-5.7-1.8-8.3-3c-2-2-4.2-3.1-3.9-4.2c0.4-1.2,3.4-0.2,5-2c1.7-1.8,1.1-5.5-0.1-7.9
				c-1.9-3.7-5.2-3.9-5.2-5.9c0.1-2.6,5.8-3.1,6.2-6.2c0.4-2.8-3.7-5.4-4.1-5.6c-1.9-1.2-3.5-1.4-5.1-1.4c-0.8,0-1.6,0-2.4,0
				c-1.3,0-2.7-0.1-4.4-0.7c-5.2-2-4.7-6-9.1-8.1c-1.4-0.7-3-1-4.7-1c-0.6,0-1.2,0-1.8,0.1c-0.4-5.5,0.1-11.1,1.6-16.7
				C132.3,157.2,133,155.2,133.7,153.3L133.7,153.3z"/>
		</g>
		<g>
			<path class="st1" d="M161.7,115.5c2.9,2.4,5.9,4.4,9,6l-0.5,1.9l-10.7,2.2l-4.3-4.9l3.1-4.7L161.7,115.5 M162,114.5l-4.3,0.5
				l-3.8,5.7l5.2,5.9l11.9-2.4l0.9-3.2C168.2,119.1,164.9,116.9,162,114.5L162,114.5z"/>
		</g>
		<g>
			<path class="st1" d="M173.6,122.8c1.7,0.7,3.3,1.3,5,1.7c0.7,0.2,1.4,0.3,2,0.5c0.9,0.2,1.8,0.4,2.7,0.6l-2.5,5.3l-7.6-6.8
				L173.6,122.8 M172.9,121.4l-0.8,3.1l9.1,8.1l3.6-7.7c-1.3-0.3-2.6-0.6-3.9-0.9c-0.7-0.1-1.3-0.3-2-0.5
				C176.8,123,174.8,122.2,172.9,121.4L172.9,121.4z"/>
		</g>
		<g>
			<path class="st1" d="M187.1,126.4c3.2,0.7,6.1,1.5,8.9,2.2c-1.1,2.3-2.1,4.3-2.6,5.3l-9-0.6L187.1,126.4 M186.5,125.2l-3.5,8.9
				l11.1,0.7c0,0,1.7-3.3,3.4-7C194.1,127,190.5,126.1,186.5,125.2L186.5,125.2z"/>
		</g>
		<g>
			<path class="st1" d="M200.2,129.7c5.1,1.4,9.5,2.9,13.2,4.3v0.6l-1.5,5.5l-14.4,1.2l-0.5-4.6
				C197.3,135.8,198.7,132.9,200.2,129.7 M199.7,128.5c-1.9,4.1-3.8,8-3.8,8l0.7,5.8l16.1-1.3l1.7-6.3v-1.4
				C210.8,131.9,206,130.3,199.7,128.5L199.7,128.5z"/>
		</g>
		<g>
			<path class="st1" d="M217.5,135.8c5.4,2.6,6.7,4.4,7,5c1.7,3.7,2.7,9.1,3.3,13.2l-5.1,3.1l-7.5-6.1l-0.9-4.2l1.7-10.1
				L217.5,135.8 M217.5,134.7l-2.4,1.4l-1.8,10.8l1,4.8l8.3,6.7l6.2-3.8c-0.6-4.4-1.6-10.2-3.4-14.1
				C225,139.4,223.3,137.4,217.5,134.7L217.5,134.7z"/>
		</g>
		<g>
			<path class="st1" d="M228.3,158c0.2,1.7,0.2,2.7,0.2,2.7l0.2,3.2l0.1,1h1l3.2-0.1c0.6,0,3.3-0.2,5.9-1.8l1,2.3l-7.1,8l-5.6-3.4
				l0.2-8.4v-0.3l-0.1-0.2l-1-1.8L228.3,158 M229.1,156.4c-2.3,1.3-4.4,2.5-4.4,2.5l1.5,2.7l-0.2,9l6.8,4.1l8.1-9.1l-1.8-4
				c-2.6,2.1-5.9,2.3-6.4,2.3l-3.2,0.1l-0.2-3.2C229.5,160.6,229.4,158.9,229.1,156.4L229.1,156.4z"/>
		</g>
	</g>
	<g>
		<path class="st1" d="M169.7,81.4L169.7,81.4c-0.1,0.5-0.1,1.4,1.1,2.2c0.6,0.4,1.5,0.8,2.4,1c0.8,0.2,1.6,0.3,2.3,0.3
			c1.7,0,2.2-0.7,2.4-1.2c0-0.1,0-0.2,0-0.4c1.8,0.9,2.3,1.7,2.3,1.7v0.1l0.1,0.1c0.5,0.6,1.5,2.2,1.2,3c-0.1,0.3-0.8,1.1-3.8,1.1
			c-0.1,0-0.2,0-0.3,0c-8.5-0.2-9.9-5.8-10.1-6.6c0-0.1,0.1-0.4,0.4-0.7C168,81.7,168.7,81.5,169.7,81.4 M170.1,80.4
			c-3.9,0-3.9,2.4-3.9,2.4s1.1,7.4,11.1,7.5c0.1,0,0.2,0,0.4,0c8.5,0,3.4-5.7,3.4-5.7s-1.5-2.7-8.5-4
			C171.6,80.5,170.8,80.4,170.1,80.4L170.1,80.4z M175.5,84c-0.6,0-1.3-0.1-2-0.3c-1.7-0.5-3-1.3-2.9-1.9c0.1-0.3,0.6-0.5,1.4-0.5
			c0.6,0,1.3,0.1,2,0.3c1.7,0.5,3,1.3,2.9,1.9C176.8,83.9,176.3,84,175.5,84L175.5,84z"/>
	</g>
	<g>
		<path class="st1" d="M152.7,81.5c2.9,0,5.6,2.4,5.6,2.4l0.3,0.3l0.5-0.1c0,0,2-0.3,5.2-0.3c0.5,1.8,2.3,6.4,8.5,8
			c1.4,0.4,2.9,0.6,4.5,0.6c0.1,0,0.3,0,0.4,0c3.6,0,5.7-0.9,6.6-2.9c0.5-1,0.5-2.2,0.1-3.4c0,0,0,0,0.1,0l3.4,6
			c0,0,2.5,4.5,1.2,8.2c-0.6,1.8-2.1,3.2-4.4,4c-5.8,2.2-10.1,2.7-12.7,2.7c-1.3,0-2.1-0.1-2.1-0.1l-0.4,1.9c0.2,0,3.8,1,8.3,1
			c5.2,0,9.4-1.3,12.4-3.7c2.1-1.8,3.3-3.8,3.4-6.2c0.2-4.8-3.9-8.8-4.1-9l-4.9-4.8c4.3,1.1,8.5,2.7,12.4,4.5
			c-0.8,0.7-2,1.8-3.5,3.4c-0.5,0.5-0.3,1-0.3,1.2l0.3,0.6h0.7c0.4,0,0.6-0.1,2.4-1.1c2-1.1,4.9-2.7,7-3.4c0.8-0.3,1.9-0.4,3.1-0.4
			c3,0,5.9,0.9,7.2,2.2c0.5,0.5,0.8,1.1,0.7,1.7c0,0.2,0,0.4-0.1,0.6v0.1v0.1v0.1c0,0.1,0,0.1-0.1,0.2c0,0.1-0.1,0.2-0.1,0.3v0.1
			v0.1c-0.1,0.1-0.1,0.2-0.2,0.3l-0.1,0.1l0,0c-0.1,0.1-0.2,0.2-0.4,0.3l0,0l0,0l0,0c-0.2,0.1-0.3,0.2-0.5,0.3H213
			c-0.2,0.1-0.4,0.2-0.7,0.3c-0.3,0.1-0.5,0.2-0.8,0.2c-0.9,0.2-2,0.3-3.3,0.3c-3.1,0-7.1-0.7-11.9-1.9l-0.6,1.9
			c8.7,3.5,14.7,4.3,18.2,4.3c0.1,0,0.2,0,0.3,0c14.3,14.5,19,33.2,19.1,33.4l0.1,0.3l0.3,0.2c8.7,6.8,10.2,11.5,10.4,12.9
			c-0.2,0.1-0.5,0.2-0.7,0.2c-2,0-4.7-2.6-5.6-3.6l-1.6,1.2c2.4,4.2,3.1,7.6,2,9.6c-0.9,1.6-2.7,2.2-3.9,2.4
			c-0.3-3.4-1.3-14.1-4.4-20.7c-3-6.5-18.1-12.5-47.6-18.8c-19.5-4.2-29.6-24.3-29.7-24.5l-0.3-0.5h-0.6c-0.8,0-1.2-0.4-1.4-0.6
			c-0.7-0.9-0.6-2.6-0.5-4l0.8-1.7c0.1-0.1,0.9-0.7,3.4-0.7c2.1,0,4.7,0.4,7.9,1.1l3.1,0.7l-2.1-2.3c-0.2-0.2-4.1-4.4-9.1-4.4
			c-0.7,0-1.4,0.1-2.1,0.3c-1.3,0.3-2.2,1-2.7,1.9c-0.1,0.2-0.2,0.5-0.3,0.7c0-0.2,0-0.3,0-0.5c0-0.9,0.6-1.8,1.7-2.7
			C150.7,81.8,151.6,81.5,152.7,81.5 M152.7,80.5c-1.1,0-2.3,0.3-3.4,1.2c-4.3,3.4-0.6,6.6-0.6,6.6s-2,7.3,2.5,7.4
			c0,0,10.2,20.8,30.4,25.1c20.2,4.3,43.3,10.5,46.9,18.3s4.4,21.4,4.4,21.4s11.3-0.3,3.7-13.6c0,0,3.5,4,6.4,4
			c0.6,0,1.2-0.2,1.8-0.7c0,0,0.4-5.5-10.8-14.2c0,0-4.7-19.3-19.6-34.2c-0.2,0-0.4,0-0.7,0c-3.3,0-9.1-0.7-17.8-4.2
			c5.1,1.4,9.1,2,12.2,2c1.4,0,2.6-0.1,3.5-0.4c0.3-0.1,0.6-0.2,0.9-0.3l0,0c0.3-0.1,0.5-0.2,0.8-0.3h0.1c0.2-0.1,0.4-0.2,0.6-0.4
			l0.1-0.1c0.2-0.1,0.3-0.3,0.5-0.4l0.1-0.1c0.1-0.1,0.2-0.3,0.3-0.4s0.1-0.2,0.1-0.2c0.1-0.1,0.1-0.3,0.2-0.4
			c0-0.1,0.1-0.3,0.1-0.4s0.1-0.2,0.1-0.3c0-0.2,0.1-0.5,0.1-0.8c0.1-3.4-4.9-4.9-8.9-4.9c-1.3,0-2.5,0.2-3.4,0.5
			c-3.4,1.1-8.7,4.4-9.1,4.4c0,0,0,0,0-0.1c2.4-2.5,3.9-3.7,4.6-4.3c-5.5-2.8-11.1-4.7-16.2-5.8c0.7,1,1.6,2.8,0.9,4.4
			c-0.7,1.5-2.6,2.3-5.7,2.3c-0.1,0-0.2,0-0.4,0c-1.5,0-2.9-0.2-4.2-0.6c-7-1.9-7.9-7.7-7.9-7.9V83v-0.1l0,0c-3.8,0-6.2,0.4-6.2,0.4
			S156,80.5,152.7,80.5L152.7,80.5z M149.3,87.9c0,0-1.2-3.1,2.2-3.9c0.6-0.2,1.2-0.2,1.8-0.2c4.6,0,8.4,4.1,8.4,4.1
			c-3.7-0.8-6.3-1.1-8.1-1.1C149.8,86.8,149.3,87.9,149.3,87.9L149.3,87.9z M172,108.2c2.5,0,7-0.4,13.1-2.8
			c9.4-3.7,3.7-13.6,3.7-13.6s8,7.8,0.8,13.7c-3.4,2.8-7.9,3.5-11.8,3.5c-4.4,0-8-1-8-1S170.5,108.2,172,108.2L172,108.2z"/>
	</g>
	<g>
		<path class="st1" d="M219.5,98.3c0.2,0.2,0.4,0.4,0.5,0.5c2.1,2.2,3.2,4.2,3.1,5.9c0,0.9-0.3,1.7-0.9,2.5c-1.6-2-3.3-3.9-5.1-5.7
			C218.4,100.7,219.2,99.6,219.5,98.3 M218.7,96.3c0.1,1.7-0.4,3.8-3.2,5c2.5,2.4,4.7,5,6.6,7.5c2.2-2,3.6-5.5-1.4-10.6
			C220.2,97.5,219.4,96.9,218.7,96.3L218.7,96.3z"/>
	</g>
</g>
<g class="st0">
	<g>
		<g>
			<path class="st1" d="M51.6,49.4c4.5,3.5,9.2,7.4,10,8.6l-3.4,12.6l-15.5,0.9l-1-7.3l-0.1-0.4l-0.3-0.2l-4-3
				c1.2-2.1,4.1-7.6,4.6-9.4c0.5-0.8,4.6-1.2,6.4-1.4C49.9,49.7,50.9,49.6,51.6,49.4 M51.8,48.3C50.5,49,41.5,48.9,40.9,51
				S36,60.9,36,60.9l4.7,3.5l1.2,8.2l17.2-1c0,0,3.4-12.6,3.7-13.6C63,56.9,51.8,48.3,51.8,48.3L51.8,48.3z"/>
		</g>
		<g>
			<path class="st1" d="M64.9,59.9c2.9,0.1,8.6,0.3,10,0.7c0.6,0.1,0.5,2.4,0,4.6l-4.1,11.2L61.6,72L64.9,59.9 M64.1,58.9l-3.7,13.6
				l11,5.2l4.4-12.3c0,0,1.4-5.2-0.7-5.8S64.1,58.9,64.1,58.9L64.1,58.9z"/>
		</g>
		<g>
			<path class="st1" d="M34.9,63.4l3.2,1.8l1,7.2c-3.4,3.3-7.1,6.8-8.8,8.3c-0.7-2-2.4-6.1-6.7-15.3C26.7,65,33.1,63.8,34.9,63.4
				 M35.1,62.3c0,0-10.6,2.2-12.7,2.2c-0.1,0-0.2,0-0.3,0c0,0,7.9,16.8,7.6,17.8v0.1c0.7,0,10.4-9.6,10.4-9.6L39,64.5L35.1,62.3
				L35.1,62.3z"/>
		</g>
		<g>
			<path class="st1" d="M41.3,75.1l3.1,0.1l1,11.4l-3.8,4.3l-7.2-8.6L41.3,75.1 M40.9,74l-7.8,8l8.5,10.2l4.8-5.5L45.3,74H40.9
				L40.9,74z"/>
		</g>
		<g>
			<path class="st1" d="M58.9,74.4l10.8,6l-0.6,2.1c-3,2.8-5.1,4.9-6.4,6.3c-0.2-1.6-0.5-3.9-0.7-6L61.9,81l-1.4,1l-11,7.9V75.8
				L58.9,74.4 M59.1,73.3L48.5,75v16.9l12.6-9c0,0,0.8,8.3,1.1,8.3c0,0,0,0,0.1-0.1c0.3-1,7.8-8,7.8-8l0.8-3.1L59.1,73.3L59.1,73.3z
				"/>
		</g>
		<g>
			<path class="st1" d="M34.1,45.4l4.2,4.8l-4.7,9.9c-2.2,0.2-9.8,0.8-12.3,0.8c-0.1,0-0.2,0-0.3,0l-1.9-2.1l4.2-8L34.1,45.4
				 M34.3,44.1L22.6,50L18,58.9l2.6,2.9c0.1,0,0.4,0,0.8,0c3,0,12.9-0.9,12.9-0.9l5.2-11L34.3,44.1L34.3,44.1z"/>
		</g>
		<g>
			<path class="st1" d="M16.2,62.2l3.1,4.3l-2.6,6l-6.9,0.7l4.4-9.2L16.2,62.2 M16.4,60.7l-2.9,2.6l-5.2,11l9.2-0.9l3-7.1L16.4,60.7
				L16.4,60.7z"/>
		</g>
		<g>
			<path class="st1" d="M78.6,67l6.4,0.1L77.8,77c-0.8-0.5-1.9-1.2-2.8-1.6C75.3,74.1,77,70.3,78.6,67 M78,66c0,0-4.9,9.9-3.9,10.2
				c1,0.3,3.9,2.2,3.9,2.2l8.9-12.2L78,66L78,66z"/>
		</g>
		<g>
			<path class="st1" d="M89,66.5l3.5,0.2l-0.5,2L91.9,69l0.1,0.3l1.9,4.7l-2.3,5.7l-3.9-8L89,66.5 M88.3,65.4l-1.7,6.3l5.1,10.4
				L95,74l-2-5l0.8-3.1L88.3,65.4L88.3,65.4z"/>
		</g>
		<g>
			<path class="st1" d="M96.1,78c4.3,2.9,8.7,6.1,9.5,7.1c-0.1,0.5,0,1.2,0,2.3c0,0.9,0.1,2.5-0.1,3.2c-1.1,0.4-3.3,2.1-6.4,5.1
				l-1.3-3.3l1.9-7l0.2-0.8l-0.7-0.4L95,82.1L96.1,78 M95.5,76.4l-1.7,6.3l5,2.5l-2,7.3l2,5c0,0,5.9-5.9,7.2-5.9h0.1c0,0,0,0,0.1,0
				c0.9,0,0.3-5.6,0.6-6.6C106.9,83.9,95.5,76.4,95.5,76.4L95.5,76.4z"/>
		</g>
		<g>
			<path class="st1" d="M121.4,93.1c0.5,1.1,1.1,2.2,1.7,2.8c-0.6,1.5-3.3,5.6-4.5,6.8c-0.5-0.9-1.3-2.9-1.8-4.9L121.4,93.1
				 M121.8,91.3l-6.2,6.2c0,0,1.7,6.1,2.8,6.4c0,0,0,0,0.1,0c1.2,0,6.7-8.3,5.6-8.6C123.1,95,121.8,91.3,121.8,91.3L121.8,91.3z"/>
		</g>
		<g>
			<path class="st1" d="M105.6,94.9l6.8,4.2l-2.1,0.4l-7.5-2L105.6,94.9 M105.4,93.7l-4.6,4.4l9.4,2.5l4.8-1L105.4,93.7L105.4,93.7z
				"/>
		</g>
		<g>
			<path class="st1" d="M14,77.1c-0.6,1.5-1,3-1.4,4.5c-1.5,5.6-2.1,11.3-1.7,17.1l0.1,1l1-0.1c0.6-0.1,1.1-0.1,1.7-0.1
				c1.6,0,3,0.3,4.2,0.9c1.8,0.9,2.6,2.1,3.6,3.4c1.2,1.6,2.5,3.5,5.5,4.7c1.9,0.7,3.4,0.8,4.7,0.8c0.4,0,0.8,0,1.3,0
				c0.4,0,0.8,0,1.1,0c1.6,0,2.9,0.2,4.5,1.2c1.4,0.8,3.9,2.9,3.7,4.6c-0.1,1.1-1.5,1.9-2.9,2.6c-1.5,0.9-3.3,1.9-3.3,3.7
				c0,1.5,1.1,2.3,2.2,3.1c1.1,0.8,2.2,1.6,3.1,3.3c1.1,2.2,1.5,5.4,0.3,6.8c-0.7,0.7-1.7,0.9-2.6,1c-1,0.1-2.2,0.3-2.6,1.4
				c-0.5,1.4,0.7,2.3,2.1,3.5c0.6,0.5,1.3,1.1,1.9,1.7l0.1,0.1l0.2,0.1c2.8,1.3,5.6,2.3,8.4,3.1c4.4,1.2,9,1.8,13.5,1.8
				c3.1,0,6.3-0.3,9.4-0.9l0.4-0.1l0.2-0.4c0.2-0.3,0.4-0.5,0.5-0.8c1.3-1.6,3-2.2,4.5-2.8c1.7-0.6,3.4-1.3,3.9-3.2
				c0.6-2.1-0.7-3.9-1.9-5.6c-0.9-1.2-1.7-2.3-1.4-3.1c0.2-0.5,0.9-0.7,2.3-0.9c1.6-0.3,3.6-0.6,5.2-2.3c1.8-2,1.8-4.3,1.7-6.3
				c0-2,0-3.2,1-4.1c0.4-0.4,0.7-0.5,1.9-0.5c0.2,0,0.5,0,0.7,0c0.3,0,0.7,0,1.1,0c1,0,2.6,0,4.9-0.2c1.8-0.1,3.1-0.3,4.2-0.4
				c0.9-0.1,1.6-0.2,2.1-0.2s0.7,0.1,0.8,0.3c0.4,0.4,0.7,1.2,0.7,2.2c0,1.8-0.7,3.9-1.9,5.1c-0.9,0.9-1.8,1.2-2.8,1.5
				c-1.2,0.4-2.7,0.8-3.9,2.4c-1.2,1.5-2.4,4.1-1.6,6.2c0.1,0.4,0.3,0.7,0.6,1L96,135l0.8-0.7c7.8-6.8,13.3-15.7,16-25.6
				c0.4-1.5,0.8-3.2,1-4.8l2.1,1.6c-0.3,1.4-0.5,2.6-0.9,3.8c-2.6,9.7-7.9,18.5-15.2,25.4c-0.8,0.7-1.7,1.5-2.6,2.3l-0.2,0.2
				c-0.2,0.1-0.3,0.3-0.5,0.4c-0.4,0.3-0.7,0.6-1.1,0.8c-0.3,0.2-0.5,0.4-0.8,0.6c-0.4,0.3-0.7,0.5-1.1,0.8
				c-0.2,0.2-0.5,0.3-0.7,0.5l-0.1,0.1l-0.1,0.1c-0.3,0.2-0.7,0.4-1,0.6c-0.2,0.1-0.4,0.2-0.5,0.3l-0.3,0.2
				c-0.7,0.4-1.4,0.8-2.1,1.2l-0.2,0.1c-0.2,0.1-0.5,0.3-0.7,0.4c-0.3,0.2-0.7,0.4-1.1,0.5h-0.1c-0.3,0.2-0.7,0.3-1,0.5
				c-0.4,0.2-0.8,0.4-1.1,0.5c-0.3,0.2-0.7,0.3-1,0.4l-0.2,0.1c-0.3,0.1-0.6,0.3-1,0.4c-0.3,0.1-0.7,0.3-1,0.4l-0.2,0.1
				c-0.6,0.2-1.1,0.4-1.7,0.6h-0.1c-0.4,0.1-0.9,0.3-1.3,0.4c-0.3,0.1-0.6,0.2-0.9,0.2l-0.2,0.1c-0.4,0.1-0.8,0.2-1.2,0.3
				c-0.4,0.1-0.8,0.2-1.1,0.3c-0.4,0.1-0.8,0.2-1.2,0.3h-0.1c-0.4,0.1-0.7,0.1-1.1,0.2c-0.4,0.1-0.9,0.1-1.4,0.2
				c-2.7,0.4-5.5,0.6-8.3,0.6c-4.8,0-9.5-0.6-14.1-1.9c-2.1-0.6-4.1-1.3-6.3-2.1l0,0l0,0c-1.8-0.7-3.6-1.6-5.3-2.5l-0.5,0.9l0.4-0.9
				c-2.3-1.2-4.4-2.6-6.5-4.1h-0.1l-0.1-0.1c-2-1.5-3.9-3.1-5.7-4.9l-0.3-0.3c-1.2-1.2-2.4-2.6-3.6-3.9l-0.1-0.1l-0.1-0.2
				c-0.3-0.4-0.7-0.9-1-1.3l-0.2-0.3l-0.1-0.1c-1-1.3-1.9-2.7-2.8-4.2l-0.1-0.1c-0.1-0.1-0.2-0.3-0.3-0.4c-0.3-0.4-0.5-0.9-0.8-1.3
				c-0.1-0.1-0.1-0.3-0.2-0.4l-0.1-0.2c-0.5-0.9-1-1.8-1.4-2.7l-0.1-0.2l-0.1-0.2c-0.2-0.4-0.4-0.9-0.6-1.3
				c-0.1-0.2-0.2-0.5-0.3-0.7c-0.2-0.4-0.4-0.9-0.5-1.3c-0.1-0.1-0.1-0.3-0.2-0.5l-0.1-0.2c-0.3-0.8-0.6-1.6-0.8-2.5l-0.1-0.2
				c-0.1-0.2-0.1-0.3-0.2-0.5c-0.1-0.4-0.3-0.9-0.4-1.3c-0.1-0.3-0.2-0.6-0.2-0.9c-0.1-0.4-0.2-0.9-0.3-1.3c0-0.2-0.1-0.3-0.1-0.5
				l-0.1-0.3c-0.2-0.8-0.3-1.6-0.5-2.5v-0.2c0-0.2-0.1-0.5-0.1-0.7c-0.1-0.4-0.1-0.9-0.2-1.3c0-0.3-0.1-0.6-0.1-0.9v-0.2
				c0-0.4-0.1-0.8-0.1-1.2C8,93.3,8.6,87.1,10.2,81c0.3-1.2,0.7-2.4,1.1-3.7L14,77.1 M15.5,76l-4.8,0.4c-0.5,1.4-1,2.9-1.4,4.4
				C7.6,87.1,7,93.5,7.5,99.6l0,0c0,0.5,0.1,0.9,0.1,1.4c0,0.3,0.1,0.6,0.1,0.9c0.1,0.5,0.1,0.9,0.2,1.4c0,0.3,0.1,0.6,0.1,0.9
				c0.1,0.8,0.3,1.7,0.5,2.5c0.1,0.3,0.1,0.5,0.2,0.8c0.1,0.5,0.2,0.9,0.3,1.4c0.1,0.3,0.2,0.6,0.2,0.9c0.1,0.5,0.3,0.9,0.4,1.4
				c0.1,0.3,0.2,0.5,0.2,0.8c0.3,0.8,0.6,1.7,0.9,2.5c0.1,0.2,0.2,0.5,0.3,0.7c0.2,0.5,0.4,0.9,0.5,1.3c0.1,0.2,0.2,0.5,0.3,0.7
				c0.2,0.5,0.4,0.9,0.6,1.4c0,0.1,0.1,0.2,0.2,0.3c0.4,0.9,0.9,1.9,1.4,2.8c0.1,0.2,0.2,0.4,0.3,0.6c0.3,0.4,0.5,0.9,0.8,1.3
				c0.1,0.2,0.2,0.4,0.3,0.6c0.9,1.5,1.8,2.9,2.9,4.2c0.1,0.1,0.2,0.3,0.3,0.4c0.3,0.4,0.7,0.9,1,1.3c0.1,0.1,0.2,0.2,0.2,0.3
				c1.1,1.4,2.3,2.7,3.6,4c0.1,0.1,0.2,0.2,0.3,0.3c1.8,1.8,3.7,3.4,5.8,5c0.1,0,0.1,0.1,0.2,0.1c2.1,1.5,4.3,3,6.6,4.2h0.1
				c1.7,0.9,3.5,1.8,5.4,2.5h0.1c2.1,0.8,4.2,1.6,6.4,2.2c4.8,1.3,9.6,1.9,14.4,1.9c2.9,0,5.7-0.2,8.5-0.7c0.5-0.1,0.9-0.1,1.4-0.2
				c0.4-0.1,0.8-0.1,1.2-0.2c0.4-0.1,0.8-0.2,1.2-0.3c0.4-0.1,0.8-0.2,1.2-0.3c0.4-0.1,0.8-0.2,1.2-0.3c0.4-0.1,0.8-0.2,1.1-0.3
				c0.5-0.1,0.9-0.3,1.4-0.4c0.6-0.2,1.2-0.4,1.8-0.6c0.4-0.2,0.8-0.3,1.2-0.5c0.4-0.2,0.8-0.3,1.2-0.5c0.4-0.1,0.7-0.3,1.1-0.5
				s0.8-0.3,1.2-0.5c0.3-0.2,0.7-0.3,1-0.5c0.4-0.2,0.8-0.4,1.2-0.6c0.3-0.2,0.6-0.3,1-0.5c0.7-0.4,1.4-0.8,2.1-1.2
				c0.3-0.2,0.6-0.3,0.8-0.5c0.4-0.2,0.8-0.5,1.2-0.8c0.3-0.2,0.6-0.4,0.8-0.6c0.4-0.3,0.8-0.5,1.1-0.8c0.3-0.2,0.5-0.4,0.8-0.6
				c0.4-0.3,0.7-0.6,1.1-0.9c0.2-0.2,0.5-0.4,0.7-0.6c0.9-0.8,1.8-1.5,2.7-2.4l0,0c7.2-6.8,12.7-15.6,15.5-25.9c0.4-1.5,0.7-3,1-4.5
				l-3.9-3.1l0,0c-0.3,2.1-0.7,4.3-1.3,6.4c-2.7,10.1-8.3,18.7-15.7,25.1c-0.2-0.2-0.3-0.5-0.5-0.8c-0.7-1.8,0.5-4.1,1.4-5.2
				c2.1-2.6,4.5-1.6,6.7-3.8c2.4-2.4,2.9-7,1.2-8.7c-0.4-0.4-0.8-0.5-1.5-0.5c-1.1,0-2.9,0.4-6.4,0.7c-2.1,0.2-3.7,0.2-4.8,0.2
				c-0.7,0-1.3,0-1.8,0c-1.3,0-1.9,0.1-2.6,0.7c-2.9,2.5,0.2,7.2-2.8,10.5c-2.6,2.8-6.8,1.3-7.7,3.6c-1.1,2.6,4.2,5.5,3.3,8.8
				c-0.8,2.8-5.2,2-8.3,5.7c-0.2,0.3-0.4,0.6-0.6,0.9c-3,0.6-6.1,0.8-9.2,0.8c-4.4,0-8.8-0.6-13.3-1.8c-2.9-0.8-5.7-1.8-8.3-3
				c-2-2-4.2-3.1-3.9-4.2c0.4-1.2,3.4-0.2,5-2c1.7-1.8,1.1-5.5-0.1-7.9c-1.9-3.7-5.2-3.9-5.2-5.9c0.1-2.6,5.8-3.1,6.2-6.2
				c0.4-2.8-3.7-5.4-4.1-5.6c-1.9-1.2-3.5-1.4-5.1-1.4c-0.8,0-1.6,0-2.4,0c-1.3,0-2.7-0.1-4.4-0.7c-5.2-2-4.7-6-9.1-8.1
				c-1.4-0.7-3-1-4.7-1c-0.6,0-1.2,0-1.8,0.1c-0.4-5.5,0.1-11.1,1.6-16.7C14,79.8,14.7,77.9,15.5,76L15.5,76z"/>
		</g>
		<g>
			<path class="st1" d="M43.4,38.2c2.9,2.4,5.9,4.4,9,6L51.9,46l-10.7,2.2l-4.3-4.9l3.1-4.7L43.4,38.2 M43.7,37.1l-4.3,0.5l-3.8,5.7
				l5.2,5.9l11.9-2.4l0.9-3.2C49.9,41.8,46.6,39.5,43.7,37.1L43.7,37.1z"/>
		</g>
		<g>
			<path class="st1" d="M55.3,45.4c1.7,0.7,3.3,1.3,5,1.7c0.7,0.2,1.4,0.3,2,0.5c0.9,0.2,1.8,0.4,2.7,0.6l-2.5,5.3l-7.6-6.8
				L55.3,45.4 M54.6,44.1l-0.8,3.1l9.1,8.1l3.6-7.7c-1.3-0.3-2.6-0.6-3.9-0.9c-0.7-0.1-1.3-0.3-2-0.5C58.5,45.6,56.5,44.9,54.6,44.1
				L54.6,44.1z"/>
		</g>
		<g>
			<path class="st1" d="M68.8,49.1c3.2,0.7,6.1,1.5,8.9,2.2c-1.1,2.3-2.1,4.3-2.6,5.3l-9-0.6L68.8,49.1 M68.2,47.9l-3.5,8.9
				l11.1,0.7c0,0,1.7-3.3,3.4-7C75.8,49.7,72.2,48.8,68.2,47.9L68.2,47.9z"/>
		</g>
		<g>
			<path class="st1" d="M81.9,52.4c5.1,1.4,9.5,2.9,13.2,4.3v0.6l-1.5,5.5L79.2,64l-0.5-4.6C79,58.5,80.4,55.5,81.9,52.4 M81.4,51.2
				c-1.9,4.1-3.8,8-3.8,8l0.7,5.8l16.1-1.3l1.7-6.3V56C92.5,54.5,87.7,52.9,81.4,51.2L81.4,51.2z"/>
		</g>
		<g>
			<path class="st1" d="M99.2,58.5c5.4,2.6,6.7,4.4,7,5c1.7,3.7,2.7,9.1,3.3,13.2l-5.1,3.1l-7.5-6.1L96,69.5l1.7-10.1L99.2,58.5
				 M99.2,57.3l-2.4,1.4L95,69.5l1,4.8l8.3,6.7l6.2-3.8c-0.6-4.4-1.6-10.2-3.4-14.1C106.7,62.1,105,60,99.2,57.3L99.2,57.3z"/>
		</g>
		<g>
			<path class="st1" d="M110,80.7c0.2,1.7,0.2,2.7,0.2,2.7l0.2,3.2l0.1,1h1l3.2-0.1c0.6,0,3.3-0.2,5.9-1.8l1,2.3l-7.1,8l-5.6-3.4
				l0.2-8.4v-0.3l-0.1-0.2l-1-1.8L110,80.7 M110.8,79c-2.3,1.3-4.4,2.5-4.4,2.5l1.5,2.7l-0.2,9l6.8,4.1l8.1-9.1l-1.8-4
				c-2.6,2.1-5.9,2.3-6.4,2.3l-3.2,0.1l-0.2-3.2C111.2,83.3,111.1,81.6,110.8,79L110.8,79z"/>
		</g>
	</g>
	<g>
		<path class="st1" d="M51.4,4.1L51.4,4.1c-0.1,0.5-0.1,1.4,1.1,2.2c0.6,0.4,1.5,0.8,2.4,1c0.8,0.2,1.6,0.3,2.3,0.3
			c1.7,0,2.2-0.7,2.4-1.2c0-0.1,0-0.2,0-0.4c1.8,1,2.3,1.8,2.4,1.8v0.1L62.1,8c0.5,0.6,1.5,2.2,1.2,3c-0.1,0.3-0.8,1.1-3.8,1.1
			c-0.1,0-0.2,0-0.3,0c-8.5-0.2-9.9-5.8-10.1-6.6c0-0.1,0.1-0.4,0.4-0.7C49.7,4.4,50.4,4.1,51.4,4.1 M51.8,3.1
			c-3.9,0-3.9,2.4-3.9,2.4S49,12.9,59,13.1c0.1,0,0.2,0,0.4,0c8.5,0,3.4-5.7,3.4-5.7s-1.5-2.7-8.5-4C53.3,3.2,52.5,3.1,51.8,3.1
			L51.8,3.1z M57.2,6.7c-0.6,0-1.3-0.1-2-0.3c-1.7-0.5-3-1.3-2.9-1.9C52.4,4.2,52.9,4,53.7,4c0.6,0,1.3,0.1,2,0.3
			c1.7,0.5,3,1.3,2.9,1.9C58.5,6.5,58,6.7,57.2,6.7L57.2,6.7z"/>
	</g>
	<g>
		<path class="st1" d="M34.4,4.2c2.9,0,5.6,2.4,5.6,2.4l0.3,0.3l0.5-0.1c0,0,2-0.3,5.2-0.3c0.5,1.8,2.3,6.4,8.5,8
			c1.4,0.4,2.9,0.6,4.5,0.6c0.1,0,0.3,0,0.4,0c3.6,0,5.7-0.9,6.6-2.9c0.5-1,0.5-2.2,0.1-3.4c0,0,0,0,0.1,0l3.4,6
			c0,0,2.5,4.5,1.2,8.2c-0.6,1.8-2.1,3.2-4.4,4c-5.8,2.2-10.1,2.7-12.7,2.7c-1.3,0-2.1-0.1-2.1-0.1l-0.4,1.9c0.2,0,3.8,1,8.3,1
			c5.2,0,9.4-1.3,12.4-3.7c2.1-1.8,3.3-3.8,3.4-6.2c0.2-4.8-3.9-8.8-4.1-9l-4.9-4.8c4.3,1.1,8.5,2.7,12.4,4.5
			c-0.8,0.7-2,1.8-3.5,3.4c-0.5,0.5-0.3,1-0.3,1.2l0.3,0.6h0.7c0.4,0,0.6-0.1,2.4-1.1c2-1.1,4.9-2.7,7-3.4c0.8-0.3,1.9-0.4,3.1-0.4
			c3,0,5.9,0.9,7.2,2.2c0.5,0.5,0.8,1.1,0.7,1.7c0,0.2,0,0.4-0.1,0.6v0.1v0.1v0.1c0,0.1,0,0.1-0.1,0.2c0,0.1-0.1,0.2-0.1,0.3V19v0.1
			c-0.1,0.1-0.1,0.2-0.2,0.3l-0.1,0.1l0,0c-0.1,0.1-0.2,0.2-0.4,0.3l0,0l0,0l0,0c-0.2,0.1-0.3,0.2-0.5,0.3h-0.1
			c-0.2,0.1-0.4,0.2-0.7,0.3c-0.3,0.1-0.5,0.2-0.8,0.2c-0.9,0.2-2,0.3-3.3,0.3c-3.1,0-7.1-0.7-11.9-1.9l-1,2.2
			c8.7,3.5,14.7,4.3,18.2,4.3c0.1,0,0.2,0,0.3,0c14.3,14.5,19,33.2,19.1,33.4l0.1,0.3l0.3,0.2c8.7,6.8,10.2,11.5,10.4,12.9
			c-0.2,0.1-0.5,0.2-0.7,0.2c-2,0-4.7-2.6-5.6-3.6l-1.6,1.2c2.4,4.2,3.1,7.6,2,9.6c-0.9,1.6-2.7,2.2-3.9,2.4
			c-0.3-3.4-1.3-14.1-4.4-20.7c-3-6.5-18.1-12.5-47.6-18.8C44.1,38.4,34,18.3,33.9,18.1l-0.3-0.5H33c-0.8,0-1.2-0.4-1.4-0.6
			c-0.7-0.9-0.6-2.6-0.5-4l0.8-1.7c0.1-0.1,0.9-0.7,3.4-0.7c2.1,0,4.7,0.4,7.9,1.1l3.1,0.7l-2.1-2.3C43.9,9.7,40,5.4,35,5.4
			c-0.7,0-1.4,0.1-2.1,0.3c-1.3,0.3-2.2,1-2.7,1.9c-0.1,0.2-0.2,0.5-0.3,0.7c0-0.2,0-0.3,0-0.5c0-0.9,0.6-1.8,1.7-2.7
			C32.4,4.5,33.3,4.2,34.4,4.2 M34.4,3.2c-1.1,0-2.3,0.3-3.4,1.2c-4.3,3.4-0.6,6.6-0.6,6.6s-2,7.3,2.5,7.4c0,0,10.2,20.8,30.4,25.1
			s43.3,10.5,46.9,18.3s4.4,21.4,4.4,21.4s11.3-0.3,3.7-13.6c0,0,3.5,4,6.4,4c0.6,0,1.2-0.2,1.8-0.7c0,0,0.4-5.5-10.8-14.2
			c0,0-4.7-19.3-19.6-34.2c-0.2,0-0.4,0-0.7,0c-3.3,0-9.1-0.7-17.8-4.2c5.1,1.4,9.1,2,12.2,2c1.4,0,2.6-0.1,3.5-0.4
			c0.3-0.1,0.6-0.2,0.9-0.3l0,0c0.3-0.1,0.5-0.2,0.8-0.3h0.1c0.2-0.1,0.4-0.2,0.6-0.4l0.1-0.1c0.2-0.1,0.3-0.3,0.5-0.4l0.1-0.1
			c0.1-0.1,0.2-0.3,0.3-0.4c0.1-0.1,0.1-0.2,0.1-0.2c0.1-0.1,0.1-0.3,0.2-0.4c0-0.1,0.1-0.3,0.1-0.4s0.1-0.2,0.1-0.3
			c0-0.2,0.1-0.5,0.1-0.8c0.1-3.4-4.9-4.9-8.9-4.9c-1.3,0-2.5,0.2-3.4,0.5c-3.4,1.1-8.7,4.4-9.1,4.4c0,0,0,0,0-0.1
			c2.4-2.5,3.9-3.7,4.6-4.3C75,10.6,69.4,8.7,64.3,7.6c0.7,1,1.6,2.8,0.9,4.4c-0.7,1.5-2.6,2.3-5.7,2.3c-0.1,0-0.2,0-0.4,0
			c-1.5,0-2.9-0.2-4.2-0.6C47.9,11.8,47,6,47,5.8V5.7V5.6l0,0c-3.8,0-6.2,0.4-6.2,0.4S37.7,3.2,34.4,3.2L34.4,3.2z M31,10.6
			c0,0-1.2-3.1,2.2-3.9c0.6-0.2,1.2-0.2,1.8-0.2c4.6,0,8.4,4.1,8.4,4.1c-3.7-0.8-6.3-1.1-8.1-1.1C31.5,9.5,31,10.6,31,10.6L31,10.6z
			 M53.7,30.9c2.5,0,7-0.4,13.1-2.8c9.4-3.7,3.7-13.6,3.7-13.6s8,7.8,0.8,13.7c-3.4,2.8-7.9,3.5-11.8,3.5c-4.4,0-8-1-8-1
			S52.2,30.9,53.7,30.9L53.7,30.9z"/>
	</g>
	<g>
		<path class="st1" d="M101.3,21c0.2,0.2,0.4,0.4,0.5,0.5c2.1,2.2,3.2,4.2,3.1,5.9c0,0.9-0.3,1.7-0.9,2.5c-1.6-2-3.3-3.9-5.1-5.7
			C100.1,23.4,100.9,22.3,101.3,21 M100.4,19c0.1,1.7-0.4,3.8-3.2,5c2.5,2.4,4.7,5,6.6,7.5c2.2-2,3.6-5.5-1.4-10.6
			C101.9,20.1,101.2,19.5,100.4,19L100.4,19z"/>
	</g>
</g>
<g class="st0">
	<g>
		<g>
			<path class="st1" d="M169.9-33.4c4.5,3.5,9.2,7.4,10,8.6l-3.4,12.6l-15.5,1l-1-7.3l-0.1-0.4l-0.3-0.2l-4-3
				c1.2-2.1,4.1-7.6,4.6-9.4c0.5-0.8,4.6-1.2,6.4-1.4C168.1-33.1,169.2-33.2,169.9-33.4 M170.1-34.5c-1.3,0.8-10.3,0.6-10.9,2.7
				c-0.6,2.1-4.9,9.9-4.9,9.9l4.7,3.5l1.2,8.2l17.2-1c0,0,3.4-12.6,3.7-13.6C181.3-25.9,170.1-34.5,170.1-34.5L170.1-34.5z"/>
		</g>
		<g>
			<path class="st1" d="M183.2-22.9c2.9,0.1,8.6,0.3,10,0.7c0.6,0.1,0.5,2.4,0,4.6l-4.1,11.2l-9.2-4.4L183.2-22.9 M182.4-23.9
				l-3.7,13.6l11,5.2l4.4-12.3c0,0,1.4-5.2-0.7-5.8C191.4-23.7,182.4-23.9,182.4-23.9L182.4-23.9z"/>
		</g>
		<g>
			<path class="st1" d="M153.2-19.4l3.2,1.8l1,7.2c-3.4,3.3-7.1,6.8-8.8,8.3c-0.7-2-2.4-6.1-6.7-15.3C145-17.8,151.4-19,153.2-19.4
				 M153.3-20.4c0,0-10.6,2.2-12.7,2.2c-0.1,0-0.2,0-0.3,0c0,0,7.9,16.8,7.6,17.8v0.1c0.7,0,10.4-9.6,10.4-9.6l-1.2-8.2L153.3-20.4
				L153.3-20.4z"/>
		</g>
		<g>
			<path class="st1" d="M159.6-7.7l3.1,0.1l1,11.4L159.9,8l-7.2-8.6L159.6-7.7 M159.2-8.7l-7.8,8l8.5,10.2l4.8-5.5l-1.1-12.7H159.2
				L159.2-8.7z"/>
		</g>
		<g>
			<path class="st1" d="M177.2-8.4l10.8,6l-0.6,2.1c-3,2.8-5.1,4.9-6.4,6.3c-0.2-1.6-0.5-3.9-0.7-6l-0.2-1.7l-1.4,1l-11,7.9V-6.9
				L177.2-8.4 M177.4-9.5l-10.6,1.7V9.1l12.6-9c0,0,0.8,8.3,1.1,8.3c0,0,0,0,0.1-0.1c0.3-1,7.8-8,7.8-8l0.8-3.1L177.4-9.5L177.4-9.5
				z"/>
		</g>
		<g>
			<path class="st1" d="M152.4-37.4l4.2,4.8l-4.7,9.9c-2.2,0.2-9.8,0.8-12.3,0.8c-0.1,0-0.2,0-0.3,0l-1.9-2.1l4.2-8L152.4-37.4
				 M152.6-38.7l-11.7,5.9l-4.6,8.9l2.6,2.9c0.1,0,0.4,0,0.8,0c3,0,12.9-0.9,12.9-0.9l5.2-11L152.6-38.7L152.6-38.7z"/>
		</g>
		<g>
			<path class="st1" d="M134.5-20.6l3.1,4.3l-2.6,6l-6.9,0.7l4.4-9.2L134.5-20.6 M134.6-22.1l-2.9,2.6l-5.2,11l9.2-0.9l3-7.1
				L134.6-22.1L134.6-22.1z"/>
		</g>
		<g>
			<path class="st1" d="M196.9-15.8l6.4,0.1l-7.3,10c-0.8-0.5-1.9-1.2-2.8-1.6C193.6-8.7,195.3-12.4,196.9-15.8 M196.3-16.8
				c0,0-4.9,9.9-3.9,10.2s3.9,2.2,3.9,2.2l8.9-12.2L196.3-16.8L196.3-16.8z"/>
		</g>
		<g>
			<path class="st1" d="M207.3-16.3l3.5,0.2l-0.5,2l-0.1,0.3l0.1,0.3l1.9,4.7l-2.3,5.7l-3.9-8L207.3-16.3 M206.6-17.4l-1.7,6.3
				L210-0.7l3.3-8.1l-2-5l0.8-3.1L206.6-17.4L206.6-17.4z"/>
		</g>
		<g>
			<path class="st1" d="M214.3-4.8c4.3,2.9,8.7,6.1,9.5,7.1c-0.1,0.5,0,1.2,0,2.3c0,0.9,0.1,2.5-0.1,3.2c-1.1,0.4-3.3,2.1-6.4,5.1
				L216,9.6l1.9-7l0.2-0.8l-0.7-0.4l-4.2-2.1L214.3-4.8 M213.7-6.4L212-0.1l5,2.5l-2,7.3l2,5c0,0,5.9-5.9,7.2-5.9h0.1c0,0,0,0,0.1,0
				c0.9,0,0.3-5.6,0.6-6.6C225.2,1.2,213.7-6.4,213.7-6.4L213.7-6.4z"/>
		</g>
		<g>
			<path class="st1" d="M239.7,10.4c0.5,1.1,1.1,2.2,1.7,2.8c-0.6,1.5-3.3,5.6-4.5,6.8c-0.5-0.9-1.3-2.9-1.8-4.9L239.7,10.4
				 M240.1,8.6l-6.2,6.2c0,0,1.7,6.1,2.8,6.4c0,0,0,0,0.1,0c1.2,0,6.7-8.3,5.6-8.6C241.4,12.3,240.1,8.6,240.1,8.6L240.1,8.6z"/>
		</g>
		<g>
			<path class="st1" d="M223.9,12.2l6.8,4.2l-2.1,0.4l-7.5-2L223.9,12.2 M223.7,10.9l-4.6,4.4l9.4,2.5l4.8-1L223.7,10.9L223.7,10.9z
				"/>
		</g>
		<g>
			<path class="st1" d="M132.2-5.7c-0.6,1.5-1,3-1.4,4.5c-1.5,5.6-2.1,11.3-1.7,17.1l0.1,1l1-0.1c0.6-0.1,1.1-0.1,1.7-0.1
				c1.6,0,3,0.3,4.2,0.9c1.8,0.9,2.6,2.1,3.6,3.4c1.2,1.6,2.5,3.5,5.5,4.7c1.9,0.7,3.4,0.8,4.7,0.8c0.4,0,0.8,0,1.3,0
				c0.4,0,0.8,0,1.1,0c1.6,0,2.9,0.2,4.5,1.2c1.4,0.8,3.9,2.9,3.7,4.6c-0.1,1.1-1.5,1.9-2.9,2.6c-1.5,0.9-3.3,1.9-3.3,3.7
				c0,1.5,1.1,2.3,2.2,3.1c1.1,0.8,2.2,1.6,3.1,3.3c1.1,2.2,1.5,5.4,0.3,6.8c-0.7,0.7-1.7,0.9-2.6,1c-1,0.1-2.2,0.3-2.6,1.4
				c-0.5,1.4,0.7,2.3,2.1,3.5c0.6,0.5,1.3,1.1,1.9,1.7l0.1,0.1l0.2,0.1c2.8,1.3,5.6,2.3,8.4,3.1c4.4,1.2,9,1.8,13.5,1.8
				c3.1,0,6.3-0.3,9.4-0.9l0.4-0.1l0.2-0.4c0.2-0.3,0.4-0.5,0.5-0.8c1.3-1.6,3-2.2,4.5-2.8c1.7-0.6,3.4-1.3,3.9-3.2
				c0.6-2.1-0.7-3.9-1.9-5.6c-0.9-1.2-1.7-2.3-1.4-3.1c0.2-0.5,0.9-0.7,2.3-0.9c1.6-0.3,3.6-0.6,5.2-2.3c1.8-2,1.8-4.3,1.7-6.3
				c0-2,0-3.2,1-4.1c0.4-0.4,0.7-0.5,1.9-0.5c0.2,0,0.5,0,0.7,0c0.3,0,0.7,0,1.1,0c1,0,2.6,0,4.9-0.2c1.8-0.1,3.1-0.3,4.2-0.4
				c0.9-0.1,1.6-0.2,2.1-0.2s0.7,0.1,0.8,0.3c0.4,0.4,0.7,1.2,0.7,2.2c0,1.8-0.7,3.9-1.9,5.1c-0.9,0.9-1.8,1.2-2.8,1.5
				c-1.2,0.4-2.7,0.8-3.9,2.4c-1.2,1.5-2.4,4.1-1.6,6.2c0.1,0.4,0.3,0.7,0.6,1l0.7,0.8l0.8-0.7c7.8-6.8,13.3-15.7,16-25.6
				c0.4-1.5,0.8-3.2,1-4.8l2.1,1.6c-0.3,1.4-0.5,2.6-0.9,3.8c-2.6,9.7-7.9,18.5-15.2,25.4c-0.8,0.7-1.7,1.5-2.6,2.3l-0.2,0.2
				c-0.2,0.1-0.3,0.3-0.5,0.4c-0.4,0.3-0.7,0.6-1.1,0.8c-0.3,0.2-0.5,0.4-0.8,0.6c-0.4,0.3-0.7,0.5-1.1,0.8
				c-0.2,0.2-0.5,0.3-0.7,0.5l-0.1,0.1l-0.1,0.1c-0.3,0.2-0.7,0.4-1,0.6c-0.2,0.1-0.4,0.2-0.5,0.3l-0.3,0.2
				c-0.7,0.4-1.4,0.8-2.1,1.2l-0.2,0.1c-0.2,0.1-0.5,0.3-0.7,0.4c-0.3,0.2-0.7,0.4-1.1,0.5h-0.1c-0.3,0.2-0.7,0.3-1,0.5
				c-0.4,0.2-0.8,0.4-1.1,0.5c-0.3,0.2-0.7,0.3-1,0.4l-0.2,0.1c-0.3,0.1-0.6,0.3-1,0.4c-0.3,0.1-0.7,0.3-1,0.4l-0.2,0.1
				c-0.6,0.2-1.1,0.4-1.7,0.6h-0.1c-0.4,0.1-0.9,0.3-1.3,0.4c-0.3,0.1-0.6,0.2-0.9,0.2l-0.2,0.1c-0.4,0.1-0.8,0.2-1.2,0.3
				c-0.4,0.1-0.8,0.2-1.1,0.3c-0.4,0.1-0.8,0.2-1.2,0.3h-0.1c-0.4,0.1-0.7,0.1-1.1,0.2c-0.4,0.1-0.9,0.1-1.4,0.2
				c-2.7,0.4-5.5,0.6-8.3,0.6c-4.8,0-9.5-0.6-14.1-1.9c-2.1-0.6-4.1-1.3-6.3-2.1l0,0l0,0c-1.8-0.7-3.6-1.6-5.3-2.5l-0.5,0.9l0.4-0.9
				c-2.3-1.2-4.4-2.6-6.5-4.1h-0.1l-0.1-0.1c-2-1.5-3.9-3.1-5.7-4.9l-0.3-0.3c-1.2-1.2-2.4-2.6-3.6-3.9l-0.1-0.1l-0.1-0.2
				c-0.3-0.4-0.7-0.9-1-1.3l-0.2-0.3l-0.1-0.1c-1-1.3-1.9-2.7-2.8-4.2l-0.1-0.1c-0.1-0.1-0.2-0.3-0.3-0.4c-0.3-0.4-0.5-0.9-0.8-1.3
				c-0.1-0.1-0.1-0.3-0.2-0.4l-0.1-0.2c-0.5-0.9-1-1.8-1.4-2.7l-0.1-0.2l-0.1-0.2c-0.2-0.4-0.4-0.9-0.6-1.3
				c-0.1-0.2-0.2-0.5-0.3-0.7c-0.2-0.4-0.4-0.9-0.5-1.3c-0.1-0.1-0.1-0.3-0.2-0.5l-0.1-0.2c-0.3-0.8-0.6-1.6-0.8-2.5l-0.1-0.2
				c-0.1-0.2-0.1-0.3-0.2-0.5c-0.1-0.4-0.3-0.9-0.4-1.3c-0.1-0.3-0.2-0.6-0.2-0.9c-0.1-0.4-0.2-0.9-0.3-1.3c0-0.2-0.1-0.3-0.1-0.5
				l-0.1-0.3c-0.2-0.8-0.3-1.6-0.5-2.5v-0.2c0-0.2-0.1-0.5-0.1-0.7c-0.1-0.4-0.1-0.9-0.2-1.3c0-0.3-0.1-0.6-0.1-0.9v-0.2
				c0-0.4-0.1-0.8-0.1-1.2c-0.5-6.2,0.1-12.5,1.7-18.6c0.3-1.2,0.7-2.4,1.1-3.7L132.2-5.7 M133.7-6.8l-4.8,0.4
				c-0.5,1.4-1,2.9-1.4,4.4c-1.7,6.3-2.2,12.7-1.7,18.9l0,0c0,0.5,0.1,0.9,0.1,1.4c0,0.3,0.1,0.6,0.1,0.9c0.1,0.5,0.1,0.9,0.2,1.4
				c0,0.3,0.1,0.6,0.1,0.9c0.1,0.8,0.3,1.7,0.5,2.5c0.1,0.3,0.1,0.5,0.2,0.8c0.1,0.5,0.2,0.9,0.3,1.4c0.1,0.3,0.2,0.6,0.2,0.9
				c0.1,0.5,0.3,0.9,0.4,1.4c0.1,0.3,0.2,0.5,0.2,0.8c0.3,0.8,0.6,1.7,0.9,2.5c0.1,0.2,0.2,0.5,0.3,0.7c0.2,0.5,0.4,0.9,0.5,1.3
				c0.1,0.2,0.2,0.5,0.3,0.7c0.2,0.5,0.4,0.9,0.6,1.4c0,0.1,0.1,0.2,0.2,0.3c0.4,0.9,0.9,1.9,1.4,2.8c0.1,0.2,0.2,0.4,0.3,0.6
				c0.3,0.4,0.5,0.9,0.8,1.3c0.1,0.2,0.2,0.4,0.3,0.6c0.9,1.5,1.8,2.9,2.9,4.2c0.1,0.1,0.2,0.3,0.3,0.4c0.3,0.4,0.7,0.9,1,1.3
				c0.1,0.1,0.2,0.2,0.2,0.3c1.1,1.4,2.3,2.7,3.6,4c0.1,0.1,0.2,0.2,0.3,0.3c1.8,1.8,3.7,3.4,5.8,5c0.1,0,0.1,0.1,0.2,0.1
				c2.1,1.5,4.3,3,6.6,4.2h0.1c1.7,0.9,3.5,1.8,5.4,2.5h0.1c2.1,0.8,4.2,1.6,6.4,2.2c4.8,1.3,9.6,1.9,14.4,1.9
				c2.9,0,5.7-0.2,8.5-0.7c0.5-0.1,0.9-0.1,1.4-0.2c0.4-0.1,0.8-0.1,1.2-0.2s0.8-0.2,1.2-0.3c0.4-0.1,0.8-0.2,1.2-0.3
				c0.4-0.1,0.8-0.2,1.2-0.3c0.4-0.1,0.8-0.2,1.1-0.3c0.5-0.1,0.9-0.3,1.4-0.4c0.6-0.2,1.2-0.4,1.8-0.6c0.4-0.2,0.8-0.3,1.2-0.5
				c0.4-0.2,0.8-0.3,1.2-0.5c0.4-0.1,0.7-0.3,1.1-0.5c0.4-0.2,0.8-0.3,1.2-0.5c0.3-0.2,0.7-0.3,1-0.5c0.4-0.2,0.8-0.4,1.2-0.6
				c0.3-0.2,0.6-0.3,1-0.5c0.7-0.4,1.4-0.8,2.1-1.2c0.3-0.2,0.6-0.3,0.8-0.5c0.4-0.2,0.8-0.5,1.2-0.8c0.3-0.2,0.6-0.4,0.8-0.6
				c0.4-0.3,0.8-0.5,1.1-0.8c0.3-0.2,0.5-0.4,0.8-0.6c0.4-0.3,0.7-0.6,1.1-0.9c0.2-0.2,0.5-0.4,0.7-0.6c0.9-0.8,1.8-1.5,2.7-2.4l0,0
				c7.2-6.8,12.7-15.6,15.5-25.9c0.4-1.5,0.7-3,1-4.5l-3.9-3.1l0,0c-0.3,2.1-0.7,4.3-1.3,6.4c-2.7,10.1-8.3,18.7-15.7,25.1
				c-0.2-0.2-0.3-0.5-0.5-0.8c-0.7-1.8,0.5-4.1,1.4-5.2c2.1-2.6,4.5-1.6,6.7-3.8c2.4-2.4,2.9-7,1.2-8.7c-0.4-0.4-0.8-0.5-1.5-0.5
				c-1.1,0-2.9,0.4-6.4,0.7c-2.1,0.2-3.7,0.2-4.8,0.2c-0.7,0-1.3,0-1.8,0c-1.3,0-1.9,0.1-2.6,0.7c-2.9,2.5,0.2,7.2-2.8,10.5
				c-2.6,2.8-6.8,1.3-7.7,3.6c-1.1,2.6,4.2,5.5,3.3,8.8c-0.8,2.8-5.2,2-8.3,5.7c-0.2,0.3-0.4,0.6-0.6,0.9c-3,0.6-6.1,0.8-9.2,0.8
				c-4.4,0-8.8-0.6-13.3-1.8c-2.9-0.8-5.7-1.8-8.3-3c-2-2-4.2-3.1-3.9-4.2c0.4-1.2,3.4-0.2,5-2c1.7-1.8,1.1-5.5-0.1-7.9
				c-1.9-3.7-5.2-3.9-5.2-5.9c0.1-2.6,5.8-3.1,6.2-6.2c0.4-2.8-3.7-5.4-4.1-5.6c-1.9-1.2-3.5-1.4-5.1-1.4c-0.8,0-1.6,0-2.4,0
				c-1.3,0-2.7-0.1-4.4-0.7c-5.2-2-4.7-6-9.1-8.1c-1.4-0.7-3-1-4.7-1c-0.6,0-1.2,0-1.8,0.1c-0.4-5.5,0.1-11.1,1.6-16.7
				C132.3-2.9,133-4.9,133.7-6.8L133.7-6.8z"/>
		</g>
		<g>
			<path class="st1" d="M161.7-44.6c2.9,2.4,5.9,4.4,9,6l-0.5,1.9l-10.7,2.2l-4.3-4.9l3.1-4.7L161.7-44.6 M162-45.7l-4.3,0.5
				l-3.8,5.7l5.2,5.9L171-36l0.9-3.2C168.2-41,164.9-43.2,162-45.7L162-45.7z"/>
		</g>
		<g>
			<path class="st1" d="M173.6-37.4c1.7,0.7,3.3,1.3,5,1.7c0.7,0.2,1.4,0.3,2,0.5c0.9,0.2,1.8,0.4,2.7,0.6l-2.5,5.3l-7.6-6.8
				L173.6-37.4 M172.9-38.7l-0.8,3.1l9.1,8.1l3.6-7.7c-1.3-0.3-2.6-0.6-3.9-0.9c-0.7-0.1-1.3-0.3-2-0.5
				C176.8-37.2,174.8-37.9,172.9-38.7L172.9-38.7z"/>
		</g>
		<g>
			<path class="st1" d="M187.1-33.7c3.2,0.7,6.1,1.5,8.9,2.2c-1.1,2.3-2.1,4.3-2.6,5.3l-9-0.6L187.1-33.7 M186.5-34.9L183-26
				l11.1,0.7c0,0,1.7-3.3,3.4-7C194.1-33.1,190.5-34,186.5-34.9L186.5-34.9z"/>
		</g>
		<g>
			<path class="st1" d="M200.2-30.4c5.1,1.4,9.5,2.9,13.2,4.3v0.6l-1.5,5.5l-14.4,1.2l-0.5-4.6C197.3-24.3,198.7-27.2,200.2-30.4
				 M199.7-31.6c-1.9,4.1-3.8,8-3.8,8l0.7,5.8l16.1-1.3l1.7-6.3v-1.4C210.8-28.2,206-29.9,199.7-31.6L199.7-31.6z"/>
		</g>
		<g>
			<path class="st1" d="M217.5-24.3c5.4,2.6,6.7,4.4,7,5c1.7,3.7,2.7,9.1,3.3,13.2L222.7-3l-7.5-6.1l-0.9-4.2l1.7-10.1L217.5-24.3
				 M217.5-25.4l-2.4,1.4l-1.8,10.8l1,4.8l8.3,6.7l6.2-3.8c-0.6-4.4-1.6-10.2-3.4-14.1C225-20.7,223.3-22.7,217.5-25.4L217.5-25.4z"
				/>
		</g>
		<g>
			<path class="st1" d="M228.3-2.1c0.2,1.7,0.2,2.7,0.2,2.7l0.2,3.2l0.1,1h1l3.2-0.1c0.6,0,3.3-0.2,5.9-1.8l1,2.3l-7.1,8l-5.6-3.4
				l0.2-8.4V1.1l-0.1-0.2l-1-1.8L228.3-2.1 M229.1-3.7c-2.3,1.3-4.4,2.5-4.4,2.5l1.5,2.7l-0.2,9l6.8,4.1l8.1-9.1l-1.8-4
				c-2.6,2.1-5.9,2.3-6.4,2.3l-3.2,0.1l-0.2-3.2C229.5,0.5,229.4-1.2,229.1-3.7L229.1-3.7z"/>
		</g>
	</g>
	<g>
		<path class="st1" d="M169.7-78.7L169.7-78.7c-0.1,0.5-0.1,1.4,1.1,2.2c0.6,0.4,1.5,0.8,2.4,1c0.8,0.2,1.6,0.3,2.3,0.3
			c1.7,0,2.2-0.7,2.4-1.2c0-0.1,0-0.2,0-0.4c1.8,0.9,2.3,1.7,2.3,1.7v0.1l0.1,0.1c0.5,0.6,1.5,2.2,1.2,3c-0.1,0.3-0.8,1.1-3.8,1.1
			c-0.1,0-0.2,0-0.3,0c-8.5-0.2-9.9-5.8-10.1-6.6c0-0.1,0.1-0.4,0.4-0.7C168-78.4,168.7-78.6,169.7-78.7 M170.1-79.7
			c-3.9,0-3.9,2.4-3.9,2.4s1.1,7.4,11.1,7.5c0.1,0,0.2,0,0.4,0c8.5,0,3.4-5.7,3.4-5.7s-1.5-2.7-8.5-4
			C171.6-79.6,170.8-79.7,170.1-79.7L170.1-79.7z M175.5-76.1c-0.6,0-1.3-0.1-2-0.3c-1.7-0.5-3-1.3-2.9-1.9c0.1-0.3,0.6-0.5,1.4-0.5
			c0.6,0,1.3,0.1,2,0.3c1.7,0.5,3,1.3,2.9,1.9C176.8-76.3,176.3-76.1,175.5-76.1L175.5-76.1z"/>
	</g>
	<g>
		<path class="st1" d="M152.7-78.6c2.9,0,5.6,2.4,5.6,2.4l0.3,0.3l0.5-0.1c0,0,2-0.3,5.2-0.3c0.5,1.8,2.3,6.4,8.5,8
			c1.4,0.4,2.9,0.6,4.5,0.6c0.1,0,0.3,0,0.4,0c3.6,0,5.7-0.9,6.6-2.9c0.5-1,0.5-2.2,0.1-3.4c0,0,0,0,0.1,0l3.4,6
			c0,0,2.5,4.5,1.2,8.2c-0.6,1.8-2.1,3.2-4.4,4c-5.8,2.2-10.1,2.7-12.7,2.7c-1.3,0-2.1-0.1-2.1-0.1l-0.4,1.9c0.2,0,3.8,1,8.3,1
			c5.2,0,9.4-1.3,12.4-3.7c2.1-1.8,3.3-3.8,3.4-6.2c0.2-4.8-3.9-8.8-4.1-9l-4.9-4.8c4.3,1.1,8.5,2.7,12.4,4.5
			c-0.8,0.7-2,1.8-3.5,3.4c-0.5,0.5-0.3,1-0.3,1.2l0.3,0.6h0.7c0.4,0,0.6-0.1,2.4-1.1c2-1.1,4.9-2.7,7-3.4c0.8-0.3,1.9-0.4,3.1-0.4
			c3,0,5.9,0.9,7.2,2.2c0.5,0.5,0.8,1.1,0.7,1.7c0,0.2,0,0.4-0.1,0.6v0.1v0.1v0.1c0,0.1,0,0.1-0.1,0.2c0,0.1-0.1,0.2-0.1,0.3v0.1
			v0.1c-0.1,0.1-0.1,0.2-0.2,0.3l-0.1,0.1l0,0c-0.1,0.1-0.2,0.2-0.4,0.3l0,0l0,0l0,0c-0.2,0.1-0.3,0.2-0.5,0.3H213
			c-0.2,0.1-0.4,0.2-0.7,0.3s-0.5,0.2-0.8,0.2c-0.9,0.2-2,0.3-3.3,0.3c-3.1,0-7.1-0.7-11.9-1.9l-0.6,1.9c8.7,3.5,14.7,4.3,18.2,4.3
			c0.1,0,0.2,0,0.3,0c14.3,14.5,19,33.2,19.1,33.4l0.1,0.3l0.3,0.2c8.7,6.8,10.2,11.5,10.4,12.9c-0.2,0.1-0.5,0.2-0.7,0.2
			c-2,0-4.7-2.6-5.6-3.6l-1.6,1.2c2.4,4.2,3.1,7.6,2,9.6c-0.9,1.6-2.7,2.2-3.9,2.4c-0.3-3.4-1.3-14.1-4.4-20.7
			c-3-6.5-18.1-12.5-47.6-18.8c-19.5-4.2-29.6-24.3-29.7-24.5l-0.3-0.5h-0.6c-0.8,0-1.2-0.4-1.4-0.6c-0.7-0.9-0.6-2.6-0.5-4l0.8-1.7
			c0.1-0.1,0.9-0.7,3.4-0.7c2.1,0,4.7,0.4,7.9,1.1l3.1,0.7l-2.1-2.3c-0.2-0.2-4.1-4.4-9.1-4.4c-0.7,0-1.4,0.1-2.1,0.3
			c-1.3,0.3-2.2,1-2.7,1.9c-0.1,0.2-0.2,0.5-0.3,0.7c0-0.2,0-0.3,0-0.5c0-0.9,0.6-1.8,1.7-2.7C150.7-78.3,151.6-78.6,152.7-78.6
			 M152.7-79.6c-1.1,0-2.3,0.3-3.4,1.2c-4.3,3.4-0.6,6.6-0.6,6.6s-2,7.3,2.5,7.4c0,0,10.2,20.8,30.4,25.1s43.3,10.5,46.9,18.3
			s4.4,21.4,4.4,21.4s11.3-0.3,3.7-13.6c0,0,3.5,4,6.4,4c0.6,0,1.2-0.2,1.8-0.7c0,0,0.4-5.5-10.8-14.2c0,0-4.7-19.3-19.6-34.2
			c-0.2,0-0.4,0-0.7,0c-3.3,0-9.1-0.7-17.8-4.2c5.1,1.4,9.1,2,12.2,2c1.4,0,2.6-0.1,3.5-0.4c0.3-0.1,0.6-0.2,0.9-0.3l0,0
			c0.3-0.1,0.5-0.2,0.8-0.3h0.1c0.2-0.1,0.4-0.2,0.6-0.4l0.1-0.1c0.2-0.1,0.3-0.3,0.5-0.4l0.1-0.1c0.1-0.1,0.2-0.3,0.3-0.4
			c0.1-0.1,0.1-0.2,0.1-0.2c0.1-0.1,0.1-0.3,0.2-0.4c0-0.1,0.1-0.3,0.1-0.4c0-0.1,0.1-0.2,0.1-0.3c0-0.2,0.1-0.5,0.1-0.8
			c0.1-3.4-4.9-4.9-8.9-4.9c-1.3,0-2.5,0.2-3.4,0.5c-3.4,1.1-8.7,4.4-9.1,4.4c0,0,0,0,0-0.1c2.4-2.5,3.9-3.7,4.6-4.3
			c-5.5-2.8-11.1-4.7-16.2-5.8c0.7,1,1.6,2.8,0.9,4.4c-0.7,1.5-2.6,2.3-5.7,2.3c-0.1,0-0.2,0-0.4,0c-1.5,0-2.9-0.2-4.2-0.6
			c-7-1.9-7.9-7.7-7.9-7.9v-0.1v-0.1l0,0c-3.8,0-6.2,0.4-6.2,0.4S156-79.6,152.7-79.6L152.7-79.6z M149.3-72.2c0,0-1.2-3.1,2.2-3.9
			c0.6-0.2,1.2-0.2,1.8-0.2c4.6,0,8.4,4.1,8.4,4.1c-3.7-0.8-6.3-1.1-8.1-1.1C149.8-73.3,149.3-72.2,149.3-72.2L149.3-72.2z
			 M172-51.9c2.5,0,7-0.4,13.1-2.8c9.4-3.7,3.7-13.6,3.7-13.6s8,7.8,0.8,13.7c-3.4,2.8-7.9,3.5-11.8,3.5c-4.4,0-8-1-8-1
			S170.5-51.9,172-51.9L172-51.9z"/>
	</g>
	<g>
		<path class="st1" d="M219.5-61.8c0.2,0.2,0.4,0.4,0.5,0.5c2.1,2.2,3.2,4.2,3.1,5.9c0,0.9-0.3,1.7-0.9,2.5c-1.6-2-3.3-3.9-5.1-5.7
			C218.4-59.4,219.2-60.5,219.5-61.8 M218.7-63.8c0.1,1.7-0.4,3.8-3.2,5c2.5,2.4,4.7,5,6.6,7.5c2.2-2,3.6-5.5-1.4-10.6
			C220.2-62.6,219.4-63.2,218.7-63.8L218.7-63.8z"/>
	</g>
</g>
</svg>
