<?xml version="1.0" encoding="utf-8"?>
<!-- Generator: Adobe Illustrator 16.0.0, SVG Export Plug-In . SVG Version: 6.00 Build 0)  -->
<!DOCTYPE svg PUBLIC "-//W3C//DTD SVG 1.0//EN" "http://www.w3.org/TR/2001/REC-SVG-20010904/DTD/svg10.dtd">
<svg version="1.0" id="Layer_1" xmlns="http://www.w3.org/2000/svg" xmlns:xlink="http://www.w3.org/1999/xlink" x="0px" y="0px"
	 width="441px" height="104px" viewBox="-164.417 -33 441 104" enable-background="new -164.417 -33 441 104" xml:space="preserve">
<g>
	<path fill="#3E8EDE" d="M-113.072,65.027c-25.919,0-47.013-21.087-47.013-47.007c0-25.922,21.092-47.014,47.013-47.014
		c25.922,0,47.008,21.092,47.008,47.014C-66.063,43.94-87.15,65.027-113.072,65.027z M-113.251-0.52c0.062,0,3.82,4.025,3.82,7.25
		c0,3.489-2.72,4.322-3.641,4.322c-0.046,0-0.102-0.005-0.159-0.01h-0.036c-0.06,0.004-0.12,0.01-0.162,0.01
		c-0.915,0-3.638-0.833-3.638-4.322C-117.066,3.506-113.319-0.52-113.251-0.52z M-148.651,20.634h4.288v-7.922h7.206V9.395h-7.206
		V4.992h7.443V1.683h-11.731V20.634z M-109.363,0.053h4.522l-5.256-18.953h-5.782l-5.448,18.953h4.189l1.204-4.235h5.484
		L-109.363,0.053z M-111.246-7.394h-3.94l1.834-8.241h0.302L-111.246-7.394z M-91.384,11.159c0,5.567,2.582,9.8,8.034,9.8
		c5.464,0,8.074-4.232,8.074-9.8c0-5.569-2.61-9.801-8.074-9.801C-88.802,1.358-91.384,5.59-91.384,11.159z M-86.817,11.159
		c0-3.637,0.893-6.597,3.465-6.597c2.582,0,3.511,2.959,3.511,6.597c0,3.639-0.931,6.599-3.511,6.599
		C-85.925,17.758-86.817,14.796-86.817,11.159z M-115.077,59.785c0.253-1.834,0.499-4.777,0.499-8.227c0-0.945,0-0.32,0-0.579
		c0-4.856-0.177-6.495-3.417-7.569c-5.003-1.656-7.048-7.239-5.95-14.195l-16.741-42.569c-8.707,7.675-14.198,18.89-14.198,31.372
		C-154.884,40.406-137.194,58.736-115.077,59.785z M-113.089,32.642c-6.661-1.554-9.133-7.621-9.133-13.01l-14.657-35.97
		c-0.956,0.663-1.885,1.371-2.784,2.103c3.224,7.641,17.691,41.972,17.71,42.022c2.559,6.167,7.218,4.124,8.344,9.215
		c0.27,1.234,0.288,1.773,0.288,1.773h0.5c0,0,0.01-0.541,0.288-1.773c1.126-5.091,5.771-3.047,8.335-9.215
		c0.019-0.05,14.487-34.381,17.706-42.022c-0.898-0.732-1.823-1.439-2.785-2.103l-14.651,35.97c0,5.389-2.478,11.456-9.137,13.01
		H-113.089z M-113.098,21.784c-2.824-0.63-6.345-3.437-6.803-7.047c-0.166-1.372-0.299-1.756-0.096-4.483l-12.844-29.073
		c-1.034,0.558-2.042,1.161-3.031,1.805c3.84,8.631,15.582,34.993,15.59,35.024c1.857,3.913,5.118,3.989,6.242,6.321
		c0.679,1.38,0.738,2.621,0.748,2.719h0.43c0.009-0.099,0.078-1.336,0.747-2.719c1.131-2.332,4.39-2.408,6.244-6.321
		c0.009-0.032,11.754-26.396,15.591-35.024c-0.975-0.644-1.993-1.247-3.031-1.805l-12.828,29.073
		c0.201,2.728,0.068,3.111-0.109,4.483c-0.457,3.61-3.978,6.417-6.788,7.047H-113.098z M-112.92,16.845l0.197-1.586
		c0.812-3.684,3.483-3.222,5.339-6.837c0.008-0.016,0.032-0.055,0.032-0.055c0.054-0.136,9.141-19.627,12.932-27.767
		c-5.617-2.81-11.949-4.398-18.649-4.398c-6.696,0-13.032,1.588-18.651,4.398c3.791,8.139,12.872,27.633,12.945,27.767
		c0,0,0.019,0.04,0.028,0.055c1.844,3.616,4.513,3.154,5.324,6.837l0.198,1.586H-112.92z M-71.257,18.021
		c0-12.483-5.504-23.697-14.196-31.373l-16.752,42.567c1.112,6.955-0.949,12.539-5.951,14.195c-3.241,1.074-3.419,2.716-3.419,7.569
		c0,0.259,0-0.366,0,0.579c0,3.449,0.262,6.393,0.499,8.227C-88.944,58.736-71.257,40.406-71.257,18.021z M-141.674,30.367
		c0,0,0.618,1.313,1.121,2.246c0.499,0.933,1.181,2.057,1.181,2.057l-1.105,0.645c0,0-0.837-1.396-1.606-3.007
		c-0.21,0.108-1.533,0.795-1.753,0.904c0.128,0.234,1.483,2.845,1.483,2.845l-1.118,0.645c0,0-1.373-2.669-1.491-2.895
		c-0.239,0.118-3.089,1.589-3.089,1.589l-0.682-1.356l6.98-3.632L-141.674,30.367z M-137.263,37.524l0.97,1.172l-6.106,5.105
		l-0.99-1.173l6.05-5.057L-137.263,37.524z M-131.604,42.878l1.209,0.864l-1.565,8.419l-1.386-0.796c0,0,0.348-1.716,0.388-1.883
		c-0.068-0.053-0.874-0.536-1.657-1.09c-0.796-0.568-1.571-1.206-1.644-1.257c-0.149,0.091-1.683,0.995-1.683,0.995l-1.186-1.013
		l7.447-4.195L-131.604,42.878z M-135.133,46.454c0.143,0.12,0.66,0.541,1.195,0.922c0.544,0.381,1.09,0.738,1.25,0.812
		c0.078-0.351,0.635-3.12,0.749-3.635C-132.392,44.825-134.813,46.263-135.133,46.454z M-126.569,45.977
		c0,0,1.291,0.644,3.122,1.268c1.249,0.435,2.311,0.771,3.351,1.001l-0.363,1.211c0,0-0.992-0.175-2.608-0.673
		c-0.093,0.266-2.191,6.266-2.191,6.266l-1.438-0.498c0,0,2.093-6.01,2.182-6.273c-1.505-0.562-2.552-1.12-2.552-1.12
		L-126.569,45.977z M-101.428,47.578c0.523,0.275,0.902,0.761,1.108,1.451c0.093,0.291,0.143,0.57,0.143,0.842
		c0,1.111-0.778,1.984-2.185,2.427c0,0-0.709,0.22-0.92,0.282c0.083,0.25,0.92,2.947,0.92,2.947l-1.396,0.359l-2.367-7.667
		l2.115-0.656C-102.952,47.236-102.073,47.24-101.428,47.578z M-104.383,49.022c0.068,0.236,0.655,2.109,0.723,2.338
		c0.292-0.086,0.929-0.29,0.929-0.29c0.211-0.062,0.709-0.26,0.947-0.713c0.078-0.15,0.12-0.316,0.12-0.486
		c0-0.133-0.028-0.265-0.068-0.411c-0.091-0.275-0.257-0.485-0.509-0.615c-0.43-0.231-1.006-0.174-1.37-0.064
		C-103.612,48.78-104.187,48.96-104.383,49.022z M-96.679,44.239l6.902,5.055l-1.228,0.866c0,0-1.386-1.057-1.524-1.157
		c-0.081,0.042-0.793,0.548-1.559,1.001c-0.726,0.438-1.507,0.825-1.586,0.87c0.035,0.181,0.304,1.872,0.304,1.872l-1.318,0.628
		l-1.16-8.462L-96.679,44.239z M-95.888,49.596c0.207-0.1,0.741-0.392,1.273-0.713c0.476-0.288,0.855-0.524,1.048-0.678
		c-0.28-0.213-2.437-1.852-2.882-2.198C-96.36,46.571-95.945,49.244-95.888,49.596z M-88.793,37.27l6.018,5.369l-1.084,1.271
		c0,0-5.643-1.648-6.5-1.878c0.635,0.61,4.138,4.299,4.138,4.299l-1.056,0.955l-5.672-5.762l1.333-1.194
		c0,0,5.447,1.625,6.303,1.852c-0.637-0.603-4.395-3.834-4.395-3.834L-88.793,37.27z M-86.042,33.263l6.971,4.044l-0.709,1.223
		l-7.009-4.053L-86.042,33.263z M-83.022,26.573l1.196,0.622l-0.12,0.139c-0.39,0.473-0.563,0.716-0.748,1.247
		c-0.091,0.243-0.201,0.706-0.019,1.059c0.088,0.183,0.247,0.318,0.477,0.391c0.532,0.18,0.989-0.283,1.516-0.818
		c0.736-0.749,1.646-1.671,3.121-1.176c1.496,0.508,2.004,1.841,1.386,3.657c-0.188,0.554-0.531,1.025-0.845,1.463l-0.073,0.094
		l-1.236-0.576l0.124-0.143c0.146-0.175,0.664-0.779,0.856-1.379c0.188-0.525,0.171-1.417-0.631-1.688
		c-0.662-0.23-1.164,0.283-1.744,0.882c-0.706,0.743-1.515,1.579-2.851,1.124c-0.587-0.198-1.027-0.57-1.274-1.067
		c-0.302-0.607-0.312-1.38-0.032-2.191c0.177-0.545,0.479-1.107,0.828-1.543L-83.022,26.573z"/>
</g>
<g>
	<path fill="#3E8EDE" d="M-42.043-19.682c3.844,0,7.373,2.864,7.373,9.52c0,6.656-3.528,9.52-7.373,9.52
		c-3.842,0-7.37-2.864-7.37-9.52C-49.413-16.82-45.885-19.682-42.043-19.682z M-42.043-3.243c2.147,0,3.873-1.83,3.873-6.92
		s-1.725-6.922-3.873-6.922c-2.146,0-3.871,1.832-3.871,6.922S-44.188-3.243-42.043-3.243z"/>
	<path fill="#3E8EDE" d="M-31.865-12.311c0-0.85-0.026-1.646-0.106-2.254H-29c0.025,0.823,0.106,1.671,0.106,2.493h0.051
		c0.398-1.062,1.432-2.705,3.475-2.705c0.214,0,0.372,0.053,0.558,0.079v3.076c-0.292-0.079-0.586-0.132-0.931-0.132
		c-1.353,0-2.836,0.823-2.836,3.366v7.479h-3.289v-11.403H-31.865z"/>
	<path fill="#3E8EDE" d="M-22.484,1.213c0.77,0.426,2.308,1.169,4.031,1.169c3.104,0,3.605-2.149,3.605-4.297v-1.3h-0.051
		c-0.532,1.061-1.458,2.307-3.609,2.307c-1.909,0-4.771-1.274-4.771-6.79c0-3.763,1.353-7.079,4.932-7.079
		c1.991,0,2.917,1.14,3.605,2.333h0.108c0-0.717,0.08-1.404,0.107-2.121h2.97c-0.052,0.716-0.107,1.432-0.107,2.147V-2.34
		c0,4.269-1.298,7.318-6.312,7.318c-2.174,0-3.899-0.559-4.693-0.849L-22.484,1.213z M-17.736-3.322c2.07,0,2.89-1.486,2.89-4.587
		c0-2.864-1.085-4.401-2.651-4.374c-1.725,0.025-2.387,1.618-2.387,4.401C-19.885-4.673-18.852-3.322-17.736-3.322z"/>
	<path fill="#3E8EDE" d="M-8.01-13.769c0.931-0.425,2.229-1.006,4.324-1.006c4.242,0,5.225,2.068,5.225,5.487v5.968
		c0,0.982,0.104,1.884,0.184,2.413H-1.25c-0.156-0.529-0.182-1.193-0.182-1.855h-0.055C-2.308-1.65-3.342-0.695-5.306-0.695
		c-2.122,0-4.083-1.458-4.083-4.004c0-3.712,3.023-4.641,7.186-4.641h0.663v-0.506c0-1.35-0.663-2.597-2.545-2.597
		c-1.645,0-3.103,0.796-3.737,1.325L-8.01-13.769z M-1.539-7.59h-0.292c-2.811,0-4.483,0.583-4.483,2.572
		c0,1.246,0.824,2.095,2.096,2.095c1.964,0,2.678-1.458,2.678-3.897V-7.59z"/>
	<path fill="#3E8EDE" d="M4.582-12.311c0-0.85-0.027-1.646-0.105-2.254h3.075c0.025,0.69,0.106,1.406,0.106,2.096H7.71
		c0.478-0.823,1.405-2.306,3.631-2.306c3.102,0,4.032,2.306,4.032,5.063v8.804h-3.289v-8.194c0-2.093-0.531-2.969-1.884-2.969
		c-1.722,0-2.33,1.458-2.33,3.208v7.955H4.583L4.582-12.311L4.582-12.311z"/>
	<path fill="#3E8EDE" d="M18.604-20.372h3.394v3.235h-3.394V-20.372z M18.658-14.564h3.287v13.657h-3.287V-14.564z"/>
	<path fill="#3E8EDE" d="M24.489-3.745l5.834-8.327h-5.651v-2.493h8.938v2.811L27.882-3.4h5.912v2.492h-9.307v-2.837H24.489z"/>
	<path fill="#3E8EDE" d="M36.682-13.769c0.93-0.425,2.229-1.006,4.323-1.006c4.243,0,5.224,2.068,5.224,5.487v5.968
		c0,0.982,0.106,1.884,0.184,2.413h-2.97c-0.159-0.529-0.185-1.193-0.185-1.855h-0.055c-0.822,1.113-1.854,2.068-3.815,2.068
		c-2.123,0-4.083-1.458-4.083-4.004c0-3.712,3.023-4.641,7.184-4.641h0.664v-0.506c0-1.35-0.664-2.597-2.546-2.597
		c-1.645,0-3.104,0.796-3.738,1.325L36.682-13.769z M43.153-7.59h-0.292c-2.809,0-4.481,0.583-4.481,2.572
		c0,1.246,0.823,2.095,2.096,2.095c1.962,0,2.678-1.458,2.678-3.897v-0.77H43.153z"/>
	<path fill="#3E8EDE" d="M58.553-1.252c-0.77,0.292-1.909,0.556-3.236,0.556c-4.507,0-6.417-3.154-6.417-7.028
		c0-3.898,2.016-7.052,6.601-7.052c1.036,0,2.257,0.318,2.866,0.557l-0.188,2.599c-0.583-0.292-1.404-0.663-2.306-0.663
		c-2.493,0-3.578,1.669-3.578,4.586c0,2.546,1.219,4.51,3.738,4.51c0.794,0,1.881-0.372,2.334-0.662L58.553-1.252z"/>
	<path fill="#3E8EDE" d="M60.832-20.372h3.393v3.235h-3.393V-20.372z M60.884-14.564h3.286v13.657h-3.286V-14.564z"/>
	<path fill="#3E8EDE" d="M73.105-14.776c2.782,0,5.994,1.457,5.994,7.026c0,5.729-3.211,7.054-5.994,7.054
		c-2.784,0-6.018-1.327-6.018-7.054C67.087-13.317,70.321-14.776,73.105-14.776z M73.105-3.03c2.123,0,2.599-2.44,2.599-4.721
		c0-2.28-0.476-4.693-2.599-4.693c-2.122,0-2.624,2.414-2.624,4.693C70.481-5.47,70.983-3.03,73.105-3.03z M73.237-19.896h3.076
		l-2.706,3.82h-2.066L73.237-19.896z"/>
	<path fill="#3E8EDE" d="M81.691-12.311c0-0.85-0.025-1.646-0.104-2.254h3.075c0.028,0.69,0.105,1.406,0.105,2.096h0.054
		c0.478-0.823,1.405-2.306,3.634-2.306c3.103,0,4.031,2.306,4.031,5.063v8.804h-3.29v-8.194c0-2.093-0.531-2.969-1.884-2.969
		c-1.721,0-2.331,1.458-2.331,3.208v7.955h-3.288v-11.403H81.691z"/>
	<path fill="#3E8EDE" d="M113.558-20.797v17.555c0,0.982,0.029,1.831,0.107,2.334h-3.076c-0.055-0.396-0.105-1.193-0.105-2.121
		h-0.083c-0.53,1.167-1.511,2.333-3.633,2.333c-3.395,0-4.798-3.236-4.798-7.028c0-4.455,1.776-7.052,4.721-7.052
		c1.961,0,3.048,1.112,3.524,2.173h0.051v-8.194H113.558z M107.67-3.11c1.937,0,2.597-2.094,2.597-4.667
		c0-2.652-0.742-4.587-2.546-4.587c-1.828,0-2.465,1.777-2.465,4.508C105.26-4.701,105.764-3.11,107.67-3.11z"/>
	<path fill="#3E8EDE" d="M126.599-1.571c-0.689,0.292-2.119,0.874-4.081,0.874c-4.404,0-6.311-3.154-6.311-6.843
		c0-4.082,2.146-7.237,5.621-7.237c2.943,0,5.461,1.723,5.461,7.29v0.637h-7.9c0,2.335,0.926,3.739,3.472,3.739
		c2.015,0,2.971-0.609,3.579-1.061L126.599-1.571z M124.107-8.917c0-2.414-0.796-3.632-2.283-3.632
		c-1.723,0-2.437,1.831-2.437,3.632H124.107z"/>
	<path fill="#3E8EDE" d="M137.039-20.797h3.288v19.89h-3.288V-20.797z"/>
	<path fill="#3E8EDE" d="M144.275-13.769c0.932-0.425,2.229-1.006,4.324-1.006c4.243,0,5.225,2.068,5.225,5.487v5.968
		c0,0.982,0.104,1.884,0.184,2.413h-2.973c-0.157-0.529-0.181-1.193-0.181-1.855h-0.056c-0.82,1.113-1.854,2.068-3.818,2.068
		c-2.122,0-4.082-1.458-4.082-4.004c0-3.712,3.022-4.641,7.185-4.641h0.664v-0.506c0-1.35-0.664-2.597-2.546-2.597
		c-1.646,0-3.103,0.796-3.737,1.325L144.275-13.769z M150.747-7.59h-0.293c-2.811,0-4.481,0.583-4.481,2.572
		c0,1.246,0.824,2.095,2.096,2.095c1.963,0,2.679-1.458,2.679-3.897V-7.59L150.747-7.59z"/>
	<path fill="#3E8EDE" d="M156.496-4.09c0.529,0.212,1.883,0.902,3.423,0.902c1.192,0,2.12-0.292,2.12-1.351
		c0-0.532-0.266-1.035-1.458-1.725l-1.353-0.794c-1.378-0.823-2.891-1.696-2.891-3.844c0-1.883,1.83-3.871,4.719-3.871
		c1.753,0,3.105,0.449,3.423,0.557l-0.188,2.546c-0.822-0.319-1.695-0.611-2.891-0.611c-1.325,0-1.88,0.504-1.88,1.327
		c0,0.744,0.584,1.14,1.535,1.75l1.618,1.035c1.696,1.087,2.545,1.855,2.545,3.447c0,2.52-2.121,4.031-5.089,4.031
		c-1.696,0-3.105-0.397-3.793-0.663L156.496-4.09z"/>
	<path fill="#3E8EDE" d="M174.998-19.419h4.033l6.151,14.533h0.054v-14.533h3.075v18.511h-4.057l-6.128-14.425h-0.051v14.425H175
		v-18.511H174.998z"/>
	<path fill="#3E8EDE" d="M192.385-13.769c0.931-0.425,2.229-1.006,4.323-1.006c4.245,0,5.225,2.068,5.225,5.487v5.968
		c0,0.982,0.105,1.884,0.184,2.413h-2.971c-0.158-0.529-0.185-1.193-0.185-1.855h-0.054c-0.822,1.113-1.855,2.068-3.817,2.068
		c-2.124,0-4.081-1.458-4.081-4.004c0-3.712,3.021-4.641,7.184-4.641h0.663v-0.506c0-1.35-0.663-2.597-2.544-2.597
		c-1.646,0-3.104,0.796-3.739,1.325L192.385-13.769z M198.857-7.59h-0.292c-2.811,0-4.482,0.583-4.482,2.572
		c0,1.246,0.825,2.095,2.096,2.095c1.965,0,2.679-1.458,2.679-3.897V-7.59L198.857-7.59z"/>
	<path fill="#3E8EDE" d="M214.258-1.252c-0.769,0.292-1.91,0.556-3.234,0.556c-4.511,0-6.42-3.154-6.42-7.028
		c0-3.898,2.015-7.052,6.603-7.052c1.036,0,2.256,0.318,2.864,0.557l-0.187,2.599c-0.584-0.292-1.403-0.663-2.307-0.663
		c-2.49,0-3.58,1.669-3.58,4.586c0,2.546,1.22,4.51,3.739,4.51c0.794,0,1.883-0.372,2.334-0.662L214.258-1.252z"/>
	<path fill="#3E8EDE" d="M216.535-20.372h3.396v3.235h-3.396V-20.372z M216.588-14.564h3.287v13.657h-3.287V-14.564z"/>
	<path fill="#3E8EDE" d="M228.809-14.776c2.784,0,5.996,1.457,5.996,7.026c0,5.729-3.212,7.054-5.996,7.054
		c-2.785,0-6.018-1.327-6.018-7.054C222.792-13.317,226.024-14.776,228.809-14.776z M228.809-3.03c2.122,0,2.602-2.44,2.602-4.721
		c0-2.28-0.479-4.693-2.602-4.693c-2.121,0-2.627,2.414-2.627,4.693C226.186-5.47,226.688-3.03,228.809-3.03z"/>
	<path fill="#3E8EDE" d="M237.397-12.311c0-0.85-0.026-1.646-0.107-2.254h3.075c0.028,0.69,0.105,1.406,0.105,2.096h0.056
		c0.476-0.823,1.401-2.306,3.632-2.306c3.102,0,4.031,2.306,4.031,5.063v8.804h-3.288v-8.194c0-2.093-0.531-2.969-1.884-2.969
		c-1.721,0-2.333,1.458-2.333,3.208v7.955h-3.287V-12.311z"/>
	<path fill="#3E8EDE" d="M261.176-1.571c-0.689,0.292-2.119,0.874-4.082,0.874c-4.403,0-6.313-3.154-6.313-6.843
		c0-4.082,2.148-7.237,5.621-7.237c2.942,0,5.461,1.723,5.461,7.29v0.637h-7.901c0,2.335,0.93,3.739,3.476,3.739
		c2.013,0,2.969-0.609,3.578-1.061L261.176-1.571z M258.685-8.917c0-2.414-0.794-3.632-2.281-3.632
		c-1.724,0-2.438,1.831-2.438,3.632H258.685z"/>
	<path fill="#3E8EDE" d="M264.035-4.09c0.529,0.212,1.882,0.902,3.423,0.902c1.193,0,2.119-0.292,2.119-1.351
		c0-0.532-0.265-1.035-1.457-1.725l-1.354-0.794c-1.378-0.823-2.891-1.696-2.891-3.844c0-1.883,1.832-3.871,4.721-3.871
		c1.751,0,3.104,0.449,3.422,0.557l-0.186,2.546c-0.822-0.319-1.697-0.611-2.89-0.611c-1.328,0-1.883,0.504-1.883,1.327
		c0,0.744,0.584,1.14,1.536,1.75l1.619,1.035c1.698,1.087,2.547,1.855,2.547,3.447c0,2.52-2.124,4.031-5.092,4.031
		c-1.697,0-3.105-0.397-3.793-0.663L264.035-4.09z"/>
	<path fill="#3E8EDE" d="M-45.434,10.545v11.988c0,3.076,0.927,4.083,2.915,4.083c1.936,0,2.891-1.006,2.891-4.083V10.545h3.395
		v11.988c0,4.878-2.811,6.788-6.286,6.788c-3.499,0-6.31-1.906-6.31-6.788V10.545H-45.434z"/>
	<path fill="#3E8EDE" d="M-32.953,17.65c0-0.845-0.026-1.644-0.104-2.254h3.074c0.027,0.692,0.106,1.409,0.106,2.097h0.054
		c0.478-0.824,1.404-2.307,3.633-2.307c3.104,0,4.032,2.307,4.032,5.065v8.803h-3.289v-8.193c0-2.093-0.53-2.972-1.884-2.972
		c-1.724,0-2.332,1.458-2.332,3.211v7.954h-3.289V17.65H-32.953z"/>
	<path fill="#3E8EDE" d="M-18.929,9.592h3.395v3.234h-3.395V9.592z M-18.877,15.398h3.289v13.656h-3.289V15.398z"/>
	<path fill="#3E8EDE" d="M-1.085,9.165v17.56c0,0.982,0.025,1.827,0.104,2.329h-3.075c-0.056-0.396-0.106-1.192-0.106-2.119h-0.082
		c-0.529,1.165-1.511,2.331-3.632,2.331c-3.395,0-4.799-3.231-4.799-7.027c0-4.452,1.776-7.05,4.72-7.05
		c1.964,0,3.049,1.114,3.528,2.174h0.051V9.167h3.291V9.165z M-6.974,26.853c1.936,0,2.597-2.093,2.597-4.666
		c0-2.652-0.743-4.587-2.545-4.587c-1.831,0-2.465,1.776-2.465,4.509C-9.386,25.264-8.88,26.853-6.974,26.853z"/>
	<path fill="#3E8EDE" d="M2.594,16.192c0.931-0.422,2.229-1.006,4.324-1.006c4.243,0,5.222,2.07,5.222,5.491v5.965
		c0,0.98,0.106,1.884,0.185,2.412H9.356c-0.16-0.528-0.188-1.192-0.188-1.854H9.115c-0.823,1.113-1.856,2.066-3.818,2.066
		c-2.123,0-4.083-1.456-4.083-4.002c0-3.712,3.024-4.641,7.186-4.641h0.664v-0.504c0-1.351-0.664-2.598-2.545-2.598
		c-1.646,0-3.104,0.794-3.74,1.324L2.594,16.192z M9.065,22.375H8.771c-2.809,0-4.481,0.583-4.481,2.568
		c0,1.247,0.822,2.098,2.097,2.098c1.964,0,2.679-1.459,2.679-3.898V22.375z"/>
	<path fill="#3E8EDE" d="M14.813,25.871c0.529,0.214,1.882,0.904,3.421,0.904c1.192,0,2.119-0.292,2.119-1.355
		c0-0.528-0.266-1.034-1.457-1.723l-1.354-0.794c-1.378-0.824-2.89-1.697-2.89-3.847c0-1.884,1.831-3.871,4.72-3.871
		c1.751,0,3.103,0.449,3.421,0.555l-0.185,2.547c-0.823-0.318-1.695-0.611-2.89-0.611c-1.328,0-1.883,0.504-1.883,1.328
		c0,0.744,0.584,1.14,1.538,1.75l1.619,1.034c1.697,1.089,2.545,1.857,2.545,3.449c0,2.518-2.122,4.028-5.091,4.028
		c-1.696,0-3.104-0.395-3.793-0.661L14.813,25.871z"/>
	<path fill="#3E8EDE" d="M32.917,17.731c0-0.982-0.025-1.831-0.104-2.335h3.076c0.051,0.398,0.105,1.195,0.105,2.123h0.079
		c0.531-1.165,1.513-2.334,3.632-2.334c3.393,0,4.801,3.235,4.801,7.028c0,4.454-1.777,7.052-4.719,7.052
		c-1.964,0-3.051-1.112-3.528-2.174h-0.053v7.694h-3.289V17.731L32.917,17.731z M38.753,26.853c1.831,0,2.466-1.773,2.466-4.505
		c0-3.156-0.505-4.748-2.414-4.748c-1.936,0-2.599,2.095-2.599,4.667C36.207,24.917,36.948,26.853,38.753,26.853z"/>
	<path fill="#3E8EDE" d="M47.761,16.192c0.931-0.422,2.229-1.006,4.324-1.006c4.241,0,5.224,2.07,5.224,5.491v5.965
		c0,0.98,0.105,1.884,0.183,2.412h-2.971c-0.158-0.528-0.184-1.192-0.184-1.854h-0.055c-0.823,1.113-1.854,2.066-3.816,2.066
		c-2.123,0-4.083-1.456-4.083-4.002c0-3.712,3.024-4.641,7.184-4.641h0.664v-0.504c0-1.351-0.664-2.598-2.546-2.598
		c-1.646,0-3.101,0.794-3.738,1.324L47.761,16.192z M54.233,22.375H53.94c-2.811,0-4.48,0.583-4.48,2.568
		c0,1.247,0.823,2.098,2.096,2.098c1.961,0,2.678-1.459,2.678-3.898v-0.768H54.233z"/>
	<path fill="#3E8EDE" d="M60.459,17.65c0-0.845-0.028-1.644-0.105-2.254h2.969c0.029,0.823,0.107,1.673,0.107,2.493h0.053
		c0.398-1.059,1.432-2.703,3.474-2.703c0.213,0,0.371,0.051,0.557,0.078v3.076c-0.292-0.078-0.585-0.132-0.931-0.132
		c-1.349,0-2.836,0.823-2.836,3.369v7.476h-3.288V17.65L60.459,17.65z"/>
	<path fill="#3E8EDE" d="M70.08,16.192c0.931-0.422,2.23-1.006,4.322-1.006c4.245,0,5.225,2.07,5.225,5.491v5.965
		c0,0.98,0.105,1.884,0.183,2.412h-2.967c-0.162-0.528-0.188-1.192-0.188-1.854H76.6c-0.821,1.113-1.855,2.066-3.816,2.066
		c-2.123,0-4.084-1.456-4.084-4.002c0-3.712,3.025-4.641,7.185-4.641h0.664v-0.504c0-1.351-0.664-2.598-2.543-2.598
		c-1.646,0-3.106,0.794-3.741,1.324L70.08,16.192z M76.551,22.375h-0.293c-2.807,0-4.481,0.583-4.481,2.568
		c0,1.247,0.821,2.098,2.096,2.098c1.963,0,2.679-1.459,2.679-3.898V22.375L76.551,22.375z"/>
	<path fill="#3E8EDE" d="M89.88,9.165h3.29v19.889h-3.29V9.165z"/>
	<path fill="#3E8EDE" d="M97.118,16.192c0.931-0.422,2.229-1.006,4.323-1.006c4.245,0,5.225,2.07,5.225,5.491v5.965
		c0,0.98,0.104,1.884,0.185,2.412h-2.971c-0.159-0.528-0.188-1.192-0.188-1.854h-0.052c-0.823,1.113-1.856,2.066-3.819,2.066
		c-2.122,0-4.083-1.456-4.083-4.002c0-3.712,3.023-4.641,7.186-4.641h0.664v-0.504c0-1.351-0.664-2.598-2.546-2.598
		c-1.646,0-3.105,0.794-3.741,1.324L97.118,16.192z M103.588,22.375h-0.292c-2.812,0-4.482,0.583-4.482,2.568
		c0,1.247,0.823,2.098,2.097,2.098c1.964,0,2.677-1.459,2.677-3.898V22.375L103.588,22.375z"/>
	<path fill="#3E8EDE" d="M124.902,24.603h-6.364l-1.326,4.451h-3.394l6.206-18.508h3.712l5.967,18.508h-3.501L124.902,24.603z
		 M124.186,22l-2.333-8.644H121.8L119.256,22H124.186z"/>
	<path fill="#3E8EDE" d="M131.657,9.165h3.289v19.889h-3.289V9.165z"/>
	<path fill="#3E8EDE" d="M138.498,9.592h3.396v3.234h-3.396V9.592z M138.547,15.398h3.29v13.656h-3.29V15.398z"/>
	<path fill="#3E8EDE" d="M145.042,17.625c0-0.981-0.051-1.725-0.105-2.229h3.29c0.025,0.718,0.103,1.434,0.103,2.149h0.056
		c0.503-1.063,1.565-2.361,3.446-2.361c2.307,0,3.05,1.431,3.446,2.174c0.664-0.954,1.646-2.174,3.66-2.174
		c2.971,0,3.926,2.123,3.926,5.436v8.432h-3.287v-8.616c0-1.696-0.531-2.547-1.752-2.547c-1.458,0-2.229,1.379-2.229,2.891v8.274
		h-3.288v-8.615c0-1.697-0.528-2.548-1.748-2.548c-1.46,0-2.229,1.38-2.229,2.891v8.273h-3.287V17.625L145.042,17.625z"/>
	<path fill="#3E8EDE" d="M175.769,28.393c-0.689,0.292-2.122,0.873-4.082,0.873c-4.401,0-6.313-3.153-6.313-6.841
		c0-4.083,2.15-7.239,5.622-7.239c2.943,0,5.463,1.723,5.463,7.291v0.638h-7.9c0,2.333,0.928,3.736,3.473,3.736
		c2.015,0,2.969-0.608,3.58-1.057L175.769,28.393z M173.279,21.045c0-2.413-0.797-3.634-2.283-3.634
		c-1.721,0-2.438,1.833-2.438,3.634H173.279L173.279,21.045z"/>
	<path fill="#3E8EDE" d="M179,17.65c0-0.845-0.028-1.644-0.105-2.254h3.075c0.027,0.692,0.105,1.409,0.105,2.097h0.054
		c0.477-0.824,1.404-2.307,3.634-2.307c3.102,0,4.031,2.307,4.031,5.065v8.803h-3.287v-8.193c0-2.093-0.532-2.972-1.886-2.972
		c-1.721,0-2.333,1.458-2.333,3.211v7.954h-3.285V17.65H179z"/>
	<path fill="#3E8EDE" d="M193.976,12.588l3.289-1.009v3.819h2.732v2.417h-2.732v7.08c0,1.457,0.53,1.883,1.485,1.883
		c0.583,0,1.008-0.162,1.247-0.292v2.331c-0.506,0.24-1.221,0.451-2.202,0.451c-2.442,0-3.819-1.113-3.819-3.975v-7.477h-2.174V15.4
		h2.174V12.588z"/>
	<path fill="#3E8EDE" d="M202.748,16.192c0.933-0.422,2.23-1.006,4.324-1.006c4.243,0,5.225,2.07,5.225,5.491v5.965
		c0,0.98,0.106,1.884,0.185,2.412h-2.974c-0.156-0.528-0.185-1.192-0.185-1.854h-0.054c-0.82,1.113-1.854,2.066-3.816,2.066
		c-2.124,0-4.085-1.456-4.085-4.002c0-3.712,3.022-4.641,7.185-4.641h0.664v-0.504c0-1.351-0.664-2.598-2.547-2.598
		c-1.646,0-3.099,0.794-3.737,1.324L202.748,16.192z M209.219,22.375h-0.292c-2.811,0-4.482,0.583-4.482,2.568
		c0,1.247,0.824,2.098,2.096,2.098c1.965,0,2.679-1.459,2.679-3.898V22.375L209.219,22.375z"/>
	<path fill="#3E8EDE" d="M224.622,28.712c-0.769,0.29-1.908,0.552-3.236,0.552c-4.508,0-6.417-3.152-6.417-7.026
		c0-3.898,2.016-7.052,6.602-7.052c1.037,0,2.255,0.317,2.867,0.556l-0.188,2.598c-0.582-0.29-1.405-0.663-2.306-0.663
		c-2.491,0-3.579,1.67-3.579,4.589c0,2.548,1.22,4.51,3.737,4.51c0.794,0,1.883-0.373,2.336-0.664L224.622,28.712z"/>
	<path fill="#3E8EDE" d="M226.898,9.592h3.396v3.234h-3.396V9.592z M226.951,15.398h3.287v13.656h-3.287V15.398z"/>
	<path fill="#3E8EDE" d="M239.171,15.186c2.786,0,5.996,1.458,5.996,7.028c0,5.729-3.21,7.052-5.996,7.052
		c-2.782,0-6.019-1.323-6.019-7.052C233.153,16.646,236.389,15.186,239.171,15.186z M239.171,26.935c2.125,0,2.601-2.44,2.601-4.721
		c0-2.28-0.476-4.693-2.601-4.693c-2.118,0-2.623,2.414-2.623,4.693C236.548,24.495,237.051,26.935,239.171,26.935z M239.304,10.068
		h3.077l-2.704,3.819h-2.07L239.304,10.068z"/>
	<path fill="#3E8EDE" d="M247.76,17.65c0-0.845-0.028-1.644-0.105-2.254h3.076c0.027,0.692,0.104,1.409,0.104,2.097h0.055
		c0.477-0.824,1.403-2.307,3.634-2.307c3.103,0,4.031,2.307,4.031,5.065v8.803h-3.288v-8.193c0-2.093-0.531-2.972-1.886-2.972
		c-1.724,0-2.332,1.458-2.332,3.211v7.954h-3.288L247.76,17.65L247.76,17.65z"/>
	<path fill="#3E8EDE" d="M-44.35,55.679h0.055l2.623-10.315h3.183l-4.987,16.257c-0.584,1.882-1.695,3.287-3.897,3.287
		c-0.875,0-1.619-0.185-2.097-0.345l0.188-2.518c0.372,0.129,0.743,0.265,1.248,0.265c0.979,0.022,1.404-0.586,1.828-1.992
		l0.24-1.166l-4.536-13.79h3.396L-44.35,55.679z"/>
	<path fill="#3E8EDE" d="M-29.666,39.13h3.289v19.889h-3.289V39.13z"/>
	<path fill="#3E8EDE" d="M-22.43,46.156c0.931-0.425,2.229-1.006,4.323-1.006c4.244,0,5.224,2.067,5.224,5.492v5.964
		c0,0.981,0.106,1.883,0.184,2.412h-2.972c-0.157-0.529-0.184-1.192-0.184-1.854h-0.054c-0.823,1.11-1.856,2.065-3.818,2.065
		c-2.123,0-4.081-1.456-4.081-4.004c0-3.713,3.021-4.639,7.185-4.639h0.663v-0.506c0-1.349-0.663-2.597-2.546-2.597
		c-1.645,0-3.102,0.796-3.738,1.324L-22.43,46.156z M-15.958,52.338h-0.292c-2.812,0-4.482,0.585-4.482,2.568
		c0,1.248,0.824,2.098,2.096,2.098c1.963,0,2.678-1.457,2.678-3.896V52.338z"/>
	<path fill="#3E8EDE" d="M5.354,54.565h-6.363l-1.326,4.453h-3.394l6.206-18.511h3.711l5.967,18.511h-3.5L5.354,54.565z
		 M4.637,51.964l-2.334-8.646H2.251l-2.546,8.646H4.637z"/>
	<path fill="#3E8EDE" d="M12.215,61.141c0.769,0.425,2.306,1.169,4.031,1.169c3.103,0,3.608-2.15,3.608-4.298v-1.299h-0.052
		c-0.53,1.06-1.459,2.303-3.608,2.303c-1.91,0-4.772-1.271-4.772-6.786c0-3.766,1.353-7.081,4.931-7.081
		c1.991,0,2.917,1.141,3.606,2.334h0.104c0-0.718,0.081-1.404,0.108-2.123h2.969c-0.052,0.719-0.106,1.435-0.106,2.149v10.075
		c0,4.271-1.299,7.32-6.311,7.32c-2.176,0-3.899-0.557-4.693-0.848L12.215,61.141z M16.961,56.606c2.07,0,2.891-1.487,2.891-4.588
		c0-2.864-1.088-4.405-2.652-4.378c-1.725,0.028-2.387,1.618-2.387,4.404C14.813,55.253,15.847,56.606,16.961,56.606z"/>
	<path fill="#3E8EDE" d="M26.13,47.613c0-0.845-0.026-1.642-0.104-2.252h2.969c0.028,0.822,0.106,1.671,0.106,2.49h0.055
		c0.397-1.058,1.429-2.703,3.472-2.703c0.215,0,0.372,0.053,0.557,0.079v3.076c-0.292-0.078-0.584-0.133-0.93-0.133
		c-1.354,0-2.834,0.823-2.834,3.368v7.477h-3.29V47.613H26.13z"/>
	<path fill="#3E8EDE" d="M35.622,39.555h3.395v3.234h-3.395V39.555z M35.673,45.361h3.29v13.654h-3.29V45.361z"/>
	<path fill="#3E8EDE" d="M51.528,58.677c-0.768,0.29-1.909,0.554-3.235,0.554c-4.51,0-6.418-3.154-6.418-7.027
		c0-3.896,2.015-7.051,6.603-7.051c1.036,0,2.255,0.317,2.865,0.556l-0.187,2.6c-0.583-0.289-1.405-0.663-2.307-0.663
		c-2.491,0-3.58,1.67-3.58,4.588c0,2.546,1.221,4.511,3.738,4.511c0.794,0,1.882-0.374,2.335-0.664L51.528,58.677z"/>
	<path fill="#3E8EDE" d="M64.333,56.765c0,0.848,0.027,1.646,0.105,2.254h-3.075c-0.028-0.688-0.105-1.406-0.105-2.092l-0.079-0.028
		l0.029,0.028c-0.638,1.007-1.487,2.304-3.634,2.304c-3.105,0-4.032-2.304-4.032-5.064v-8.803h3.288v8.194
		c0,2.092,0.585,2.971,1.962,2.971c1.749,0,2.254-1.594,2.254-3.345v-7.82h3.288V56.765L64.333,56.765z"/>
	<path fill="#3E8EDE" d="M67.616,39.13h3.289v19.889h-3.289V39.13z"/>
	<path fill="#3E8EDE" d="M75.409,42.552l3.29-1.01v3.819h2.729v2.416h-2.729v7.079c0,1.457,0.528,1.882,1.484,1.882
		c0.583,0,1.007-0.162,1.247-0.292v2.332c-0.505,0.24-1.218,0.451-2.201,0.451c-2.44,0-3.817-1.115-3.817-3.977v-7.476h-2.174
		v-2.416h2.174v-2.81H75.409z"/>
	<path fill="#3E8EDE" d="M94.315,56.765c0,0.848,0.022,1.646,0.105,2.254h-3.075c-0.03-0.688-0.107-1.406-0.107-2.092l-0.078-0.028
		l0.025,0.028c-0.636,1.007-1.486,2.304-3.634,2.304c-3.104,0-4.03-2.304-4.03-5.064v-8.803h3.288v8.194
		c0,2.092,0.583,2.971,1.96,2.971c1.752,0,2.255-1.594,2.255-3.345v-7.82h3.29V56.765L94.315,56.765z"/>
	<path fill="#3E8EDE" d="M97.384,47.613c0-0.845-0.028-1.642-0.105-2.252h2.969c0.028,0.822,0.105,1.671,0.105,2.49h0.055
		c0.398-1.058,1.432-2.703,3.472-2.703c0.214,0,0.371,0.053,0.56,0.079v3.076c-0.293-0.078-0.585-0.133-0.932-0.133
		c-1.349,0-2.834,0.823-2.834,3.368v7.477h-3.289V47.613z"/>
	<path fill="#3E8EDE" d="M107.004,46.156c0.931-0.425,2.23-1.006,4.323-1.006c4.245,0,5.225,2.067,5.225,5.492v5.964
		c0,0.981,0.107,1.883,0.185,2.412h-2.972c-0.157-0.529-0.185-1.192-0.185-1.854h-0.053c-0.823,1.11-1.856,2.065-3.819,2.065
		c-2.121,0-4.083-1.456-4.083-4.004c0-3.713,3.021-4.639,7.185-4.639h0.662v-0.506c0-1.349-0.662-2.597-2.546-2.597
		c-1.644,0-3.1,0.796-3.738,1.324L107.004,46.156z M113.477,52.338h-0.291c-2.812,0-4.483,0.585-4.483,2.568
		c0,1.248,0.823,2.098,2.096,2.098c1.962,0,2.678-1.457,2.678-3.896V52.338L113.477,52.338z"/>
</g>
</svg>
