<?xml version="1.0" encoding="utf-8"?>
<!-- Generator: Adobe Illustrator 24.1.2, SVG Export Plug-In . SVG Version: 6.00 Build 0)  -->
<svg version="1.1" id="Layer_1" xmlns="http://www.w3.org/2000/svg" xmlns:xlink="http://www.w3.org/1999/xlink" x="0px" y="0px"
	 viewBox="0 0 82.13 82.13" style="enable-background:new 0 0 82.13 82.13;" xml:space="preserve">
<style type="text/css">
	.st0{fill:#59C165;}
	.st1{fill:#FFFFFF;}
	.st2{fill:none;stroke:#FFFFFF;stroke-width:3;stroke-linecap:round;stroke-linejoin:round;stroke-miterlimit:10;}
	.st3{fill:none;stroke:#FFFFFF;stroke-width:4;stroke-linecap:round;stroke-linejoin:round;stroke-miterlimit:10;}
</style>
<circle class="st0" cx="41.01" cy="41.01" r="40"/>
<g>
	<g>
		<g>
			<path class="st1" d="M41.2,29.88c0.88,0,1.78,0.11,2.67,0.34c5.77,1.47,9.25,7.34,7.78,13.1c-0.76,3-5.51,9.83-9.34,13.56
				l-9.84-2.51C30.89,49.26,30,40.99,30.77,38C32.01,33.12,36.39,29.88,41.2,29.88 M41.2,26.88c-6.3,0-11.79,4.27-13.34,10.38
				c-0.97,3.81,0.14,12.81,1.75,18c0.31,1,1.11,1.76,2.12,2.02l9.84,2.51c0.25,0.06,0.49,0.09,0.74,0.09c0.77,0,1.52-0.3,2.09-0.85
				c3.9-3.79,9.18-11.16,10.15-14.97c0.91-3.57,0.37-7.27-1.5-10.44c-1.88-3.16-4.88-5.41-8.44-6.32
				C43.49,27.02,42.35,26.88,41.2,26.88L41.2,26.88z"/>
		</g>
		<g>
			<line class="st2" x1="41.55" y1="63.38" x2="30.03" y2="60.45"/>
		</g>
		<g>
			<line class="st2" x1="40.41" y1="67.86" x2="28.89" y2="64.92"/>
		</g>
		<g>
			<line class="st2" x1="28.76" y1="69.66" x2="38.26" y2="72.08"/>
		</g>
		<g>
			<path class="st1" d="M39.06,50.88c1.11,0.25,2.11,0.18,3.06-0.17c1.58-0.58,2.82-1.94,3.47-3.92c1.16-3.37-1.13-10.86-1.39-11.72
				c-0.08-0.21-0.33-0.42-0.55-0.52c-0.22-0.1-0.5-0.06-0.74,0.1c-0.71,0.5-7.04,5.12-8.18,8.54c-1.02,3.08,0.06,5.85,2.7,7.16
				c-0.45,1.47-0.64,3.22-0.63,5.13l1.74,0.44C38.49,54.01,38.64,52.29,39.06,50.88z M40.87,40.2L38,48.82
				c-1.48-0.77-2.52-2.43-1.67-5.02c0.72-2.12,4.4-5.29,6.59-6.99c0.76,2.72,1.75,7.51,1.07,9.56c-0.9,2.61-2.71,3.22-4.41,3.01
				l2.87-8.62c0.15-0.41-0.1-0.92-0.51-1.07C41.53,39.54,41.02,39.78,40.87,40.2z"/>
		</g>
	</g>
	<g>
		<line class="st3" x1="20.84" y1="38.05" x2="12.66" y2="35.97"/>
	</g>
	<g>
		<line class="st3" x1="68.65" y1="50.24" x2="60.48" y2="48.15"/>
	</g>
	<g>
		<line class="st3" x1="27.73" y1="23.34" x2="23.42" y2="16.09"/>
	</g>
	<g>
		<line class="st3" x1="61.62" y1="31.98" x2="68.87" y2="27.67"/>
	</g>
	<g>
		<line class="st3" x1="46.49" y1="20.53" x2="48.57" y2="12.36"/>
	</g>
</g>
</svg>
