<?xml version="1.0" encoding="utf-8"?>
<!-- Generator: Adobe Illustrator 24.1.2, SVG Export Plug-In . SVG Version: 6.00 Build 0)  -->
<svg version="1.1" id="Layer_1" xmlns="http://www.w3.org/2000/svg" xmlns:xlink="http://www.w3.org/1999/xlink" x="0px" y="0px"
	 viewBox="0 0 150 150" style="enable-background:new 0 0 150 150;" xml:space="preserve">
<style type="text/css">
	.st0{fill:#A4CCA3;}
	.st1{fill:#DFF0D7;}
	.st2{fill:#7C997A;}
</style>
<g>
	<circle class="st0" cx="70.4" cy="78.9" r="68.7"/>
	<g>
		<path class="st1" d="M119.4,5.7c-8.2,0.1-14.3,2.5-19.5,7.3c-3.4,3.3-6.8,6.6-10.2,9.9c-2.6,2.5-2.7,6.2-0.3,8.6
			c2.4,2.4,6,2.3,8.5-0.2c3.3-3.2,6.5-6.5,9.8-9.7c5.8-5.5,14.7-5.4,20.3,0.2c5.7,5.6,5.9,14.7,0.3,20.4c-9,9.2-18.1,18.2-27.2,27.3
			c-2.8,2.8-6.4,4.1-10.4,4.1c-3.9-0.1-7.1-1.6-9.9-4.2c-1.4-1.3-3-2-4.9-1.7c-2.4,0.3-4.1,1.6-4.9,3.9c-0.9,2.5-0.2,4.6,1.7,6.4
			c9.9,9.7,26.2,10,36.3,0.3c9.6-9.2,19.1-18.6,28.2-28.3c7.7-8.2,9.4-18.1,4.9-28.4C137.8,11.2,129.3,6.3,119.4,5.7z M54,122.9
			c6.8-0.1,13-2.5,18.1-7.4c3.1-3,6.2-6,9.3-9.1c2.5-2.5,2.7-6.1,0.4-8.5c-2.3-2.5-6-2.4-8.6,0.1c-3.4,3.3-6.7,6.6-10.1,9.8
			c-5.9,5.5-14.9,5.3-20.4-0.4c-5.5-5.6-5.7-14.6-0.1-20.3c9-9.1,18-18.2,27.1-27.2c5.3-5.3,13.6-5.5,19.4-0.7
			c0.6,0.5,1.2,1.1,1.9,1.6c2.3,1.6,5.5,1.3,7.5-0.7c2.1-2,2.4-5.3,0.6-7.6c-0.8-1.1-1.8-2.1-2.9-3c-10.3-8-24.9-7.3-34.3,1.8
			C53,60,44.1,68.9,35.2,77.7c-7.6,7.5-9.9,18.8-5.9,28.7C33.4,116.4,43.1,122.9,54,122.9z"/>
		<path class="st1" d="M119.4,5.7c9.9,0.6,18.3,5.4,22.7,15.8c4.4,10.4,2.8,20.2-4.9,28.4c-9.1,9.7-18.6,19-28.2,28.3
			c-10.1,9.7-26.4,9.4-36.3-0.3c-1.8-1.8-2.5-3.9-1.7-6.4c0.8-2.3,2.5-3.6,4.9-3.9c1.9-0.2,3.5,0.5,4.9,1.7c2.8,2.6,6.1,4.1,9.9,4.2
			c4,0.1,7.5-1.2,10.4-4.1c9.1-9.1,18.2-18.1,27.2-27.3c5.6-5.7,5.4-14.8-0.3-20.4c-5.6-5.6-14.6-5.7-20.3-0.2
			c-3.3,3.2-6.5,6.5-9.8,9.7c-2.5,2.5-6.1,2.6-8.5,0.2c-2.4-2.4-2.3-6.1,0.3-8.6c3.4-3.3,6.8-6.7,10.2-9.9
			C105.1,8.2,111.2,5.8,119.4,5.7z"/>
		<path class="st2" d="M54,122.9c-11,0-20.6-6.5-24.7-16.5c-4-9.9-1.7-21.2,5.9-28.7C44.1,68.9,53,60,62,51.3
			c9.4-9.1,24-9.8,34.3-1.8c1.1,0.8,2,1.9,2.9,3c1.7,2.3,1.4,5.5-0.6,7.6c-2,2-5.1,2.3-7.5,0.7c-0.7-0.5-1.3-1-1.9-1.6
			c-5.8-4.8-14.1-4.5-19.4,0.7c-9.1,9-18.2,18.1-27.1,27.2c-5.6,5.7-5.5,14.7,0.1,20.3c5.6,5.7,14.6,5.9,20.4,0.4
			c3.4-3.2,6.7-6.5,10.1-9.8c2.6-2.5,6.3-2.6,8.6-0.1c2.3,2.4,2.1,6-0.4,8.5c-3.1,3-6.2,6.1-9.3,9.1C67,120.4,60.8,122.8,54,122.9z"
			/>
	</g>
	<path class="st0" d="M108.1,21.4c5.8-5.3,14.6-5.2,20.1,0.3c5.7,5.6,5.9,14.7,0.3,20.4c2.2,3.5,4.1,7.2,5.7,11
		c1-1.1,2.1-2.1,3.1-3.2c7.7-8.2,9.4-18.1,4.9-28.4c-4.4-10.3-12.8-15.2-22.7-15.8c-8.2,0.1-14.3,2.5-19.5,7.3
		c-0.9,0.9-1.8,1.7-2.7,2.6C101.1,17.2,104.7,19.2,108.1,21.4z"/>
</g>
</svg>
