<?xml version="1.0" encoding="utf-8"?>
<!-- Generator: Adobe Illustrator 24.1.2, SVG Export Plug-In . SVG Version: 6.00 Build 0)  -->
<svg version="1.1" id="Layer_1" xmlns="http://www.w3.org/2000/svg" xmlns:xlink="http://www.w3.org/1999/xlink" x="0px" y="0px"
	 viewBox="0 0 91 91" style="enable-background:new 0 0 91 91;" xml:space="preserve">
<style type="text/css">
	.st0{fill:url(#SVGID_1_);}
	.st1{fill:url(#SVGID_2_);}
	.st2{fill:#E6E6E6;}
</style>
<linearGradient id="SVGID_1_" gradientUnits="userSpaceOnUse" x1="2.1756" y1="45.5017" x2="88.8277" y2="45.5017">
	<stop  offset="0" style="stop-color:#89C459"/>
	<stop  offset="1" style="stop-color:#7AA84E"/>
</linearGradient>
<circle class="st0" cx="45.5" cy="45.5" r="43.3"/>
<radialGradient id="SVGID_2_" cx="45.5017" cy="45.5017" r="37.5652" gradientUnits="userSpaceOnUse">
	<stop  offset="0" style="stop-color:#4D4D4D"/>
	<stop  offset="1" style="stop-color:#000000"/>
</radialGradient>
<circle class="st1" cx="45.5" cy="45.5" r="37.6"/>
<g>
	<path class="st2" d="M44.5,45.5c0,6-2.4,10.2-7.4,10.2c-5,0-7.3-4.5-7.3-10c0-5.6,2.4-10.1,7.4-10.1C42.5,35.5,44.5,40.1,44.5,45.5
		z M34.4,45.6c0,4.5,1,6.6,2.8,6.6c1.8,0,2.7-2.2,2.7-6.7c0-4.3-0.9-6.6-2.8-6.6C35.5,38.9,34.4,41.1,34.4,45.6z"/>
	<path class="st2" d="M52.6,39.9L52.6,39.9l-3.8,1.8l-0.8-3.4l5.2-2.4H57v19.5h-4.4V39.9z"/>
</g>
</svg>
