<?xml version="1.0" encoding="utf-8"?>
<!-- Generator: Adobe Illustrator 24.1.2, SVG Export Plug-In . SVG Version: 6.00 Build 0)  -->
<svg version="1.1" id="Layer_1" xmlns="http://www.w3.org/2000/svg" xmlns:xlink="http://www.w3.org/1999/xlink" x="0px" y="0px"
	 viewBox="0 0 1236 263" style="enable-background:new 0 0 1236 263;" xml:space="preserve">
<style type="text/css">
	.st0{fill:#5FB49C;}
	.st1{clip-path:url(#SVGID_2_);}
	.st2{fill:#63AD95;}
	.st3{fill:#569E88;}
	.st4{fill:#B1DDC0;}
	.st5{fill:#9ECCB5;}
	.st6{fill:#C9EABE;}
	.st7{fill:#4C8471;}
	.st8{fill:#AD7DD3;}
	.st9{fill:#4C286E;}
	.st10{fill:#C4538E;}
	.st11{fill:#D67CCF;}
	.st12{fill:#AA1E50;}
	.st13{fill:none;stroke:#4C286E;stroke-width:2;stroke-linecap:round;stroke-miterlimit:10;}
	.st14{fill:none;stroke:#821642;stroke-width:2;stroke-linecap:round;stroke-linejoin:round;stroke-miterlimit:10;}
	.st15{fill:#293882;}
	.st16{fill:#3A8DDE;}
	.st17{fill:none;stroke:#B569B3;stroke-linecap:round;stroke-miterlimit:10;}
	.st18{fill:#D67CCF;stroke:#B569B3;stroke-linecap:round;stroke-miterlimit:10;}
	.st19{fill:#374C99;}
	.st20{fill:none;stroke:#FEC67C;stroke-width:7;stroke-linecap:round;stroke-miterlimit:10;}
</style>
<rect x="0.5" y="26.2" class="st0" width="1236" height="213"/>
<g>
	<defs>
		<rect id="SVGID_1_" x="0.5" y="26.2" width="1236" height="213"/>
	</defs>
	<clipPath id="SVGID_2_">
		<use xlink:href="#SVGID_1_"  style="overflow:visible;"/>
	</clipPath>
	<g class="st1">
		<ellipse class="st2" cx="1057" cy="201.7" rx="260" ry="198.7"/>
		<ellipse class="st3" cx="1057" cy="201.7" rx="212" ry="162"/>
		<path class="st4" d="M499.2,163c6.5,4.8,10.6,10.6,12.3,17.3c2.2,8.7,0.6,16.6-4.9,23.8c-5.5,7.2-13.6,12.2-24.5,14.9
			c-11.2,2.8-21.3,2.2-30.3-2c-9-4.2-14.7-10.8-17-19.9c-1.6-6.4-1.5-12.3,0.5-17.9c1.9-5.6,6-11.9,12.3-18.9l9-10
			c2.9-3.3,5.3-7.2,7.2-11.7c1.8-4.5,2.4-7.9,1.6-10.1l-1.8-5.5c-0.3-0.9-0.2-1.9,0.3-2.8c0.5-0.9,1.3-1.4,2.2-1.5
			c1.7-0.3,3.4,0.4,5.2,2.3c1.8,1.9,3,4.2,3.7,7c2.4,9.4-0.3,20.6-8,33.9c-5,8.8-8.2,15.5-9.6,20.1c-1.3,4.6-1.4,9.3-0.2,14.1
			c1.5,5.8,4.4,10.1,8.7,12.8c4.3,2.7,9.3,3.4,14.8,2c4.8-1.2,8.5-3.7,11.2-7.6c2.7-3.8,3.5-7.8,2.4-12c-1.1-4.5-5-7.7-11.5-9.5
			c0.6-0.6,0.9-0.9,0.9-1l4.7-4.6C491.7,172.7,495.3,168.4,499.2,163z M507.1,161.4c7.4,3.8,12.2,10,14.4,18.7
			c2.5,9.9,0.4,19.4-6.5,28.5c-6.8,9.1-16.3,15.2-28.6,18.3c-15.3,3.9-29.2,1.5-41.6-7.1l0.4-1.4c12.8,7.4,25.9,9.4,39.3,5.9
			c12.2-3.1,21.4-8.9,27.8-17.4c6.4-8.5,8.3-17.7,5.8-27.5c-0.9-3.6-2.2-6.4-3.8-8.4l-6.8-8.6L507.1,161.4z M447.2,89.3
			c3.7-0.9,7.2-0.4,10.4,1.5c3.3,1.9,5.3,4.7,6.3,8.3c0.9,3.7,0.4,7.2-1.5,10.4c-1.9,3.3-4.8,5.3-8.4,6.3c-3.6,0.9-7.1,0.4-10.3-1.5
			c-3.3-1.9-5.3-4.8-6.3-8.4c-0.9-3.6-0.4-7.1,1.5-10.3C440.8,92.3,443.6,90.2,447.2,89.3z M472.4,113.4c5.8,2.7,9.5,7.2,11.1,13.6
			c1.6,6.4,1.5,13.5-0.4,21.4c-1,4.3-4.8,12.2-11.3,23.9l-3.1,5.6c-3.7,6.8-5,12.6-3.7,17.5c1,4,3.6,8.3,7.7,13l-4.4-2.2
			c-3.1-2.9-5.1-6.3-6-10c-1-3.9-1-7.7,0-11.3c1-3.6,3.3-8.5,7-14.5c5.9-9.7,9.7-17.9,11.3-24.5c1.7-6.6,1.6-13.4-0.2-20.4
			c-1.6-6.3-5.4-10.2-11.3-11.9l0.5-1.2c1.7-5.6,2.2-9.7,1.5-12.4c-0.8-3-3-6.2-6.8-9.5l0.6-1c4.8,2.6,7.7,6,8.8,10
			C474.6,102.5,474.1,107.2,472.4,113.4z M461.2,122.9c-6.1,1-11,0.1-14.9-2.7l0.4-1c4.4,1.3,8.7,1.6,13,0.9L461.2,122.9z"/>
		<path class="st5" d="M743.7,44.1c-5.1-6.2-7.7-12.8-7.7-19.8c0-8.9,3.5-16.2,10.6-21.9c7.1-5.6,16.2-8.5,27.4-8.5
			c11.6,0,21.2,3.1,28.9,9.4c7.7,6.3,11.6,14.1,11.6,23.5c0,6.6-1.6,12.3-4.9,17.2c-3.2,4.9-8.8,10-16.6,15.3l-11.2,7.5
			c-3.7,2.5-6.9,5.7-9.8,9.6c-2.9,3.9-4.2,7.1-4.1,9.5l0.3,5.8c0.1,1-0.2,1.9-1,2.6c-0.6,0.7-1.5,1-2.5,1c-1.6-0.1-3.1-1.2-4.3-3.5
			c-1.3-2.3-1.9-4.8-1.9-7.7c0-9.7,5.4-19.9,16.1-30.9c7-7.2,11.8-12.9,14.2-17c2.4-4.2,3.6-8.7,3.6-13.6c0-6-1.8-10.8-5.3-14.5
			c-3.5-3.7-8.2-5.6-14-5.6c-4.9,0-9.1,1.5-12.6,4.6c-3.5,3.1-5.3,6.7-5.3,11c0,4.6,2.9,8.6,8.7,12.1c-0.6,0.4-1,0.7-1.1,0.7
			l-5.7,3.3C753.3,36.4,748.7,39.8,743.7,44.1z M777.3,31.9l-2.3,1.3c-10.4,6-18.2,11-23.6,15l-1,0.6l-1.7-2.2l1.1-0.7
			c9.4-6.6,16.7-11.2,22-14c-5.8-3.7-8.7-8.4-8.7-14.3c0-2.9,1.2-5.3,3.5-7.3c2.3-2,5.2-3,8.7-3c6.7,0,11.7,3.8,15,11.4h-0.6
			c-4.3-5.7-9.2-8.6-14.7-8.6c-6.1,0-9.1,2.7-9.1,8.1C765.8,24.1,769.6,28.7,777.3,31.9z M774.6,100.3c3.8,0,7,1.3,9.7,4
			c2.7,2.7,4,5.9,4,9.7c0,3.7-1.3,6.9-4,9.6c-2.7,2.7-5.9,4-9.7,4c-3.7,0-6.9-1.3-9.6-4c-2.7-2.7-4-5.9-4-9.6c0-3.8,1.3-7,4-9.7
			C767.7,101.6,770.9,100.3,774.6,100.3z M791.8,104.7c3.9,3.6,5.9,8.1,5.9,13.5c0,4.8-1.8,9-5.3,12.6c-3.6,3.6-7.7,5.4-12.5,5.4
			c-5.6,0-10.2-2.1-13.7-6.3l0.6-0.7c4.5,2.7,8.6,4,12.4,4c4.4,0,8.1-1.5,11.3-4.6c3.2-3.1,4.8-6.7,4.8-10.9c0-3.9-1.4-8-4.2-12.2
			L791.8,104.7z M808,0.2c10.4,7.6,15.5,17.3,15.5,29.1c0,7.8-2.5,15.1-7.6,21.8c-2.6,3.5-10.1,9.8-22.6,19l-5.9,4.3
			c-7.2,5.4-10.8,10.4-10.8,15.2c0,2.5,1,5.4,2.9,8.7l-3.8-1.1c-1.3-2.5-1.9-5-1.9-7.6c0-3.7,1.3-7.2,3.8-10.3
			c2.5-3.1,7.2-7,13.8-11.6c11.3-7.8,19.1-14.5,23.4-20.1c4.2-5.7,6.3-12.2,6.3-19.6c0-5.4-1.3-10.6-3.8-15.4
			c-2.5-4.8-5.9-8.6-10.1-11.4L808,0.2z"/>
		<path class="st4" d="M648.1,95.7c-1,2.7-2.7,5.2-5.2,7.6c-2.4,2.4-5.4,4.4-9.1,5.9c-3.6,1.5-7.6,2.3-12,2.3c-4.4,0-9-0.9-13.8-2.7
			c-5.7-2.2-10.3-5.2-13.9-9c-3.6-3.8-5.9-8-6.8-12.5c-1-4.5-0.6-8.9,1-13.1c0.9-2.5,2.2-4.6,3.9-6.4c1.6-1.8,3.5-3.4,5.7-4.6
			c2.1-1.2,4-2.1,5.6-2.8c1.6-0.6,5.4-2.1,11.3-4.4c3.5-1.4,5.9-2.6,7.1-3.7c1.2-1.1,2.7-3.1,4.5-5.9c2.3-3.7,5.5-4.8,9.4-3.3
			c2.1,0.8,3.6,2.2,4.4,4c0.9,1.9,0.8,4.1-0.2,6.8c-1,2.6-2.2,4.8-3.6,6.5c-1.4,1.7-2.9,3.2-4.6,4.4c-1.7,1.2-3.4,2.2-5.2,2.9
			c-1.7,0.8-4.2,1.7-7.5,2.9c-4.5,1.7-7.9,3.1-10,4.3c-2.1,1.2-3.6,3-4.5,5.4c-1.2,3.1-1,6.2,0.5,9.2c1.5,3.1,4.1,5.3,7.8,6.7
			c3,1.2,5.7,1.6,8.1,1.2c2.4-0.4,4.4-1.3,6.3-2.8c1.8-1.5,3.6-3.4,5.5-5.7c1.6-1.9,3.2-3.2,4.8-3.9c1.6-0.7,3.4-0.7,5.6,0.2
			c2.3,0.9,3.8,2.4,4.7,4.5C648.8,91.9,648.8,93.9,648.1,95.7z M644.4,19.6c2.5,0.9,4.2,2.5,5.4,4.8c1.1,2.2,1.2,4.7,0.1,7.5
			c-0.6,1.5-1.5,2.7-2.9,3.8c-1.4,1.1-2.9,1.7-4.6,2.1c-1.7,0.3-3.3,0.2-4.8-0.4c-1.7-0.6-3-1.6-4.1-2.9c-1.1-1.3-1.7-2.8-2-4.4
			c-0.3-1.6-0.1-3.3,0.5-5c1.1-2.8,2.8-4.6,5.2-5.5C639.5,18.6,641.9,18.6,644.4,19.6z"/>
		<path class="st4" d="M612.3,197.7c2.1-4.1,5.6-7.7,10.4-10.6c4.8-2.9,10.5-4.4,17-4.7c6.5-0.2,13.2,1.4,20,4.9
			c6.3,3.2,11.3,7.2,14.9,12s5.8,9.8,6.4,15.2c0.6,5.3-0.3,10.4-2.7,15.1c-1.9,3.7-4.3,6.6-7.2,8.6c-2.9,2-5.9,3.5-9,4.5
			c-3.1,1-8.5,2.5-16.3,4.6c-2.2,0.6-4,1.2-5.4,1.8c-1.4,0.6-2.6,1.2-3.4,1.8c-0.9,0.6-1.6,1.3-2.3,2c-0.7,0.7-1.8,2-3.3,3.9
			c-3.1,4.1-6.9,5.1-11.2,2.9c-2.3-1.1-3.8-2.9-4.6-5.1c-0.8-2.3-0.5-4.9,1-7.8c1.9-3.7,4-6.5,6.5-8.6c2.5-2.1,5.2-3.7,8.1-4.8
			c2.9-1.1,6.6-2.2,11.2-3.4c4-1,7-1.8,8.8-2.5c1.9-0.6,3.6-1.5,5.2-2.6c1.6-1.1,2.9-2.5,3.8-4.3c1.8-3.5,2-7.1,0.6-10.8
			c-1.4-3.7-4.1-6.6-8.2-8.7c-4.8-2.4-8.9-3-12.4-1.7c-3.5,1.3-7.2,3.9-11.2,7.8c-4,4.2-8,5.2-12.2,3.1c-2.4-1.2-4.1-3.1-4.9-5.7
			C611.2,202,611.3,199.7,612.3,197.7z M607.9,285.5c-2.7-1.3-4.5-3.4-5.6-6.1c-1.1-2.7-0.9-5.6,0.7-8.7c1.4-2.7,3.5-4.6,6.4-5.5
			c2.9-0.9,5.7-0.6,8.5,0.8c2.7,1.4,4.6,3.5,5.5,6.3c0.9,2.8,0.7,5.6-0.7,8.3c-1.5,3-3.7,4.9-6.6,5.7
			C613.2,287,610.5,286.8,607.9,285.5z"/>
		<path class="st4" d="M863.2,188.9c5.4-2,11.1,0.2,13.2,5.7c4.2,11-1.7,28.5-21.7,36.1c-13.3,5.1-35,3.2-40.8-12
			c-3-7.8-0.5-15.8,7.6-23c11.3-10,0-17,12.4-21.7c5.2-2,9.8-0.1,11.8,5.2c4.1,10.9-4.7,20.8-0.5,31.8c1,2.7,3.6,6.1,7,4.8
			c3.6-1.4,2.5-4.9,1.8-7.7C851.6,199.4,854.6,192.2,863.2,188.9z M831.7,165.2c-7.8,3-16.6-1-19.6-8.8c-3-7.8,1-16.6,8.8-19.6
			c7.8-3,16.6,1,19.6,8.8C843.4,153.3,839.5,162.2,831.7,165.2z"/>
		<path class="st4" d="M1181.5,57.3c-4.5-1.7-6.9-6.3-5.1-10.9c3.5-9.3,17-17,33.9-10.7c11.2,4.2,23.9,17.5,19.1,30.4
			c-2.5,6.6-8.5,10.2-17.7,10.3c-12.7,0-9.5,10.8-20,6.8c-4.4-1.7-6.2-5.4-4.6-9.9c3.5-9.2,14.6-10.6,18.1-19.9
			c0.9-2.3,1.1-5.9-1.7-6.9c-3-1.1-4.3,1.7-5.4,3.9C1194.7,57,1188.8,60,1181.5,57.3z M1179.2,113.9c-6.6-2.5-10-9.9-7.5-16.5
			c2.5-6.6,9.9-10,16.5-7.5c6.6,2.5,10,9.9,7.5,16.5C1193.2,113,1185.8,116.3,1179.2,113.9z"/>
		<path class="st4" d="M50.2,147.3l14.6-51.5l61.5,14.6l-14.6,51.5l-3.6-0.9c-0.2,1.6-0.7,4.1-1.5,7.3c-2.3,9.5-5.7,17-10.2,22.9
			c-4.6,6.1-10,11-16.4,14.7c-6.4,4-11.4,6.8-15,8.9c-3.3,1.8-5.3,4-6,6c0.2,0.3,0.2,0.3,0.3,0.6c-0.1,0.2-0.1,0.5-0.1,0.5
			c-0.3,2.1,3.1,4.1,9.8,6.1c6.6,1.3,15.2,2.2,25.5,2.5s19.6,0.1,28.2-0.9l-20.3,52c-7.2,0-15.8-0.9-26-2.1
			c-10.4-1.3-18.7-2.8-24.8-4.2c-20.5-5.3-35.4-11.8-44.9-19.3s-14.9-14.5-16.4-21.3c-1.5-6.8-1.7-13.8-0.5-20.9
			c2-8.4,5.8-15.3,11.2-21c5.4-5.6,12.7-11.3,22.5-17.1c9.8-6,16.6-10.6,20.8-13.9c4.1-3.3,6.8-7.7,8.2-13.3l0.1-0.5L50.2,147.3z
			 M56.4,219.7c0.7-2.9,3-5.5,7.1-7.9c4.1-2.4,8.9-5.3,14.7-8.5c5.5-3.2,10.7-7.7,15.1-13.4c4.4-5.6,7.9-12.9,10.1-22.2l1.8-7.5
			L56,148.7c-2.3,6.8-5.8,12.5-10.8,16.3c-5,4.1-11.9,8.6-20.7,13.7c-9.1,5-16,10-21,15.1c-5.1,5.2-8.6,12.1-10.6,20.6
			c-1.8,8.6-1,16.2,2.2,23c3.2,6.7,8.1,12.2,14.6,16.9c6.3,4.6,13.3,8.2,20.8,10.9c7.6,3,15.5,5.3,23.6,7.3c7.5,1.8,14.8,3,22,3.8
			c7.5,0.8,15.4,1.5,24.2,1.9l17.8-44.7c-4.7,0.6-12.1,0.7-22.3,0.4c-10.2-0.3-19.1-1.2-26.6-2.7c-8.7-2.8-13-5.5-13-8.6
			C56.3,221.1,56.2,220.2,56.4,219.7z M26.1,252.7c-8-3.6-14.5-8.5-19.2-14.6c-4.6-5.9-6.2-13-4.7-21.4c1.6-6.6,4.8-12.2,9.8-17
			s11.9-10.1,21-15.8c9-5.7,15.6-10.2,19.6-13.2c4.1-3.1,6.7-7,8-11.5l33.7,8c-1.8,7.7-4.7,13.7-8.8,18c-4.2,4.5-9.7,8.7-16.6,12.5
			c-6.9,4.1-12.3,7.4-15.5,9.9c-3.3,2.8-5.4,6.6-6.6,11.8c-2.5,10.6,5.3,18,23.1,22.2c9.3,2.2,20.6,3,34.1,2.1l-9.7,24.7
			c-4.9-0.7-9.7-1.4-14.6-1.8c-5.1-0.5-9.3-1.2-12.3-1.7c-3-0.5-6.2-1-9.2-1.7l-4.5-1.1C43.1,259.3,34.1,256.2,26.1,252.7z
			 M54,145.1l55.6,13.2l12.8-45.7L67.3,99.5L54,145.1z M66.3,138.7l8.1-27.9l36.6,8.7l-8.1,27.9L66.3,138.7z"/>
		<path class="st6" d="M256.2,124.4l-14.6,51.5l-61.3-14.6l14.4-51.5l3.6,0.9c0.2-1.6,0.7-4.1,1.4-7.1c2.2-9.3,5.7-17,10.2-22.9
			c4.5-5.9,10-10.8,16.4-14.5c6.4-4,11.2-6.9,14.8-8.9c3.6-2,5.5-4,6-6c0.7-2.9-2.5-5.4-10-7.2c-6.8-1.6-15.1-2.6-25.1-2.9
			c-10.2-0.3-19.6-0.1-28.2,0.9l20.3-52c6.9,0,15.3,0.8,25.8,2.1c10.4,1.3,18.9,2.8,25,4.3c20.7,5.4,35.7,11.8,45.1,19.3
			s14.9,14.5,16.4,21.3c1.5,6.8,1.5,13.7,0.3,20.9c-2,8.6-5.9,15.6-11.2,21c-5.4,5.6-13,11.3-22.5,17.1
			c-9.7,5.8-16.6,10.4-20.8,13.9c-4.4,3.5-7.2,8.1-8.8,13.7l0.5,0.1L256.2,124.4z M250,51.9c-0.6,2.7-2.9,5.3-7.1,7.6
			c-4.2,2.6-9,5.5-14.5,8.7c-5.8,3.2-10.9,7.7-15.4,13.5c-4.4,5.6-7.9,12.9-10.3,22.2c-0.2,1.6-0.5,4-1.3,7.3l48.8,11.6
			c2.4-7.1,6.1-12.6,11.1-16.5c4.7-3.9,11.6-8.5,20.6-13.5c9.1-5.2,16.1-10.3,21.1-15.3c5-4.8,8.5-11.6,10.6-20.4
			c2.4-11.1,0.4-20.9-5.6-28.8s-14.1-14.1-24-18.6c-9.9-4.5-20.6-8-31.9-10.7c-11.8-2.6-27.1-4.5-46.1-6l-17.6,45
			c4.7-0.6,12.3-0.6,22.5-0.4c10.2,0.3,18.8,1.1,25.9,2.8c8.8,2.1,13.4,4.9,13.3,8.4C250.2,50.3,250.2,51.3,250,51.9z M280.8,19.1
			c8,3.6,14.3,8.2,19.1,14.3c4.6,5.9,6.2,13.2,4.6,21.7c-1.6,6.6-4.9,12.5-9.8,17.3c-5.2,4.7-12.2,10-20.9,15.3
			c-8.7,5.3-15.2,9.8-19.6,13c-4.1,3.1-6.9,7-8.3,11.7l-33.5-8c1.8-7.5,4.6-13.2,8.7-17.5c4.1-4.3,9.7-8.5,16.6-12.5
			c7-4.3,12.1-7.6,15.3-10.2c3.3-2.8,5.4-6.6,6.6-11.8c1.6-6.6-0.1-11.5-5.4-14.7c-5-3.1-10.8-5.7-17.8-7.6
			c-9.3-2.2-20.6-3-33.9-2.1l9.5-24.7c7.2,1,12.5,1.5,16.5,2c4,0.5,7.5,0.8,10.4,1.3c3,0.5,5.7,1.1,8.6,1.8l5,1.2
			C263.3,12.3,272.8,15.5,280.8,19.1z M252.4,126.6l-55.6-13.2L184,158.8l55.2,13.1L252.4,126.6z M240.1,132.9l-8.1,27.9l-36.6-8.7
			l8.1-27.9L240.1,132.9z"/>
		<path class="st5" d="M567.8,87c2,16-7.1,26.2-22.3,28.8c-12.1,2-26.5-1.8-28.8-15.7c-1.5-9,2.6-12.6,6.8-15.7
			c4.2-3.2,8.5-5.7,7.3-12.4l17.7-3c2,11.6-1.3,15.9-4.9,18.6c-3.5,2.9-7.4,3.7-6.6,8.4c0.4,2.7,2.9,4,5.7,3.6
			c5.6-0.9,6.1-4.5,5.3-9.2L567.8,87z M548.6,63.2l-19.8,3.3l-3.2-18.9l19.8-3.3L548.6,63.2z"/>
		<path class="st6" d="M551.9,170.4c0.6-10.7,7-21.8,23.7-21.8c16.6,0,22.2,10,22.7,17.6c0,10.5-6,12.2-11.6,15.3
			c-3.8,2.1-4.8,3.8-4.8,7.7h-15.8c-0.2-3.5-0.6-11.4,6-15c2.6-1.5,7.9-2.8,7.9-6.7c0-2.8-1.8-4.4-4.9-4.4c-4.1,0-5.7,3.5-5.4,7.3
			H551.9z M565.1,194.2h17.8v16.9h-17.8V194.2z"/>
		<path class="st6" d="M182.5,184.2c1.6,7.5,0.9,13.8-2.1,19.1c-3,5.3-8,8.7-15.2,10.2c-5.9,1.2-11.1,0.7-15.6-1.5
			c-4.5-2.2-7.3-6-8.4-11.4c-0.9-4.5-0.8-8.2,0.5-11.2c1.3-3,3.2-6.1,5.6-9.4c3.1-4.6,5.1-8.5,6-11.6c0.9-3.1,0.8-7-0.2-11.7
			l2.1-0.4c1,4.7,1.1,8.7,0.4,12c-0.7,3.3-2.3,6.7-4.7,10.2c-2.4,3.5-4.3,6.3-5.8,8.5c-2.2,4.3-2.8,8.7-1.9,13.1
			c1,4.8,3.5,8.1,7.4,10.1c3.9,1.9,8.6,2.4,14.1,1.2c6.7-1.4,11.3-4.5,13.9-9.2c2.6-4.8,3.2-10.6,1.7-17.6L182.5,184.2z
			 M151.3,137.4l2.1,10.1l-2.1,0.4l-2.1-10.1L151.3,137.4z"/>
		<path class="st4" d="M361.9,78.8c-2.2-10.6-1.2-19.6,3-27.1c4.2-7.5,11.4-12.3,21.6-14.5c8.4-1.8,15.8-1.1,22.1,2.1
			c6.3,3.2,10.3,8.6,11.9,16.2c1.3,6.4,1.1,11.6-0.7,15.8c-1.8,4.2-4.5,8.7-8.2,13.5c-4.5,6.6-7.3,12-8.5,16.4
			c-1.2,4.4-1.1,9.9,0.3,16.6l-2.9,0.6c-1.4-6.7-1.6-12.3-0.5-17.1c1.1-4.7,3.2-9.5,6.6-14.4c3.3-4.9,6.1-8.9,8.3-12.2
			c3.2-6.2,4.1-12.4,2.8-18.7c-1.4-6.8-4.9-11.5-10.5-14.3c-5.6-2.8-12.2-3.3-20-1.7c-9.5,2-16.1,6.4-19.8,13.1
			c-3.7,6.8-4.5,15.1-2.4,25L361.9,78.8z M406,145.1l-3-14.4l2.9-0.6l3,14.4L406,145.1z"/>
		<path class="st6" d="M723.4,302.8c-14.9-7.6-22.5-25.7-16.3-41.5c7-17.9,25.4-25.5,46.1-20.3c4.1,1,5.3,1.3,7.2-3.2
			c1-2.5,2.8-4.2,5.7-3.1c4.2,1.6,3,4.6,1.7,7.9l-9.2,23.5c-1.8,4.6-1.5,5.2-6.7,3.2c-11-4-21.3,0.9-25.5,11.8
			c-1.6,4.2-2.3,9.2,0.2,13.6L723.4,302.8z M765.9,229.4c-8.7-3.4-12.4-12.9-9.2-21c3.2-8.1,12.3-12.6,21-9.2
			c8.7,3.4,12.4,12.9,9.2,21C783.7,228.3,774.6,232.7,765.9,229.4z M733,298.1c2,0.1,4,0.4,4.9-1.9c0.5-1.3,0.4-1.9,0.5-3.3
			c0-1.9,0.1-3,0.9-5.1c2.7-6.8,10.8-9.8,17.6-7.1c7.5,2.9,12.1,10.7,9,18.6c-3.1,8-15.2,15.1-36.1,7L733,298.1z"/>
		<path class="st4" d="M688.1,105.9c-1.6,1.3-3.3,2.4-2.3,4.8c0.5,1.3,1,1.7,1.9,2.8c1.3,1.4,2,2.3,2.8,4.4
			c2.6,6.9-1.3,14.5-8.2,17.1c-7.6,2.9-16.1,0.3-19.2-7.7c-3.1-8,1-21.5,21.9-29.5L688.1,105.9z M721.5,208.8
			c-8.7,3.3-17.8-1.2-20.9-9.3c-3.1-8.1,0.6-17.6,9.3-20.9c8.7-3.3,17.8,1.2,20.9,9.3C733.9,196,730.2,205.4,721.5,208.8z
			 M691.9,95.6c16.1-4.5,33.9,3.8,40,19.6c6.9,17.9-1.6,36-20.3,46.1c-3.7,2.1-4.8,2.6-3.2,7.2c1,2.5,0.8,5-2.1,6.1
			c-4.2,1.6-5.3-1.3-6.6-4.7l-9.1-23.5c-1.8-4.6-2.4-4.9,2.8-6.9c10.8-4.5,15.1-15,10.9-25.9c-1.6-4.2-4.5-8.4-9.3-9.9L691.9,95.6z"
			/>
		<path class="st4" d="M48.9,12.3V5.6h4.9l-0.2,58.6c7-0.4,12.9-2.7,18-6.8c4.2-3.5,6.3-7.4,6.3-11.7c0-0.9-0.1-1.8-0.3-2.8
			c-0.3-1.4-0.4-2.3-0.4-2.9c0-0.7,0.3-1.3,0.9-1.8c0.6-0.5,1.3-0.8,2.1-0.8c1.1,0,2.1,0.6,2.8,1.8s1.1,2.6,1.1,4.4
			c0,3.5-1.1,7-3.4,10.6c-2.2,3.5-5.2,6.6-9,9c-6.2,4.1-14.1,6.2-23.9,6.2c-12.5,0-22-3.3-28.7-9.9c-5-5-7.5-11.3-7.5-18.9
			c0-6.5,2-12.2,6.1-17c3.3-3.9,7.2-6.7,11.7-8.3C33.8,13.7,40.4,12.6,48.9,12.3z M51.3-35.9c6.4,0,11.7,1.5,15.8,4.4
			c4.1,3,6.1,6.8,6.1,11.5c0,4.8-1.8,8.7-5.5,11.7c-4.1,3.3-9.5,5-16.1,5C45.2-3.3,40-4.9,36-7.9c-4-3-6-7-6-11.8
			c0-4.3,1.6-7.9,4.8-10.8C38.6-34.1,44.1-35.9,51.3-35.9z"/>
		<path class="st4" d="M333,203v6.7h-4.9l0.2-58.5c-7,0.4-12.9,2.7-18,6.9c-4.2,3.5-6.3,7.3-6.3,11.6c0,0.9,0.1,1.8,0.3,2.8
			c0.3,1.4,0.4,2.3,0.4,2.9c0,0.7-0.3,1.3-0.9,1.8c-0.6,0.5-1.3,0.8-2.1,0.8c-1.1,0-2.1-0.6-2.8-1.8s-1.1-2.6-1.1-4.4
			c0-3.5,1.1-7,3.4-10.6c2.2-3.5,5.2-6.6,9-9c6.2-4.1,14.1-6.2,23.9-6.2c12.5,0,22,3.3,28.7,9.9c5,5,7.5,11.3,7.5,18.8
			c0,6.5-2,12.2-6.1,16.9c-3.3,3.9-7.2,6.7-11.7,8.3C348.1,201.6,341.6,202.6,333,203z M330.4,218.6c6.4,0,11.6,1.5,15.6,4.6
			s6,7,6,11.8c0,4.4-1.6,8-4.8,10.9c-4,3.6-9.6,5.4-16.6,5.4c-6.4,0-11.7-1.5-15.8-4.4c-4.1-3-6.1-6.8-6.1-11.5
			c0-4.8,1.8-8.7,5.5-11.7C318.2,220.4,323.6,218.7,330.4,218.6z"/>
		<ellipse class="st7" cx="1057" cy="201.7" rx="131" ry="100.1"/>
	</g>
</g>
<g>
	<path class="st8" d="M1006.2,28.4c0,0,23.1-18.9,32.5-24.7s30.5-2.7,30.5-2.7s16.7,9.4,21.8,22.8c5.2,13.4,3,33.4,3,33.4
		L1006.2,28.4z"/>
	<path class="st8" d="M1052.1,32.2c0,0-106.2-25.2-144.6-0.1l247.2,73.7C1154.7,105.9,1163.3,79.8,1052.1,32.2z"/>
	<path class="st9" d="M1151.2,100.7c0,0-54.4-32.8-104.3-48.2C997,37.1,918.3,31.2,918.3,31.2s-7.9-0.3-10.7,1.9s15,12.5,15,12.5
		s12.8,10.7,110.7,41.7s118.8,22.1,118.8,22.1S1158.6,105,1151.2,100.7z"/>
	<path class="st10" d="M1166.5,169.6c18.6-28-24.3-50.6-24.3-50.6c6.1-6.1,5.6-14.2,2.8-21.8c-15.6-8.9-58.3-32.3-98.2-44.6
		c-17.7-5.4-39-9.7-59.1-12.9C977,47.4,962,64,952,98.6c-17.5,60,78.2,32.7,78.2,32.7s3.1,42.2,30.6,62c38.2,3.1,71.3,5.3,84.6,4.5
		C1184.7,195.7,1166.5,169.6,1166.5,169.6z"/>
	<path class="st10" d="M1109.7,123.2c14.9,34.3,0.2,91,0.2,91s-57.6-9.4-116.7-37.1s-1.8-64.5-1.8-64.5L1109.7,123.2z"/>
	<path class="st11" d="M1015.7,46.4c0,0-24.4,15-28.3,38.2c-3.9,23.1,4,45.2,4,45.2s5.2,14.4,41.1,16.2c0,0,2.8,9.7,2.1,12.7
		c-0.7,3,15.6,8.5,15.6,8.5l18.3-17.5c0,0-2.2-2.8-5-11.4c0,0,16.1-8.4,19.1-19.5s3.2-20.1,3.2-20.1s-13,10.1-23.7,12
		c0,0-6.7-8.3-2.5-28.5C1059.5,82.1,1004,82.1,1015.7,46.4z"/>
	<path class="st12" d="M1030.5,152.6c0,0,5.8,6.1,16.4,6.5c10.6,0.4,22.3-16.5,22.3-16.5l6.3,11.3c0,0,4.1-13.6,17.3-13.4
		c13.2,0.1,31.4,11.7,30,26.4c-1.3,14.6-2.8,27.9-2.8,27.9s15.4,10.5,8.4,20.4c-7,9.9-4.1,13.6-4.1,13.6s5.4,31.2-19,24.1
		c-24.4-7.1-57.2-20-57.2-20l-32.5,5.5l-41.6-8.2l-22.5-0.6c0,0-15-35.6,18.1-49.1c0,0,7.2-22,22.7-27.1c16.7-5.4,25.4,4.3,25.4,4.3
		l10.8,3L1030.5,152.6z"/>
	<path class="st13" d="M1020.4,116.4c0,0-0.3-3.9,7.5-4.6c7.9-0.7,11.5,6.9,11.5,6.9"/>
	
		<ellipse transform="matrix(0.1147 -0.9934 0.9934 0.1147 833.6104 1113.9255)" class="st9" cx="1041.8" cy="89.3" rx="5.4" ry="2"/>
	<ellipse transform="matrix(0.977 -0.2132 0.2132 0.977 4.057 218.7439)" class="st9" cx="1016.1" cy="90.6" rx="2" ry="5.4"/>
	<path class="st14" d="M1066.1,176.1l-13.8,5.8l-5.8-20.6l-8.1,20.5c0,0-9.7-1.5-9.1-17.4"/>
	<path class="st15" d="M1063.3,239.4c0,0,3.1-9.5,4.5-24.1c0,0-5.1-27.3,5-47.9c0,0-15.9,14.6-19.6,32.1c0,0-12.9,3.8-31.6,0.2
		c0,0,2-22.6,7.1-38.9c0,0-21.1,15.1-26.8,55.1c0,0-1,18.6-7.4,20.4C994.4,236.3,1026,250.6,1063.3,239.4z"/>
	
		<ellipse transform="matrix(0.1147 -0.9934 0.9934 0.1147 699.4202 1185.9894)" class="st16" cx="1015.1" cy="200.6" rx="5.5" ry="4.6"/>
	
		<ellipse transform="matrix(0.1147 -0.9934 0.9934 0.1147 739.2203 1232.9951)" class="st16" cx="1061.4" cy="201.8" rx="5.5" ry="4.6"/>
	<path class="st10" d="M1066.9,212.5c-1.2,1.1-2.4,2.4-2.7,4c-0.2,1.3,0.2,2.7,0.3,4.1c0.4,5-3.8,8.9-5.7,13.5
		c-3,7.4,0.4,16.4,6.6,21.5c6.2,5.1,14.4,7.1,22.4,7.6c11.5,0.7,23.7-1.5,32.4-9.1c1.2-1.1,2.4-2.3,3.3-3.7c1.5-2.5,2-5.5,2.4-8.4
		c0.8-5.1,1.5-10.6-0.7-15.2c-0.5-0.9-1-1.8-1.2-2.9c-0.2-1,0-2.1,0.1-3.1c0.5-3.5,0.6-7.2-1-10.3c-0.7-1.4-1.7-2.6-2.9-3.7
		C1105.6,192.3,1080.3,200.2,1066.9,212.5z"/>
	<g>
		<path class="st11" d="M1122.3,158.4c0,0,2.7,67.7-15.3,89.2c-18,21.5-19.7,1.7-19.7,1.7s-6.1-12.7,20.2-89.6
			c0,0,8.4-24.3,16.9-21.7s22.6,14.9,34.2,15.5c0,0-10.3,3.2-15.6,0.4c-5.2-2.9,11.2,9.9,13.8,21.3
			C1159.6,186.6,1137.5,180.3,1122.3,158.4z"/>
		<path class="st17" d="M1141.6,163.2c0,0,11,8,13.8,15.8"/>
		<path class="st18" d="M1127,147.4c0,0,9.7,5.7,9.4,16.3c0,0,13.2,0.1,16.3,5.2l-19.1,0.9"/>
		<path class="st17" d="M1142.2,169.8c0,0,8.6,7.2,8.9,11.1"/>
	</g>
	<path class="st10" d="M929.2,216.9c-2.9,4.5-4.3,10.3-2.3,15.3c1.2,3,3.5,5.6,6.5,7c-0.9,3.8-1.8,8,0.2,11.3
		c1.3,2.1,3.7,3.4,5.9,4.6c8.7,4.5,18.6,8.4,28,6c5-1.3,9.4-4.2,13.6-7c3.1-2.1,6.3-4.2,9-6.8c3.2-3,5.8-6.7,7.5-10.8
		c1-2.3,1.7-4.7,1.5-7.1c-0.5-4.9-4.6-8.6-8.4-11.8c-3.3-2.7-7-5.6-11.3-6c-2-4.5-4.3-9.3-8.7-11.3c-2.7-1.2-5.7-1.2-8.6-1.1
		C948.7,200,936.6,205.3,929.2,216.9z"/>
	<g>
		<path class="st11" d="M923.2,158.9c0,0,9.3,67.1,30.7,85.1s19.7-1.7,19.7-1.7s3.8-13.6-35.7-84.7c0,0-12.6-22.4-20.5-18.4
			c-7.9,4-19.6,18.6-30.9,21.3c0,0,10.7,1.4,15.4-2.3s-9.2,11.7-9.9,23.4C891.4,193.2,912.1,183.1,923.2,158.9z"/>
		<path class="st17" d="M905.1,167c0,0-9.5,9.8-10.8,18"/>
		<path class="st18" d="M916.6,148.9c0,0-8.6,7.4-6.3,17.7c0,0-13,2.5-15.1,7.9l19-2.5"/>
		<path class="st17" d="M905.6,173.6c0,0-7.2,8.6-6.8,12.5"/>
	</g>
	<path class="st19" d="M1009,210.8c0,0,29,3.2,52.9,0.4l-0.4,8.6c0,0-17.2,9.8-30.4,9.2c-13.2-0.6-25.1-11.6-25.1-11.6
		S1007.3,210.7,1009,210.8z"/>
	<line class="st20" x1="913" y1="77.3" x2="871.9" y2="59.8"/>
	<line class="st20" x1="910.6" y1="94.7" x2="867.8" y2="102.4"/>
	<line class="st20" x1="915.1" y1="115.4" x2="886.5" y2="135"/>
</g>
</svg>
