<?xml version="1.0" encoding="utf-8"?>
<!-- Generator: Adobe Illustrator 24.1.2, SVG Export Plug-In . SVG Version: 6.00 Build 0)  -->
<svg version="1.1" id="Layer_1" xmlns="http://www.w3.org/2000/svg" xmlns:xlink="http://www.w3.org/1999/xlink" x="0px" y="0px"
	 viewBox="0 0 258 216" style="enable-background:new 0 0 258 216;" xml:space="preserve">
<style type="text/css">
	.st0{fill:#457E9B;}
	.st1{fill:#FFFFFF;}
</style>
<g>
	<path class="st0" d="M241.7,210.9H16.5c-5.8,0-10.4-4.7-10.4-10.4V16.3c0-5.8,4.7-10.4,10.4-10.4h225.1c5.8,0,10.4,4.7,10.4,10.4
		v184.1C252.1,206.2,247.4,210.9,241.7,210.9z"/>
	<g>
		<g>
			<path class="st1" d="M82.8,77.4H21.4c-1.5,0-2.8-1.2-2.8-2.8V49.2c0-1.5,1.2-2.8,2.8-2.8h61.4c1.5,0,2.8,1.2,2.8,2.8v25.4
				C85.6,76.1,84.3,77.4,82.8,77.4z"/>
			<path class="st1" d="M159.6,77.9H98.1c-1.5,0-2.8-1.2-2.8-2.8V49.7c0-1.5,1.2-2.8,2.8-2.8h61.4c1.5,0,2.8,1.2,2.8,2.8v25.4
				C162.3,76.6,161.1,77.9,159.6,77.9z"/>
			<path class="st1" d="M236.3,77.9h-61.4c-1.5,0-2.8-1.2-2.8-2.8V49.7c0-1.5,1.2-2.8,2.8-2.8h61.4c1.5,0,2.8,1.2,2.8,2.8v25.4
				C239.1,76.6,237.8,77.9,236.3,77.9z"/>
		</g>
		<g>
			<path class="st1" d="M82.8,117.1H21.4c-1.5,0-2.8-1.2-2.8-2.8V88.8c0-1.5,1.2-2.8,2.8-2.8h61.4c1.5,0,2.8,1.2,2.8,2.8v25.4
				C85.6,115.8,84.3,117.1,82.8,117.1z"/>
			<path class="st1" d="M159.6,117.6H98.1c-1.5,0-2.8-1.2-2.8-2.8V89.3c0-1.5,1.2-2.8,2.8-2.8h61.4c1.5,0,2.8,1.2,2.8,2.8v25.4
				C162.3,116.3,161.1,117.6,159.6,117.6z"/>
			<path class="st1" d="M236.3,117.6h-61.4c-1.5,0-2.8-1.2-2.8-2.8V89.3c0-1.5,1.2-2.8,2.8-2.8h61.4c1.5,0,2.8,1.2,2.8,2.8v25.4
				C239.1,116.3,237.8,117.6,236.3,117.6z"/>
		</g>
		<g>
			<path class="st1" d="M82.8,156.7H21.4c-1.5,0-2.8-1.2-2.8-2.8v-25.4c0-1.5,1.2-2.8,2.8-2.8h61.4c1.5,0,2.8,1.2,2.8,2.8v25.4
				C85.6,155.5,84.3,156.7,82.8,156.7z"/>
			<path class="st1" d="M159.6,157.2H98.1c-1.5,0-2.8-1.2-2.8-2.8V129c0-1.5,1.2-2.8,2.8-2.8h61.4c1.5,0,2.8,1.2,2.8,2.8v25.4
				C162.3,156,161.1,157.2,159.6,157.2z"/>
			<path class="st1" d="M236.3,157.2h-61.4c-1.5,0-2.8-1.2-2.8-2.8V129c0-1.5,1.2-2.8,2.8-2.8h61.4c1.5,0,2.8,1.2,2.8,2.8v25.4
				C239.1,156,237.8,157.2,236.3,157.2z"/>
		</g>
		<g>
			<path class="st1" d="M82.8,196.4H21.4c-1.5,0-2.8-1.2-2.8-2.8v-25.4c0-1.5,1.2-2.8,2.8-2.8h61.4c1.5,0,2.8,1.2,2.8,2.8v25.4
				C85.6,195.1,84.3,196.4,82.8,196.4z"/>
			<path class="st1" d="M159.6,196.9H98.1c-1.5,0-2.8-1.2-2.8-2.8v-25.4c0-1.5,1.2-2.8,2.8-2.8h61.4c1.5,0,2.8,1.2,2.8,2.8v25.4
				C162.3,195.6,161.1,196.9,159.6,196.9z"/>
			<path class="st1" d="M236.3,196.9h-61.4c-1.5,0-2.8-1.2-2.8-2.8v-25.4c0-1.5,1.2-2.8,2.8-2.8h61.4c1.5,0,2.8,1.2,2.8,2.8v25.4
				C239.1,195.6,237.8,196.9,236.3,196.9z"/>
		</g>
	</g>
</g>
</svg>
