<?xml version="1.0" encoding="utf-8"?>
<!-- Generator: Adobe Illustrator 25.3.1, SVG Export Plug-In . SVG Version: 6.00 Build 0)  -->
<svg version="1.1" id="Capa_1" xmlns="http://www.w3.org/2000/svg" xmlns:xlink="http://www.w3.org/1999/xlink" x="0px" y="0px"
	 viewBox="0 0 106.2 106.2" style="enable-background:new 0 0 106.2 106.2;" xml:space="preserve">
<style type="text/css">
	.st0{fill:#457E9B;}
	.st1{fill:#D9EDF7;}
</style>
<circle class="st0" cx="53" cy="53" r="50"/>
<g>
	<g>
		<path class="st1" d="M28.4,24.2c4-2.4,7.9-4.6,12-7c2.6,2.2,5,4.4,7.4,6.4c3.3,0,6.4,0,9.9,0c2.1-1.8,4.4-3.8,7-6.1
			c4,2.3,7.8,4.6,11.9,7c-0.5,3.1-1,6-1.5,8.9c1.9,3.2,3.7,6.3,5.6,9.6c2.7,1,5.6,2.1,8.4,3.2c0,4.8,0,9.1,0,14c-2.6,1-5.4,2-8,3
			c-1.9,3.3-3.6,6.5-5.6,10c0.4,2.5,0.9,5.4,1.5,8.8c-3.9,2.3-7.8,4.6-11.9,7c-2.5-2.1-4.7-4.1-6.9-5.9c-3.8,0-7.5,0-11.8,0
			c-1.7,1.5-3.9,3.3-6.4,5.4c-3.9-2.3-7.8-4.5-11.9-6.9c0.6-3.3,1.1-6.4,1.6-9.2c-1.7-3.1-3.2-5.9-4.9-9c-2.6-1-5.4-2.1-8.4-3.2
			c0-4.6,0-9.1,0-14c2.8-1,5.6-2,8.4-3c1.7-3,3.4-5.8,5.2-9C29.8,31.1,29.2,27.9,28.4,24.2z M27.8,59.9c2.2,4,4.2,7.7,6.3,11.4
			c-0.4,2.6-0.9,5.3-1.3,8c2.5,1.5,4.8,2.8,7.1,4.2c2.1-1.8,4-3.5,5.4-4.7c5.2,0,9.8,0,14.5,0c1.9,1.6,3.9,3.4,6,5.2
			c2.5-1.5,4.9-2.8,7.2-4.2c-0.5-3-1-5.6-1.4-7.7c2.5-4.3,4.7-8.2,7-12.4c2-0.7,4.4-1.6,6.9-2.5c0-2.9,0-5.7,0-8.6
			c-2.6-1-5.2-1.9-7.3-2.7c-2.4-4.1-4.6-7.7-7-11.8c0.4-2.3,0.8-5,1.3-7.9c-2.5-1.4-4.8-2.8-7.2-4.2c-2.3,2-4.4,3.8-6.2,5.3
			c-4.4,0-8.3,0-12.6,0c-2-1.7-4.2-3.6-6.6-5.6c-2.5,1.4-4.8,2.8-7.2,4.2c0.6,3.3,1.1,6.4,1.5,8.6c-2.3,4-4.3,7.3-6.5,11.2
			c-2.1,0.8-4.8,1.7-7.4,2.7c0,2.9,0,5.7,0,8.6C23.1,58.2,25.7,59.1,27.8,59.9z"/>
		<path class="st1" d="M53.4,39.8c7.5,0.2,13.1,6.2,12.7,13.7C65.8,61,60,66.4,52.7,66.2c-7.5-0.2-13.1-6-12.9-13.6
			C40.1,45.1,45.8,39.6,53.4,39.8z M52.9,62.4c5.3,0.1,9.3-3.9,9.4-9.3c0.1-5.3-3.9-9.4-9.2-9.4c-5.4,0-9.3,3.8-9.4,9.2
			C43.6,58.3,47.5,62.3,52.9,62.4z"/>
	</g>
</g>
</svg>
