<?xml version="1.0" encoding="utf-8"?>
<!-- Generator: Adobe Illustrator 24.1.2, SVG Export Plug-In . SVG Version: 6.00 Build 0)  -->
<svg version="1.1" id="Layer_1" xmlns="http://www.w3.org/2000/svg" xmlns:xlink="http://www.w3.org/1999/xlink" x="0px" y="0px"
	 viewBox="0 0 10.1 10.1" style="enable-background:new 0 0 10.1 10.1;" xml:space="preserve">
<style type="text/css">
	.st0{fill:url(#SVGID_1_);}
</style>
<linearGradient id="SVGID_1_" gradientUnits="userSpaceOnUse" x1="5.0726" y1="8.2898" x2="5.0726" y2="1.8554">
	<stop  offset="0" style="stop-color:#7AA84E"/>
	<stop  offset="1" style="stop-color:#89C459"/>
</linearGradient>
<circle class="st0" cx="5.1" cy="5.1" r="3.2"/>
</svg>
