<?xml version="1.0" encoding="utf-8"?>
<!-- Generator: Adobe Illustrator 24.1.2, SVG Export Plug-In . SVG Version: 6.00 Build 0)  -->
<svg version="1.1" id="Layer_1" xmlns="http://www.w3.org/2000/svg" xmlns:xlink="http://www.w3.org/1999/xlink" x="0px" y="0px"
	 viewBox="0 0 64 64" style="enable-background:new 0 0 64 64;" xml:space="preserve">
<style type="text/css">
	.st0{fill:#F0AD4E;}
	.st1{fill:#FFFFFF;}
</style>
<path class="st0" d="M59.2,62.7h-58v-58c0-2.2,1.8-4,4-4h58v58C63.2,60.9,61.4,62.7,59.2,62.7z"/>
<g>
	<g>
		<path class="st1" d="M37.1,13h2.4h4.7L49,49.7h-2.4h-4.3l-1.9-17.2H28.6L16.7,49.7h-2.4H10L37.1,13z M38.8,18.4l-8.8,11.5h10.1
			L38.8,18.4z"/>
	</g>
</g>
</svg>
