<?xml version="1.0" encoding="utf-8"?>
<!-- Generator: Adobe Illustrator 24.1.2, SVG Export Plug-In . SVG Version: 6.00 Build 0)  -->
<svg version="1.1" id="Layer_1" xmlns="http://www.w3.org/2000/svg" xmlns:xlink="http://www.w3.org/1999/xlink" x="0px" y="0px"
	 viewBox="0 0 64 64" style="enable-background:new 0 0 64 64;" xml:space="preserve">
<style type="text/css">
	.st0{fill:#F0AD4E;}
	.st1{fill:#FFFFFF;}
</style>
<path class="st0" d="M59.2,62.7h-58v-58c0-2.2,1.8-4,4-4h58v58C63.2,60.9,61.4,62.7,59.2,62.7z"/>
<g>
	<g>
		<path class="st1" d="M40.5,13c1.7,0.1,3.2,0.3,4.4,0.7c1.3,0.4,2.3,0.9,3.2,1.6c0.8,0.7,1.3,1.6,1.6,2.7c0.2,1.1,0.2,2.4-0.2,3.8
			l-0.2,0.7c-0.4,1-0.9,2-1.4,2.9c-0.6,0.9-1.2,1.6-2,2.4c-0.8,0.7-1.6,1.3-2.5,1.8c-0.9,0.5-2,0.9-3.1,1.2c1.2,0,2.2,0.3,3,0.7
			c0.8,0.4,1.4,1,1.9,1.8c0.4,0.8,0.8,1.6,1,2.4c0.2,0.8,0.3,1.7,0.2,2.6c0,0.2-0.1,0.3-0.1,0.5c0,0.1-0.1,0.3-0.1,0.4
			c0,0,0,0.1,0,0.2c0,0.1,0,0.1,0,0.2c0,0.1,0,0.1,0,0.2c0,0.1,0,0.1,0,0.2l-0.2,0.7c-0.6,1.8-1.3,3.3-2.2,4.5s-2,2.1-3.3,2.8
			c-1.3,0.6-2.6,1.1-4.1,1.4c-1.4,0.3-3,0.5-4.6,0.5H29c0,0-0.1,0-0.2,0c0,0-0.1,0-0.1,0c0,0-0.1,0-0.1,0c0,0-0.1,0-0.2,0
			c0,0-0.1,0-0.1,0c0,0-0.1,0-0.1,0H28H28c-0.1,0-0.2,0-0.3,0c-0.1,0-0.2,0-0.2,0c0,0-0.1,0-0.1,0c0,0-0.1,0-0.1,0c0,0-0.1,0-0.1,0
			c0,0-0.1,0-0.1,0l-11.3-0.1L25.5,13h2.4H40.5z M39.6,39.3c0.2-0.8,0.3-1.6,0.3-2.3c-0.1-0.7-0.3-1.3-0.6-1.8
			c-0.4-0.5-0.8-0.9-1.2-1.3c-0.4-0.4-0.9-0.7-1.4-0.9c-0.4-0.2-0.8-0.4-1.2-0.5c-0.4-0.1-0.8-0.2-1.2-0.2c-0.4-0.1-0.7-0.1-1-0.1
			c-0.3,0-0.5,0-0.7,0l-5.9-0.1l-4,15.1h5.9c0.2,0.1,0.4,0.1,0.7,0.1c0.3,0,0.6,0,1-0.1c0.3,0,0.7-0.1,1-0.1
			c0.4-0.1,0.7-0.2,1.1-0.3c0.7-0.2,1.4-0.4,2.1-0.8c0.7-0.3,1.4-0.7,2-1.2c0.7-0.4,1.2-1,1.7-1.7c0.5-0.7,0.8-1.5,1.1-2.5l0.2-0.8
			L39.6,39.3z M27.3,29.5H31c1.2,0.1,2.3,0,3.4-0.2c1.1-0.2,2.2-0.5,3.2-0.9c1.1-0.4,2-1.1,2.9-2c0.8-1,1.6-2.2,2.2-3.7
			c0-0.2,0.1-0.4,0.1-0.6c0.1-0.2,0.1-0.5,0.1-0.7c0-0.2,0.1-0.3,0.1-0.5c0-0.2,0-0.3,0-0.5c0-0.1,0-0.2,0-0.3c0-0.1,0-0.2,0-0.3
			c0-0.5-0.1-1-0.3-1.4s-0.5-0.9-0.9-1.3c-0.4-0.4-1-0.8-1.8-1c-0.8-0.2-1.8-0.3-3-0.3L31,15.6L27.3,29.5z"/>
	</g>
</g>
</svg>
