<?xml version="1.0" encoding="utf-8"?>
<!-- Generator: Adobe Illustrator 24.1.2, SVG Export Plug-In . SVG Version: 6.00 Build 0)  -->
<svg version="1.1" id="Layer_1" xmlns="http://www.w3.org/2000/svg" xmlns:xlink="http://www.w3.org/1999/xlink" x="0px" y="0px"
	 viewBox="0 0 66 66" style="enable-background:new 0 0 66 66;" xml:space="preserve">
<style type="text/css">
	.st0{fill:#F0AD4E;}
	.st1{fill:#FFFFFF;}
</style>
<path class="st0" d="M60,64H2V6c0-2.2,1.8-4,4-4h58v58C64,62.2,62.2,64,60,64z"/>
<g>
	<g>
		<path class="st1" d="M31.4,19.4l0.9-3.4l4.1-2.2h3.4l-10,37.1h-3.8l9-33.7L31.4,19.4z"/>
		<path class="st1" d="M37,47.1l-1,3.8h-4.3l1-3.8H37z"/>
	</g>
</g>
</svg>
