<?xml version="1.0" encoding="utf-8"?>
<!-- Generator: Adobe Illustrator 24.1.2, SVG Export Plug-In . SVG Version: 6.00 Build 0)  -->
<svg version="1.1" id="Layer_1" xmlns="http://www.w3.org/2000/svg" xmlns:xlink="http://www.w3.org/1999/xlink" x="0px" y="0px"
	 viewBox="0 0 150 150" style="enable-background:new 0 0 150 150;" xml:space="preserve">
<style type="text/css">
	.st0{fill:#A4CCA3;}
	.st1{fill:#DFF0D7;}
	.st2{fill:#7C997A;}
</style>
<circle class="st0" cx="70.5" cy="79.2" r="68.8"/>
<path class="st1" d="M145.2,24.6L125.6,4.9c-3.9-3.9-10.2-3.9-14.1,0L45.4,71L79.3,105L145.2,39C149.2,35,149.2,28.6,145.2,24.6z"/>
<polygon class="st2" points="45.4,71 38.4,111.3 79.3,104.9 "/>
<polygon class="st1" points="59.4,108 42,90.6 38.4,111.3 "/>
<path class="st0" d="M145.2,24.6L125.6,4.9c-3.9-3.9-10.2-3.9-14.1,0L99.6,16.8c14.9,7,26.9,19.1,33.7,34.2l12-12
	C149.2,35,149.2,28.6,145.2,24.6z"/>
</svg>
